hashvoter;optionId;bezeichnung;rank
line2-11perc-ballots-01;D;Democrat;3
line2-11perc-ballots-01;G;GOP;1
line2-11perc-ballots-01;M;MAGA;2
line2-11perc-ballots-02;D;Democrat;3
line2-11perc-ballots-02;G;GOP;1
line2-11perc-ballots-02;M;MAGA;2
line2-11perc-ballots-03;D;Democrat;3
line2-11perc-ballots-03;G;GOP;1
line2-11perc-ballots-03;M;MAGA;2
line2-11perc-ballots-04;D;Democrat;3
line2-11perc-ballots-04;G;GOP;1
line2-11perc-ballots-04;M;MAGA;2
line2-11perc-ballots-05;D;Democrat;3
line2-11perc-ballots-05;G;GOP;1
line2-11perc-ballots-05;M;MAGA;2
line2-11perc-ballots-06;D;Democrat;3
line2-11perc-ballots-06;G;GOP;1
line2-11perc-ballots-06;M;MAGA;2
line2-11perc-ballots-07;D;Democrat;3
line2-11perc-ballots-07;G;GOP;1
line2-11perc-ballots-07;M;MAGA;2
line2-11perc-ballots-08;D;Democrat;3
line2-11perc-ballots-08;G;GOP;1
line2-11perc-ballots-08;M;MAGA;2
line2-11perc-ballots-09;D;Democrat;3
line2-11perc-ballots-09;G;GOP;1
line2-11perc-ballots-09;M;MAGA;2
line2-11perc-ballots-10;D;Democrat;3
line2-11perc-ballots-10;G;GOP;1
line2-11perc-ballots-10;M;MAGA;2
line2-11perc-ballots-11;D;Democrat;3
line2-11perc-ballots-11;G;GOP;1
line2-11perc-ballots-11;M;MAGA;2
line3-11perc-ballots-01;D;Democrat;2
line3-11perc-ballots-01;G;GOP;1
line3-11perc-ballots-01;M;MAGA;3
line3-11perc-ballots-02;D;Democrat;2
line3-11perc-ballots-02;G;GOP;1
line3-11perc-ballots-02;M;MAGA;3
line3-11perc-ballots-03;D;Democrat;2
line3-11perc-ballots-03;G;GOP;1
line3-11perc-ballots-03;M;MAGA;3
line3-11perc-ballots-04;D;Democrat;2
line3-11perc-ballots-04;G;GOP;1
line3-11perc-ballots-04;M;MAGA;3
line3-11perc-ballots-05;D;Democrat;2
line3-11perc-ballots-05;G;GOP;1
line3-11perc-ballots-05;M;MAGA;3
line3-11perc-ballots-06;D;Democrat;2
line3-11perc-ballots-06;G;GOP;1
line3-11perc-ballots-06;M;MAGA;3
line3-11perc-ballots-07;D;Democrat;2
line3-11perc-ballots-07;G;GOP;1
line3-11perc-ballots-07;M;MAGA;3
line3-11perc-ballots-08;D;Democrat;2
line3-11perc-ballots-08;G;GOP;1
line3-11perc-ballots-08;M;MAGA;3
line3-11perc-ballots-09;D;Democrat;2
line3-11perc-ballots-09;G;GOP;1
line3-11perc-ballots-09;M;MAGA;3
line3-11perc-ballots-10;D;Democrat;2
line3-11perc-ballots-10;G;GOP;1
line3-11perc-ballots-10;M;MAGA;3
line3-11perc-ballots-11;D;Democrat;2
line3-11perc-ballots-11;G;GOP;1
line3-11perc-ballots-11;M;MAGA;3
34perc-ballots-01;D;Democrat;1
34perc-ballots-01;G;GOP;2
34perc-ballots-01;M;MAGA;3
34perc-ballots-02;D;Democrat;1
34perc-ballots-02;G;GOP;2
34perc-ballots-02;M;MAGA;3
34perc-ballots-03;D;Democrat;1
34perc-ballots-03;G;GOP;2
34perc-ballots-03;M;MAGA;3
34perc-ballots-04;D;Democrat;1
34perc-ballots-04;G;GOP;2
34perc-ballots-04;M;MAGA;3
34perc-ballots-05;D;Democrat;1
34perc-ballots-05;G;GOP;2
34perc-ballots-05;M;MAGA;3
34perc-ballots-06;D;Democrat;1
34perc-ballots-06;G;GOP;2
34perc-ballots-06;M;MAGA;3
34perc-ballots-07;D;Democrat;1
34perc-ballots-07;G;GOP;2
34perc-ballots-07;M;MAGA;3
34perc-ballots-08;D;Democrat;1
34perc-ballots-08;G;GOP;2
34perc-ballots-08;M;MAGA;3
34perc-ballots-09;D;Democrat;1
34perc-ballots-09;G;GOP;2
34perc-ballots-09;M;MAGA;3
34perc-ballots-10;D;Democrat;1
34perc-ballots-10;G;GOP;2
34perc-ballots-10;M;MAGA;3
34perc-ballots-11;D;Democrat;1
34perc-ballots-11;G;GOP;2
34perc-ballots-11;M;MAGA;3
34perc-ballots-12;D;Democrat;1
34perc-ballots-12;G;GOP;2
34perc-ballots-12;M;MAGA;3
34perc-ballots-13;D;Democrat;1
34perc-ballots-13;G;GOP;2
34perc-ballots-13;M;MAGA;3
34perc-ballots-14;D;Democrat;1
34perc-ballots-14;G;GOP;2
34perc-ballots-14;M;MAGA;3
34perc-ballots-15;D;Democrat;1
34perc-ballots-15;G;GOP;2
34perc-ballots-15;M;MAGA;3
34perc-ballots-16;D;Democrat;1
34perc-ballots-16;G;GOP;2
34perc-ballots-16;M;MAGA;3
34perc-ballots-17;D;Democrat;1
34perc-ballots-17;G;GOP;2
34perc-ballots-17;M;MAGA;3
34perc-ballots-18;D;Democrat;1
34perc-ballots-18;G;GOP;2
34perc-ballots-18;M;MAGA;3
34perc-ballots-19;D;Democrat;1
34perc-ballots-19;G;GOP;2
34perc-ballots-19;M;MAGA;3
34perc-ballots-20;D;Democrat;1
34perc-ballots-20;G;GOP;2
34perc-ballots-20;M;MAGA;3
34perc-ballots-21;D;Democrat;1
34perc-ballots-21;G;GOP;2
34perc-ballots-21;M;MAGA;3
34perc-ballots-22;D;Democrat;1
34perc-ballots-22;G;GOP;2
34perc-ballots-22;M;MAGA;3
34perc-ballots-23;D;Democrat;1
34perc-ballots-23;G;GOP;2
34perc-ballots-23;M;MAGA;3
34perc-ballots-24;D;Democrat;1
34perc-ballots-24;G;GOP;2
34perc-ballots-24;M;MAGA;3
34perc-ballots-25;D;Democrat;1
34perc-ballots-25;G;GOP;2
34perc-ballots-25;M;MAGA;3
34perc-ballots-26;D;Democrat;1
34perc-ballots-26;G;GOP;2
34perc-ballots-26;M;MAGA;3
34perc-ballots-27;D;Democrat;1
34perc-ballots-27;G;GOP;2
34perc-ballots-27;M;MAGA;3
34perc-ballots-28;D;Democrat;1
34perc-ballots-28;G;GOP;2
34perc-ballots-28;M;MAGA;3
34perc-ballots-29;D;Democrat;1
34perc-ballots-29;G;GOP;2
34perc-ballots-29;M;MAGA;3
34perc-ballots-30;D;Democrat;1
34perc-ballots-30;G;GOP;2
34perc-ballots-30;M;MAGA;3
34perc-ballots-31;D;Democrat;1
34perc-ballots-31;G;GOP;2
34perc-ballots-31;M;MAGA;3
34perc-ballots-32;D;Democrat;1
34perc-ballots-32;G;GOP;2
34perc-ballots-32;M;MAGA;3
34perc-ballots-33;D;Democrat;1
34perc-ballots-33;G;GOP;2
34perc-ballots-33;M;MAGA;3
34perc-ballots-34;D;Democrat;1
34perc-ballots-34;G;GOP;2
34perc-ballots-34;M;MAGA;3
44perc-ballots-01;M;MAGA;1
44perc-ballots-02;M;MAGA;1
44perc-ballots-03;M;MAGA;1
44perc-ballots-04;M;MAGA;1
44perc-ballots-05;M;MAGA;1
44perc-ballots-06;M;MAGA;1
44perc-ballots-07;M;MAGA;1
44perc-ballots-08;M;MAGA;1
44perc-ballots-09;M;MAGA;1
44perc-ballots-10;M;MAGA;1
44perc-ballots-11;M;MAGA;1
44perc-ballots-12;M;MAGA;1
44perc-ballots-13;M;MAGA;1
44perc-ballots-14;M;MAGA;1
44perc-ballots-15;M;MAGA;1
44perc-ballots-16;M;MAGA;1
44perc-ballots-17;M;MAGA;1
44perc-ballots-18;M;MAGA;1
44perc-ballots-19;M;MAGA;1
44perc-ballots-20;M;MAGA;1
44perc-ballots-21;M;MAGA;1
44perc-ballots-22;M;MAGA;1
44perc-ballots-23;M;MAGA;1
44perc-ballots-24;M;MAGA;1
44perc-ballots-25;M;MAGA;1
44perc-ballots-26;M;MAGA;1
44perc-ballots-27;M;MAGA;1
44perc-ballots-28;M;MAGA;1
44perc-ballots-29;M;MAGA;1
44perc-ballots-30;M;MAGA;1
44perc-ballots-31;M;MAGA;1
44perc-ballots-32;M;MAGA;1
44perc-ballots-33;M;MAGA;1
44perc-ballots-34;M;MAGA;1
44perc-ballots-35;M;MAGA;1
44perc-ballots-36;M;MAGA;1
44perc-ballots-37;M;MAGA;1
44perc-ballots-38;M;MAGA;1
44perc-ballots-39;M;MAGA;1
44perc-ballots-40;M;MAGA;1
44perc-ballots-41;M;MAGA;1
44perc-ballots-42;M;MAGA;1
44perc-ballots-43;M;MAGA;1
44perc-ballots-44;M;MAGA;1
