hashvoter;optionId;bezeichnung;rank
35perc-ballots;M;MAGA;1
35perc-ballots;G;GOP;2
35perc-ballots;D;Democrat;3
35perc-ballots;P;Progressive;4
18perc-ballots;M;MAGA;2
18perc-ballots;G;GOP;1
18perc-ballots;D;Democrat;3
18perc-ballots;P;Progressive;4
07perc-ballots;M;MAGA;3
07perc-ballots;G;GOP;1
07perc-ballots;D;Democrat;2
07perc-ballots;P;Progressive;4
05perc-ballots;M;MAGA;4
05perc-ballots;G;GOP;2
05perc-ballots;D;Democrat;1
05perc-ballots;P;Progressive;3
20perc-ballots;M;MAGA;4
20perc-ballots;G;GOP;3
20perc-ballots;D;Democrat;1
20perc-ballots;P;Progressive;2
15perc-ballots;M;MAGA;4
15perc-ballots;G;GOP;3
15perc-ballots;D;Democrat;2
15perc-ballots;P;Progressive;1
