hashvoter;optionId;bezeichnung;rank
39perc-ballots;M;MAGA;1
12perc-ballots;G;GOP;1
12perc-ballots;M;MAGA;2
12perc-ballots;D;Democrat;3
49perc-ballots;D;Democrat;1
49perc-ballots;G;GOP;2
49perc-ballots;M;MAGA;3
