hashvoter;optionId;bezeichnung;rank
40perc-ballots;M;MAGA;1
18perc-ballots;G;GOP;1
18perc-ballots;M;MAGA;2
18perc-ballots;D;Democrat;3
01perc-ballots;G;GOP;1
01perc-ballots;D;Democrat;2
01perc-ballots;M;MAGA;3
41perc-ballots;D;Democrat;1
41perc-ballots;G;GOP;2
41perc-ballots;M;MAGA;3
