hashvoter;optionId;bezeichnung;rank
00899446824c839eb583567b0a66c032;750;"8: Boulanger Matin de Printemps / Prokofjew Romeo + Julia Auszüge / Berlioz Symphonie fantastique";1
03d151c9bd15152d399440491f371344;753;"11: Debussy Prelude / Ravel Klavier / Tschaiko 5";1
03d151c9bd15152d399440491f371344;751;"9: Brahms Tragische Ouv. / Schumann Ouv. / Rachmaninoff 3";2
03d151c9bd15152d399440491f371344;755;"13: Sibelius Finlandia / Elgar Enigma-V. / Rachmaninoff 2";3
03d151c9bd15152d399440491f371344;746;"4: Debussy: 4 Stücke / Brahms 1";4
03d151c9bd15152d399440491f371344;745;"3: Nielsen Helios Ouv. / CMvW Klarinetten 1 / Rachmaninoff Sinfonie 2";5
03d151c9bd15152d399440491f371344;743;"1: Rachmaninoff: Klavierkonzert 3 / Sinfonie 2";6
04dc5fd16cca85590a89d0e556c1e804;745;"3: Nielsen Helios Ouv. / CMvW Klarinetten 1 / Rachmaninoff Sinfonie 2";1
04dc5fd16cca85590a89d0e556c1e804;753;"11: Debussy Prelude / Ravel Klavier / Tschaiko 5";2
04dc5fd16cca85590a89d0e556c1e804;752;"10: Gliinka R.+L. Ouv. / Dvorak Mittagshexe / Tschaiko 5";3
0fa5f31b220808534ec3c7ca7226f4ad;748;"6: CMvW Freischütz-Ouv. / Grieg Norwegische Tänze / Tschaiko 5";1
0fa5f31b220808534ec3c7ca7226f4ad;749;"7: Khachaturian Spartakus Adagio / Rachmaninoff Klavier 3/ Bruckner 4";2
0fa5f31b220808534ec3c7ca7226f4ad;755;"13: Sibelius Finlandia / Elgar Enigma-V. / Rachmaninoff 2";3
0fa5f31b220808534ec3c7ca7226f4ad;743;"1: Rachmaninoff: Klavierkonzert 3 / Sinfonie 2";4
0fa5f31b220808534ec3c7ca7226f4ad;745;"3: Nielsen Helios Ouv. / CMvW Klarinetten 1 / Rachmaninoff Sinfonie 2";5
0fa5f31b220808534ec3c7ca7226f4ad;747;"5: Mendelssohn Hebriden-Ouv. / Grieg Norwegische Tänze / Price 1";6
0fa5f31b220808534ec3c7ca7226f4ad;752;"10: Gliinka R.+L. Ouv. / Dvorak Mittagshexe / Tschaiko 5";7
0fa5f31b220808534ec3c7ca7226f4ad;754;"12: Suppe / Mozart / Ullmann / Bach / Bruckner 4";8
0fa5f31b220808534ec3c7ca7226f4ad;753;"11: Debussy Prelude / Ravel Klavier / Tschaiko 5";9
0fa5f31b220808534ec3c7ca7226f4ad;751;"9: Brahms Tragische Ouv. / Schumann Ouv. / Rachmaninoff 3";10
0fa5f31b220808534ec3c7ca7226f4ad;750;"8: Boulanger Matin de Printemps / Prokofjew Romeo + Julia Auszüge / Berlioz Symphonie fantastique";11
0fa5f31b220808534ec3c7ca7226f4ad;746;"4: Debussy: 4 Stücke / Brahms 1";12
0fa5f31b220808534ec3c7ca7226f4ad;744;"2: Bernstein Candide-Ouv. / Sibelius Violinkonzert / Sibelius Sinfonie 2";13
0fed031ae2c73567f19b4d7f43b1cceb;745;"3: Nielsen Helios Ouv. / CMvW Klarinetten 1 / Rachmaninoff Sinfonie 2";1
0fed031ae2c73567f19b4d7f43b1cceb;747;"5: Mendelssohn Hebriden-Ouv. / Grieg Norwegische Tänze / Price 1";2
0fed031ae2c73567f19b4d7f43b1cceb;750;"8: Boulanger Matin de Printemps / Prokofjew Romeo + Julia Auszüge / Berlioz Symphonie fantastique";3
0fed031ae2c73567f19b4d7f43b1cceb;754;"12: Suppe / Mozart / Ullmann / Bach / Bruckner 4";4
0fed031ae2c73567f19b4d7f43b1cceb;744;"2: Bernstein Candide-Ouv. / Sibelius Violinkonzert / Sibelius Sinfonie 2";5
0fed031ae2c73567f19b4d7f43b1cceb;743;"1: Rachmaninoff: Klavierkonzert 3 / Sinfonie 2";6
0fed031ae2c73567f19b4d7f43b1cceb;748;"6: CMvW Freischütz-Ouv. / Grieg Norwegische Tänze / Tschaiko 5";7
0fed031ae2c73567f19b4d7f43b1cceb;755;"13: Sibelius Finlandia / Elgar Enigma-V. / Rachmaninoff 2";8
0fed031ae2c73567f19b4d7f43b1cceb;746;"4: Debussy: 4 Stücke / Brahms 1";9
0fed031ae2c73567f19b4d7f43b1cceb;752;"10: Gliinka R.+L. Ouv. / Dvorak Mittagshexe / Tschaiko 5";10
0fed031ae2c73567f19b4d7f43b1cceb;753;"11: Debussy Prelude / Ravel Klavier / Tschaiko 5";11
0fed031ae2c73567f19b4d7f43b1cceb;749;"7: Khachaturian Spartakus Adagio / Rachmaninoff Klavier 3/ Bruckner 4";12
0fed031ae2c73567f19b4d7f43b1cceb;751;"9: Brahms Tragische Ouv. / Schumann Ouv. / Rachmaninoff 3";13
1264549baa4237e005022f78449ca87f;748;"6: CMvW Freischütz-Ouv. / Grieg Norwegische Tänze / Tschaiko 5";1
1264549baa4237e005022f78449ca87f;750;"8: Boulanger Matin de Printemps / Prokofjew Romeo + Julia Auszüge / Berlioz Symphonie fantastique";2
1264549baa4237e005022f78449ca87f;753;"11: Debussy Prelude / Ravel Klavier / Tschaiko 5";3
1264549baa4237e005022f78449ca87f;746;"4: Debussy: 4 Stücke / Brahms 1";4
1264549baa4237e005022f78449ca87f;744;"2: Bernstein Candide-Ouv. / Sibelius Violinkonzert / Sibelius Sinfonie 2";5
1264549baa4237e005022f78449ca87f;747;"5: Mendelssohn Hebriden-Ouv. / Grieg Norwegische Tänze / Price 1";6
1264549baa4237e005022f78449ca87f;754;"12: Suppe / Mozart / Ullmann / Bach / Bruckner 4";7
16580eedbe9dafbb1ae6158f36900f5f;743;"1: Rachmaninoff: Klavierkonzert 3 / Sinfonie 2";1
16580eedbe9dafbb1ae6158f36900f5f;744;"2: Bernstein Candide-Ouv. / Sibelius Violinkonzert / Sibelius Sinfonie 2";2
16580eedbe9dafbb1ae6158f36900f5f;755;"13: Sibelius Finlandia / Elgar Enigma-V. / Rachmaninoff 2";3
16580eedbe9dafbb1ae6158f36900f5f;753;"11: Debussy Prelude / Ravel Klavier / Tschaiko 5";4
16580eedbe9dafbb1ae6158f36900f5f;745;"3: Nielsen Helios Ouv. / CMvW Klarinetten 1 / Rachmaninoff Sinfonie 2";5
16580eedbe9dafbb1ae6158f36900f5f;746;"4: Debussy: 4 Stücke / Brahms 1";6
16580eedbe9dafbb1ae6158f36900f5f;752;"10: Gliinka R.+L. Ouv. / Dvorak Mittagshexe / Tschaiko 5";7
16580eedbe9dafbb1ae6158f36900f5f;748;"6: CMvW Freischütz-Ouv. / Grieg Norwegische Tänze / Tschaiko 5";8
16580eedbe9dafbb1ae6158f36900f5f;751;"9: Brahms Tragische Ouv. / Schumann Ouv. / Rachmaninoff 3";9
16580eedbe9dafbb1ae6158f36900f5f;754;"12: Suppe / Mozart / Ullmann / Bach / Bruckner 4";10
16580eedbe9dafbb1ae6158f36900f5f;749;"7: Khachaturian Spartakus Adagio / Rachmaninoff Klavier 3/ Bruckner 4";11
16580eedbe9dafbb1ae6158f36900f5f;747;"5: Mendelssohn Hebriden-Ouv. / Grieg Norwegische Tänze / Price 1";12
16580eedbe9dafbb1ae6158f36900f5f;750;"8: Boulanger Matin de Printemps / Prokofjew Romeo + Julia Auszüge / Berlioz Symphonie fantastique";13
18050cf857e42cfbe192f62ad6ddc1aa;755;"13: Sibelius Finlandia / Elgar Enigma-V. / Rachmaninoff 2";1
1b0de84fe321a00a005ffe8e84012f01;755;"13: Sibelius Finlandia / Elgar Enigma-V. / Rachmaninoff 2";1
1b0de84fe321a00a005ffe8e84012f01;743;"1: Rachmaninoff: Klavierkonzert 3 / Sinfonie 2";2
1b0de84fe321a00a005ffe8e84012f01;749;"7: Khachaturian Spartakus Adagio / Rachmaninoff Klavier 3/ Bruckner 4";3
1b0de84fe321a00a005ffe8e84012f01;747;"5: Mendelssohn Hebriden-Ouv. / Grieg Norwegische Tänze / Price 1";4
1b0de84fe321a00a005ffe8e84012f01;748;"6: CMvW Freischütz-Ouv. / Grieg Norwegische Tänze / Tschaiko 5";5
1b0de84fe321a00a005ffe8e84012f01;750;"8: Boulanger Matin de Printemps / Prokofjew Romeo + Julia Auszüge / Berlioz Symphonie fantastique";6
1b0de84fe321a00a005ffe8e84012f01;753;"11: Debussy Prelude / Ravel Klavier / Tschaiko 5";7
1b0de84fe321a00a005ffe8e84012f01;751;"9: Brahms Tragische Ouv. / Schumann Ouv. / Rachmaninoff 3";8
1b0de84fe321a00a005ffe8e84012f01;752;"10: Gliinka R.+L. Ouv. / Dvorak Mittagshexe / Tschaiko 5";9
1b0de84fe321a00a005ffe8e84012f01;745;"3: Nielsen Helios Ouv. / CMvW Klarinetten 1 / Rachmaninoff Sinfonie 2";10
1b0de84fe321a00a005ffe8e84012f01;744;"2: Bernstein Candide-Ouv. / Sibelius Violinkonzert / Sibelius Sinfonie 2";11
1b56d450e83e64998cc4f78ee2e08bf9;747;"5: Mendelssohn Hebriden-Ouv. / Grieg Norwegische Tänze / Price 1";1
1b56d450e83e64998cc4f78ee2e08bf9;744;"2: Bernstein Candide-Ouv. / Sibelius Violinkonzert / Sibelius Sinfonie 2";2
1b56d450e83e64998cc4f78ee2e08bf9;745;"3: Nielsen Helios Ouv. / CMvW Klarinetten 1 / Rachmaninoff Sinfonie 2";3
1b56d450e83e64998cc4f78ee2e08bf9;749;"7: Khachaturian Spartakus Adagio / Rachmaninoff Klavier 3/ Bruckner 4";4
1b56d450e83e64998cc4f78ee2e08bf9;750;"8: Boulanger Matin de Printemps / Prokofjew Romeo + Julia Auszüge / Berlioz Symphonie fantastique";5
1b56d450e83e64998cc4f78ee2e08bf9;743;"1: Rachmaninoff: Klavierkonzert 3 / Sinfonie 2";6
1b56d450e83e64998cc4f78ee2e08bf9;755;"13: Sibelius Finlandia / Elgar Enigma-V. / Rachmaninoff 2";7
1b56d450e83e64998cc4f78ee2e08bf9;754;"12: Suppe / Mozart / Ullmann / Bach / Bruckner 4";8
1b56d450e83e64998cc4f78ee2e08bf9;751;"9: Brahms Tragische Ouv. / Schumann Ouv. / Rachmaninoff 3";9
1b56d450e83e64998cc4f78ee2e08bf9;753;"11: Debussy Prelude / Ravel Klavier / Tschaiko 5";10
1b56d450e83e64998cc4f78ee2e08bf9;752;"10: Gliinka R.+L. Ouv. / Dvorak Mittagshexe / Tschaiko 5";11
1b56d450e83e64998cc4f78ee2e08bf9;748;"6: CMvW Freischütz-Ouv. / Grieg Norwegische Tänze / Tschaiko 5";12
1b56d450e83e64998cc4f78ee2e08bf9;746;"4: Debussy: 4 Stücke / Brahms 1";13
2421d2126367f246ba323579b977460a;744;"2: Bernstein Candide-Ouv. / Sibelius Violinkonzert / Sibelius Sinfonie 2";1
2421d2126367f246ba323579b977460a;750;"8: Boulanger Matin de Printemps / Prokofjew Romeo + Julia Auszüge / Berlioz Symphonie fantastique";2
2421d2126367f246ba323579b977460a;754;"12: Suppe / Mozart / Ullmann / Bach / Bruckner 4";3
2421d2126367f246ba323579b977460a;749;"7: Khachaturian Spartakus Adagio / Rachmaninoff Klavier 3/ Bruckner 4";4
2421d2126367f246ba323579b977460a;755;"13: Sibelius Finlandia / Elgar Enigma-V. / Rachmaninoff 2";5
2421d2126367f246ba323579b977460a;751;"9: Brahms Tragische Ouv. / Schumann Ouv. / Rachmaninoff 3";6
2421d2126367f246ba323579b977460a;752;"10: Gliinka R.+L. Ouv. / Dvorak Mittagshexe / Tschaiko 5";7
2421d2126367f246ba323579b977460a;753;"11: Debussy Prelude / Ravel Klavier / Tschaiko 5";8
2421d2126367f246ba323579b977460a;748;"6: CMvW Freischütz-Ouv. / Grieg Norwegische Tänze / Tschaiko 5";9
2421d2126367f246ba323579b977460a;747;"5: Mendelssohn Hebriden-Ouv. / Grieg Norwegische Tänze / Price 1";10
2421d2126367f246ba323579b977460a;746;"4: Debussy: 4 Stücke / Brahms 1";11
2421d2126367f246ba323579b977460a;745;"3: Nielsen Helios Ouv. / CMvW Klarinetten 1 / Rachmaninoff Sinfonie 2";12
283246eb98908e6bfe0e7db50cef6492;743;"1: Rachmaninoff: Klavierkonzert 3 / Sinfonie 2";1
283246eb98908e6bfe0e7db50cef6492;744;"2: Bernstein Candide-Ouv. / Sibelius Violinkonzert / Sibelius Sinfonie 2";2
283246eb98908e6bfe0e7db50cef6492;755;"13: Sibelius Finlandia / Elgar Enigma-V. / Rachmaninoff 2";3
283246eb98908e6bfe0e7db50cef6492;749;"7: Khachaturian Spartakus Adagio / Rachmaninoff Klavier 3/ Bruckner 4";4
283246eb98908e6bfe0e7db50cef6492;753;"11: Debussy Prelude / Ravel Klavier / Tschaiko 5";5
283246eb98908e6bfe0e7db50cef6492;751;"9: Brahms Tragische Ouv. / Schumann Ouv. / Rachmaninoff 3";6
283246eb98908e6bfe0e7db50cef6492;746;"4: Debussy: 4 Stücke / Brahms 1";7
283246eb98908e6bfe0e7db50cef6492;754;"12: Suppe / Mozart / Ullmann / Bach / Bruckner 4";8
283246eb98908e6bfe0e7db50cef6492;752;"10: Gliinka R.+L. Ouv. / Dvorak Mittagshexe / Tschaiko 5";9
283246eb98908e6bfe0e7db50cef6492;747;"5: Mendelssohn Hebriden-Ouv. / Grieg Norwegische Tänze / Price 1";10
283246eb98908e6bfe0e7db50cef6492;750;"8: Boulanger Matin de Printemps / Prokofjew Romeo + Julia Auszüge / Berlioz Symphonie fantastique";11
283246eb98908e6bfe0e7db50cef6492;745;"3: Nielsen Helios Ouv. / CMvW Klarinetten 1 / Rachmaninoff Sinfonie 2";12
283246eb98908e6bfe0e7db50cef6492;748;"6: CMvW Freischütz-Ouv. / Grieg Norwegische Tänze / Tschaiko 5";13
2c13d0cf871172a3b3395d8f0b04d717;744;"2: Bernstein Candide-Ouv. / Sibelius Violinkonzert / Sibelius Sinfonie 2";1
2c13d0cf871172a3b3395d8f0b04d717;748;"6: CMvW Freischütz-Ouv. / Grieg Norwegische Tänze / Tschaiko 5";2
2c13d0cf871172a3b3395d8f0b04d717;753;"11: Debussy Prelude / Ravel Klavier / Tschaiko 5";3
2c13d0cf871172a3b3395d8f0b04d717;747;"5: Mendelssohn Hebriden-Ouv. / Grieg Norwegische Tänze / Price 1";4
2c13d0cf871172a3b3395d8f0b04d717;743;"1: Rachmaninoff: Klavierkonzert 3 / Sinfonie 2";5
2c13d0cf871172a3b3395d8f0b04d717;751;"9: Brahms Tragische Ouv. / Schumann Ouv. / Rachmaninoff 3";6
2c13d0cf871172a3b3395d8f0b04d717;746;"4: Debussy: 4 Stücke / Brahms 1";7
2c13d0cf871172a3b3395d8f0b04d717;745;"3: Nielsen Helios Ouv. / CMvW Klarinetten 1 / Rachmaninoff Sinfonie 2";8
2c13d0cf871172a3b3395d8f0b04d717;752;"10: Gliinka R.+L. Ouv. / Dvorak Mittagshexe / Tschaiko 5";9
2c13d0cf871172a3b3395d8f0b04d717;750;"8: Boulanger Matin de Printemps / Prokofjew Romeo + Julia Auszüge / Berlioz Symphonie fantastique";10
2c13d0cf871172a3b3395d8f0b04d717;755;"13: Sibelius Finlandia / Elgar Enigma-V. / Rachmaninoff 2";11
2f5ccb8290903722bd25184ca5fc85d2;745;"3: Nielsen Helios Ouv. / CMvW Klarinetten 1 / Rachmaninoff Sinfonie 2";1
2f5ccb8290903722bd25184ca5fc85d2;750;"8: Boulanger Matin de Printemps / Prokofjew Romeo + Julia Auszüge / Berlioz Symphonie fantastique";2
2f5ccb8290903722bd25184ca5fc85d2;746;"4: Debussy: 4 Stücke / Brahms 1";3
301baaf0681c52eaf02630fa40ee1684;747;"5: Mendelssohn Hebriden-Ouv. / Grieg Norwegische Tänze / Price 1";1
301baaf0681c52eaf02630fa40ee1684;748;"6: CMvW Freischütz-Ouv. / Grieg Norwegische Tänze / Tschaiko 5";2
301baaf0681c52eaf02630fa40ee1684;751;"9: Brahms Tragische Ouv. / Schumann Ouv. / Rachmaninoff 3";3
301baaf0681c52eaf02630fa40ee1684;755;"13: Sibelius Finlandia / Elgar Enigma-V. / Rachmaninoff 2";4
301baaf0681c52eaf02630fa40ee1684;749;"7: Khachaturian Spartakus Adagio / Rachmaninoff Klavier 3/ Bruckner 4";5
301baaf0681c52eaf02630fa40ee1684;750;"8: Boulanger Matin de Printemps / Prokofjew Romeo + Julia Auszüge / Berlioz Symphonie fantastique";6
301baaf0681c52eaf02630fa40ee1684;754;"12: Suppe / Mozart / Ullmann / Bach / Bruckner 4";7
301baaf0681c52eaf02630fa40ee1684;743;"1: Rachmaninoff: Klavierkonzert 3 / Sinfonie 2";8
301baaf0681c52eaf02630fa40ee1684;752;"10: Gliinka R.+L. Ouv. / Dvorak Mittagshexe / Tschaiko 5";9
301baaf0681c52eaf02630fa40ee1684;753;"11: Debussy Prelude / Ravel Klavier / Tschaiko 5";10
301baaf0681c52eaf02630fa40ee1684;744;"2: Bernstein Candide-Ouv. / Sibelius Violinkonzert / Sibelius Sinfonie 2";11
301baaf0681c52eaf02630fa40ee1684;746;"4: Debussy: 4 Stücke / Brahms 1";12
301baaf0681c52eaf02630fa40ee1684;745;"3: Nielsen Helios Ouv. / CMvW Klarinetten 1 / Rachmaninoff Sinfonie 2";13
35afb8f382b192188a289a3537e7a480;743;"1: Rachmaninoff: Klavierkonzert 3 / Sinfonie 2";1
35afb8f382b192188a289a3537e7a480;752;"10: Gliinka R.+L. Ouv. / Dvorak Mittagshexe / Tschaiko 5";2
35afb8f382b192188a289a3537e7a480;755;"13: Sibelius Finlandia / Elgar Enigma-V. / Rachmaninoff 2";3
35afb8f382b192188a289a3537e7a480;748;"6: CMvW Freischütz-Ouv. / Grieg Norwegische Tänze / Tschaiko 5";4
35afb8f382b192188a289a3537e7a480;747;"5: Mendelssohn Hebriden-Ouv. / Grieg Norwegische Tänze / Price 1";5
35afb8f382b192188a289a3537e7a480;744;"2: Bernstein Candide-Ouv. / Sibelius Violinkonzert / Sibelius Sinfonie 2";6
35afb8f382b192188a289a3537e7a480;753;"11: Debussy Prelude / Ravel Klavier / Tschaiko 5";7
35afb8f382b192188a289a3537e7a480;750;"8: Boulanger Matin de Printemps / Prokofjew Romeo + Julia Auszüge / Berlioz Symphonie fantastique";8
39b6950f0836d149a0ae3cdd134e7bf2;754;"12: Suppe / Mozart / Ullmann / Bach / Bruckner 4";1
39b6950f0836d149a0ae3cdd134e7bf2;751;"9: Brahms Tragische Ouv. / Schumann Ouv. / Rachmaninoff 3";2
39b6950f0836d149a0ae3cdd134e7bf2;747;"5: Mendelssohn Hebriden-Ouv. / Grieg Norwegische Tänze / Price 1";3
39b6950f0836d149a0ae3cdd134e7bf2;749;"7: Khachaturian Spartakus Adagio / Rachmaninoff Klavier 3/ Bruckner 4";4
39b6950f0836d149a0ae3cdd134e7bf2;755;"13: Sibelius Finlandia / Elgar Enigma-V. / Rachmaninoff 2";5
3d2c7cf2a7243bb046312272f8deb1fb;750;"8: Boulanger Matin de Printemps / Prokofjew Romeo + Julia Auszüge / Berlioz Symphonie fantastique";1
3d2c7cf2a7243bb046312272f8deb1fb;743;"1: Rachmaninoff: Klavierkonzert 3 / Sinfonie 2";2
3d2c7cf2a7243bb046312272f8deb1fb;744;"2: Bernstein Candide-Ouv. / Sibelius Violinkonzert / Sibelius Sinfonie 2";3
3d2c7cf2a7243bb046312272f8deb1fb;747;"5: Mendelssohn Hebriden-Ouv. / Grieg Norwegische Tänze / Price 1";4
3d2c7cf2a7243bb046312272f8deb1fb;753;"11: Debussy Prelude / Ravel Klavier / Tschaiko 5";5
3d2c7cf2a7243bb046312272f8deb1fb;755;"13: Sibelius Finlandia / Elgar Enigma-V. / Rachmaninoff 2";6
3d2c7cf2a7243bb046312272f8deb1fb;752;"10: Gliinka R.+L. Ouv. / Dvorak Mittagshexe / Tschaiko 5";7
3d2c7cf2a7243bb046312272f8deb1fb;746;"4: Debussy: 4 Stücke / Brahms 1";8
3e99c09c3e2a4a182c4bf7f720f2faba;747;"5: Mendelssohn Hebriden-Ouv. / Grieg Norwegische Tänze / Price 1";1
3e99c09c3e2a4a182c4bf7f720f2faba;749;"7: Khachaturian Spartakus Adagio / Rachmaninoff Klavier 3/ Bruckner 4";2
3e99c09c3e2a4a182c4bf7f720f2faba;750;"8: Boulanger Matin de Printemps / Prokofjew Romeo + Julia Auszüge / Berlioz Symphonie fantastique";3
3e99c09c3e2a4a182c4bf7f720f2faba;744;"2: Bernstein Candide-Ouv. / Sibelius Violinkonzert / Sibelius Sinfonie 2";4
3e99c09c3e2a4a182c4bf7f720f2faba;746;"4: Debussy: 4 Stücke / Brahms 1";5
3e99c09c3e2a4a182c4bf7f720f2faba;748;"6: CMvW Freischütz-Ouv. / Grieg Norwegische Tänze / Tschaiko 5";6
3e99c09c3e2a4a182c4bf7f720f2faba;751;"9: Brahms Tragische Ouv. / Schumann Ouv. / Rachmaninoff 3";7
3e99c09c3e2a4a182c4bf7f720f2faba;745;"3: Nielsen Helios Ouv. / CMvW Klarinetten 1 / Rachmaninoff Sinfonie 2";8
3e99c09c3e2a4a182c4bf7f720f2faba;755;"13: Sibelius Finlandia / Elgar Enigma-V. / Rachmaninoff 2";9
3e99c09c3e2a4a182c4bf7f720f2faba;743;"1: Rachmaninoff: Klavierkonzert 3 / Sinfonie 2";10
3e99c09c3e2a4a182c4bf7f720f2faba;753;"11: Debussy Prelude / Ravel Klavier / Tschaiko 5";11
3e99c09c3e2a4a182c4bf7f720f2faba;754;"12: Suppe / Mozart / Ullmann / Bach / Bruckner 4";12
3e99c09c3e2a4a182c4bf7f720f2faba;752;"10: Gliinka R.+L. Ouv. / Dvorak Mittagshexe / Tschaiko 5";13
41994f3863894bfb71615cf366acf343;750;"8: Boulanger Matin de Printemps / Prokofjew Romeo + Julia Auszüge / Berlioz Symphonie fantastique";1
41994f3863894bfb71615cf366acf343;748;"6: CMvW Freischütz-Ouv. / Grieg Norwegische Tänze / Tschaiko 5";2
41994f3863894bfb71615cf366acf343;747;"5: Mendelssohn Hebriden-Ouv. / Grieg Norwegische Tänze / Price 1";3
41994f3863894bfb71615cf366acf343;753;"11: Debussy Prelude / Ravel Klavier / Tschaiko 5";4
41994f3863894bfb71615cf366acf343;752;"10: Gliinka R.+L. Ouv. / Dvorak Mittagshexe / Tschaiko 5";5
4864bd95598bc158dbe67422ebbf5bff;745;"3: Nielsen Helios Ouv. / CMvW Klarinetten 1 / Rachmaninoff Sinfonie 2";1
4864bd95598bc158dbe67422ebbf5bff;755;"13: Sibelius Finlandia / Elgar Enigma-V. / Rachmaninoff 2";2
4864bd95598bc158dbe67422ebbf5bff;749;"7: Khachaturian Spartakus Adagio / Rachmaninoff Klavier 3/ Bruckner 4";3
4864bd95598bc158dbe67422ebbf5bff;751;"9: Brahms Tragische Ouv. / Schumann Ouv. / Rachmaninoff 3";4
4864bd95598bc158dbe67422ebbf5bff;743;"1: Rachmaninoff: Klavierkonzert 3 / Sinfonie 2";5
4864bd95598bc158dbe67422ebbf5bff;744;"2: Bernstein Candide-Ouv. / Sibelius Violinkonzert / Sibelius Sinfonie 2";6
4864bd95598bc158dbe67422ebbf5bff;746;"4: Debussy: 4 Stücke / Brahms 1";7
4864bd95598bc158dbe67422ebbf5bff;750;"8: Boulanger Matin de Printemps / Prokofjew Romeo + Julia Auszüge / Berlioz Symphonie fantastique";8
4c60f710a814fa0b81bc66539b5d5230;747;"5: Mendelssohn Hebriden-Ouv. / Grieg Norwegische Tänze / Price 1";1
4c60f710a814fa0b81bc66539b5d5230;750;"8: Boulanger Matin de Printemps / Prokofjew Romeo + Julia Auszüge / Berlioz Symphonie fantastique";2
4c60f710a814fa0b81bc66539b5d5230;755;"13: Sibelius Finlandia / Elgar Enigma-V. / Rachmaninoff 2";3
4c60f710a814fa0b81bc66539b5d5230;746;"4: Debussy: 4 Stücke / Brahms 1";4
4c60f710a814fa0b81bc66539b5d5230;751;"9: Brahms Tragische Ouv. / Schumann Ouv. / Rachmaninoff 3";5
4c60f710a814fa0b81bc66539b5d5230;745;"3: Nielsen Helios Ouv. / CMvW Klarinetten 1 / Rachmaninoff Sinfonie 2";6
4c60f710a814fa0b81bc66539b5d5230;744;"2: Bernstein Candide-Ouv. / Sibelius Violinkonzert / Sibelius Sinfonie 2";7
4c60f710a814fa0b81bc66539b5d5230;748;"6: CMvW Freischütz-Ouv. / Grieg Norwegische Tänze / Tschaiko 5";8
4c60f710a814fa0b81bc66539b5d5230;752;"10: Gliinka R.+L. Ouv. / Dvorak Mittagshexe / Tschaiko 5";9
4c60f710a814fa0b81bc66539b5d5230;753;"11: Debussy Prelude / Ravel Klavier / Tschaiko 5";10
4c60f710a814fa0b81bc66539b5d5230;754;"12: Suppe / Mozart / Ullmann / Bach / Bruckner 4";11
4c60f710a814fa0b81bc66539b5d5230;743;"1: Rachmaninoff: Klavierkonzert 3 / Sinfonie 2";12
4c60f710a814fa0b81bc66539b5d5230;749;"7: Khachaturian Spartakus Adagio / Rachmaninoff Klavier 3/ Bruckner 4";13
4dca5743a96bbd6434b02cf5f57443cf;754;"12: Suppe / Mozart / Ullmann / Bach / Bruckner 4";1
4dca5743a96bbd6434b02cf5f57443cf;749;"7: Khachaturian Spartakus Adagio / Rachmaninoff Klavier 3/ Bruckner 4";2
4dca5743a96bbd6434b02cf5f57443cf;748;"6: CMvW Freischütz-Ouv. / Grieg Norwegische Tänze / Tschaiko 5";3
4dca5743a96bbd6434b02cf5f57443cf;755;"13: Sibelius Finlandia / Elgar Enigma-V. / Rachmaninoff 2";4
4dca5743a96bbd6434b02cf5f57443cf;753;"11: Debussy Prelude / Ravel Klavier / Tschaiko 5";5
4dca5743a96bbd6434b02cf5f57443cf;751;"9: Brahms Tragische Ouv. / Schumann Ouv. / Rachmaninoff 3";6
4dca5743a96bbd6434b02cf5f57443cf;747;"5: Mendelssohn Hebriden-Ouv. / Grieg Norwegische Tänze / Price 1";7
4dca5743a96bbd6434b02cf5f57443cf;746;"4: Debussy: 4 Stücke / Brahms 1";8
4dca5743a96bbd6434b02cf5f57443cf;750;"8: Boulanger Matin de Printemps / Prokofjew Romeo + Julia Auszüge / Berlioz Symphonie fantastique";9
4dca5743a96bbd6434b02cf5f57443cf;752;"10: Gliinka R.+L. Ouv. / Dvorak Mittagshexe / Tschaiko 5";10
4dca5743a96bbd6434b02cf5f57443cf;745;"3: Nielsen Helios Ouv. / CMvW Klarinetten 1 / Rachmaninoff Sinfonie 2";11
4dca5743a96bbd6434b02cf5f57443cf;744;"2: Bernstein Candide-Ouv. / Sibelius Violinkonzert / Sibelius Sinfonie 2";12
4dca5743a96bbd6434b02cf5f57443cf;743;"1: Rachmaninoff: Klavierkonzert 3 / Sinfonie 2";13
4f91438fbf31dbb084113cc116152f62;753;"11: Debussy Prelude / Ravel Klavier / Tschaiko 5";1
4f91438fbf31dbb084113cc116152f62;749;"7: Khachaturian Spartakus Adagio / Rachmaninoff Klavier 3/ Bruckner 4";2
4f91438fbf31dbb084113cc116152f62;748;"6: CMvW Freischütz-Ouv. / Grieg Norwegische Tänze / Tschaiko 5";3
4f91438fbf31dbb084113cc116152f62;750;"8: Boulanger Matin de Printemps / Prokofjew Romeo + Julia Auszüge / Berlioz Symphonie fantastique";4
4f91438fbf31dbb084113cc116152f62;752;"10: Gliinka R.+L. Ouv. / Dvorak Mittagshexe / Tschaiko 5";5
4f91438fbf31dbb084113cc116152f62;743;"1: Rachmaninoff: Klavierkonzert 3 / Sinfonie 2";6
4f91438fbf31dbb084113cc116152f62;745;"3: Nielsen Helios Ouv. / CMvW Klarinetten 1 / Rachmaninoff Sinfonie 2";7
4f91438fbf31dbb084113cc116152f62;751;"9: Brahms Tragische Ouv. / Schumann Ouv. / Rachmaninoff 3";8
4f91438fbf31dbb084113cc116152f62;754;"12: Suppe / Mozart / Ullmann / Bach / Bruckner 4";9
4f91438fbf31dbb084113cc116152f62;755;"13: Sibelius Finlandia / Elgar Enigma-V. / Rachmaninoff 2";10
4f91438fbf31dbb084113cc116152f62;746;"4: Debussy: 4 Stücke / Brahms 1";11
4f91438fbf31dbb084113cc116152f62;744;"2: Bernstein Candide-Ouv. / Sibelius Violinkonzert / Sibelius Sinfonie 2";12
4f91438fbf31dbb084113cc116152f62;747;"5: Mendelssohn Hebriden-Ouv. / Grieg Norwegische Tänze / Price 1";13
5211e202c5cab1cb56b4f5590eeea3b6;747;"5: Mendelssohn Hebriden-Ouv. / Grieg Norwegische Tänze / Price 1";1
5211e202c5cab1cb56b4f5590eeea3b6;743;"1: Rachmaninoff: Klavierkonzert 3 / Sinfonie 2";2
5211e202c5cab1cb56b4f5590eeea3b6;744;"2: Bernstein Candide-Ouv. / Sibelius Violinkonzert / Sibelius Sinfonie 2";3
5211e202c5cab1cb56b4f5590eeea3b6;752;"10: Gliinka R.+L. Ouv. / Dvorak Mittagshexe / Tschaiko 5";4
531434eafecd12884c5335241c2ca859;747;"5: Mendelssohn Hebriden-Ouv. / Grieg Norwegische Tänze / Price 1";1
531434eafecd12884c5335241c2ca859;755;"13: Sibelius Finlandia / Elgar Enigma-V. / Rachmaninoff 2";2
531434eafecd12884c5335241c2ca859;753;"11: Debussy Prelude / Ravel Klavier / Tschaiko 5";3
531434eafecd12884c5335241c2ca859;750;"8: Boulanger Matin de Printemps / Prokofjew Romeo + Julia Auszüge / Berlioz Symphonie fantastique";4
531434eafecd12884c5335241c2ca859;752;"10: Gliinka R.+L. Ouv. / Dvorak Mittagshexe / Tschaiko 5";5
531434eafecd12884c5335241c2ca859;748;"6: CMvW Freischütz-Ouv. / Grieg Norwegische Tänze / Tschaiko 5";6
531434eafecd12884c5335241c2ca859;746;"4: Debussy: 4 Stücke / Brahms 1";7
531434eafecd12884c5335241c2ca859;743;"1: Rachmaninoff: Klavierkonzert 3 / Sinfonie 2";8
531434eafecd12884c5335241c2ca859;744;"2: Bernstein Candide-Ouv. / Sibelius Violinkonzert / Sibelius Sinfonie 2";9
531434eafecd12884c5335241c2ca859;749;"7: Khachaturian Spartakus Adagio / Rachmaninoff Klavier 3/ Bruckner 4";10
531434eafecd12884c5335241c2ca859;754;"12: Suppe / Mozart / Ullmann / Bach / Bruckner 4";11
531434eafecd12884c5335241c2ca859;751;"9: Brahms Tragische Ouv. / Schumann Ouv. / Rachmaninoff 3";12
531434eafecd12884c5335241c2ca859;745;"3: Nielsen Helios Ouv. / CMvW Klarinetten 1 / Rachmaninoff Sinfonie 2";13
556995bb315c3282f0d61dac54c9ce2d;744;"2: Bernstein Candide-Ouv. / Sibelius Violinkonzert / Sibelius Sinfonie 2";1
556995bb315c3282f0d61dac54c9ce2d;753;"11: Debussy Prelude / Ravel Klavier / Tschaiko 5";2
556995bb315c3282f0d61dac54c9ce2d;755;"13: Sibelius Finlandia / Elgar Enigma-V. / Rachmaninoff 2";3
556995bb315c3282f0d61dac54c9ce2d;752;"10: Gliinka R.+L. Ouv. / Dvorak Mittagshexe / Tschaiko 5";4
556995bb315c3282f0d61dac54c9ce2d;748;"6: CMvW Freischütz-Ouv. / Grieg Norwegische Tänze / Tschaiko 5";5
5d61ebc3f2964d4888ed73d000674395;748;"6: CMvW Freischütz-Ouv. / Grieg Norwegische Tänze / Tschaiko 5";1
5d61ebc3f2964d4888ed73d000674395;747;"5: Mendelssohn Hebriden-Ouv. / Grieg Norwegische Tänze / Price 1";2
5d61ebc3f2964d4888ed73d000674395;749;"7: Khachaturian Spartakus Adagio / Rachmaninoff Klavier 3/ Bruckner 4";3
5d61ebc3f2964d4888ed73d000674395;750;"8: Boulanger Matin de Printemps / Prokofjew Romeo + Julia Auszüge / Berlioz Symphonie fantastique";4
5d61ebc3f2964d4888ed73d000674395;755;"13: Sibelius Finlandia / Elgar Enigma-V. / Rachmaninoff 2";5
5d61ebc3f2964d4888ed73d000674395;745;"3: Nielsen Helios Ouv. / CMvW Klarinetten 1 / Rachmaninoff Sinfonie 2";6
5d61ebc3f2964d4888ed73d000674395;743;"1: Rachmaninoff: Klavierkonzert 3 / Sinfonie 2";7
5d61ebc3f2964d4888ed73d000674395;744;"2: Bernstein Candide-Ouv. / Sibelius Violinkonzert / Sibelius Sinfonie 2";8
5d61ebc3f2964d4888ed73d000674395;752;"10: Gliinka R.+L. Ouv. / Dvorak Mittagshexe / Tschaiko 5";9
5d61ebc3f2964d4888ed73d000674395;746;"4: Debussy: 4 Stücke / Brahms 1";10
5d61ebc3f2964d4888ed73d000674395;751;"9: Brahms Tragische Ouv. / Schumann Ouv. / Rachmaninoff 3";11
5d61ebc3f2964d4888ed73d000674395;753;"11: Debussy Prelude / Ravel Klavier / Tschaiko 5";12
5d61ebc3f2964d4888ed73d000674395;754;"12: Suppe / Mozart / Ullmann / Bach / Bruckner 4";13
5dba26e6df0c64f44bc38f01c42ea3df;748;"6: CMvW Freischütz-Ouv. / Grieg Norwegische Tänze / Tschaiko 5";1
5dba26e6df0c64f44bc38f01c42ea3df;753;"11: Debussy Prelude / Ravel Klavier / Tschaiko 5";2
5dba26e6df0c64f44bc38f01c42ea3df;752;"10: Gliinka R.+L. Ouv. / Dvorak Mittagshexe / Tschaiko 5";3
5dba26e6df0c64f44bc38f01c42ea3df;749;"7: Khachaturian Spartakus Adagio / Rachmaninoff Klavier 3/ Bruckner 4";4
5dba26e6df0c64f44bc38f01c42ea3df;743;"1: Rachmaninoff: Klavierkonzert 3 / Sinfonie 2";5
5dba26e6df0c64f44bc38f01c42ea3df;751;"9: Brahms Tragische Ouv. / Schumann Ouv. / Rachmaninoff 3";6
5dba26e6df0c64f44bc38f01c42ea3df;745;"3: Nielsen Helios Ouv. / CMvW Klarinetten 1 / Rachmaninoff Sinfonie 2";7
5dba26e6df0c64f44bc38f01c42ea3df;744;"2: Bernstein Candide-Ouv. / Sibelius Violinkonzert / Sibelius Sinfonie 2";8
5dba26e6df0c64f44bc38f01c42ea3df;747;"5: Mendelssohn Hebriden-Ouv. / Grieg Norwegische Tänze / Price 1";9
5dba26e6df0c64f44bc38f01c42ea3df;750;"8: Boulanger Matin de Printemps / Prokofjew Romeo + Julia Auszüge / Berlioz Symphonie fantastique";10
5dba26e6df0c64f44bc38f01c42ea3df;755;"13: Sibelius Finlandia / Elgar Enigma-V. / Rachmaninoff 2";11
5dba26e6df0c64f44bc38f01c42ea3df;754;"12: Suppe / Mozart / Ullmann / Bach / Bruckner 4";12
5dba26e6df0c64f44bc38f01c42ea3df;746;"4: Debussy: 4 Stücke / Brahms 1";13
60aaecc0c5b0fe335fed7b956338d7f3;743;"1: Rachmaninoff: Klavierkonzert 3 / Sinfonie 2";1
60aaecc0c5b0fe335fed7b956338d7f3;744;"2: Bernstein Candide-Ouv. / Sibelius Violinkonzert / Sibelius Sinfonie 2";2
60aaecc0c5b0fe335fed7b956338d7f3;749;"7: Khachaturian Spartakus Adagio / Rachmaninoff Klavier 3/ Bruckner 4";3
60aaecc0c5b0fe335fed7b956338d7f3;755;"13: Sibelius Finlandia / Elgar Enigma-V. / Rachmaninoff 2";4
60aaecc0c5b0fe335fed7b956338d7f3;754;"12: Suppe / Mozart / Ullmann / Bach / Bruckner 4";5
60aaecc0c5b0fe335fed7b956338d7f3;748;"6: CMvW Freischütz-Ouv. / Grieg Norwegische Tänze / Tschaiko 5";6
60aaecc0c5b0fe335fed7b956338d7f3;753;"11: Debussy Prelude / Ravel Klavier / Tschaiko 5";7
60aaecc0c5b0fe335fed7b956338d7f3;745;"3: Nielsen Helios Ouv. / CMvW Klarinetten 1 / Rachmaninoff Sinfonie 2";8
6635a106d13501596c4f998465d00c35;744;"2: Bernstein Candide-Ouv. / Sibelius Violinkonzert / Sibelius Sinfonie 2";1
6635a106d13501596c4f998465d00c35;753;"11: Debussy Prelude / Ravel Klavier / Tschaiko 5";2
6635a106d13501596c4f998465d00c35;743;"1: Rachmaninoff: Klavierkonzert 3 / Sinfonie 2";3
67b8b3c67e835ecce735c4dcdc3f2659;755;"13: Sibelius Finlandia / Elgar Enigma-V. / Rachmaninoff 2";1
67b8b3c67e835ecce735c4dcdc3f2659;749;"7: Khachaturian Spartakus Adagio / Rachmaninoff Klavier 3/ Bruckner 4";2
67b8b3c67e835ecce735c4dcdc3f2659;745;"3: Nielsen Helios Ouv. / CMvW Klarinetten 1 / Rachmaninoff Sinfonie 2";3
67b8b3c67e835ecce735c4dcdc3f2659;750;"8: Boulanger Matin de Printemps / Prokofjew Romeo + Julia Auszüge / Berlioz Symphonie fantastique";4
67b8b3c67e835ecce735c4dcdc3f2659;754;"12: Suppe / Mozart / Ullmann / Bach / Bruckner 4";5
67b8b3c67e835ecce735c4dcdc3f2659;743;"1: Rachmaninoff: Klavierkonzert 3 / Sinfonie 2";6
67b8b3c67e835ecce735c4dcdc3f2659;751;"9: Brahms Tragische Ouv. / Schumann Ouv. / Rachmaninoff 3";7
67b8b3c67e835ecce735c4dcdc3f2659;748;"6: CMvW Freischütz-Ouv. / Grieg Norwegische Tänze / Tschaiko 5";8
67b8b3c67e835ecce735c4dcdc3f2659;747;"5: Mendelssohn Hebriden-Ouv. / Grieg Norwegische Tänze / Price 1";9
67b8b3c67e835ecce735c4dcdc3f2659;753;"11: Debussy Prelude / Ravel Klavier / Tschaiko 5";10
67b8b3c67e835ecce735c4dcdc3f2659;752;"10: Gliinka R.+L. Ouv. / Dvorak Mittagshexe / Tschaiko 5";11
67b8b3c67e835ecce735c4dcdc3f2659;744;"2: Bernstein Candide-Ouv. / Sibelius Violinkonzert / Sibelius Sinfonie 2";12
67b8b3c67e835ecce735c4dcdc3f2659;746;"4: Debussy: 4 Stücke / Brahms 1";13
701f7812064e142ec6240a381af20116;749;"7: Khachaturian Spartakus Adagio / Rachmaninoff Klavier 3/ Bruckner 4";1
701f7812064e142ec6240a381af20116;744;"2: Bernstein Candide-Ouv. / Sibelius Violinkonzert / Sibelius Sinfonie 2";2
701f7812064e142ec6240a381af20116;752;"10: Gliinka R.+L. Ouv. / Dvorak Mittagshexe / Tschaiko 5";3
701f7812064e142ec6240a381af20116;754;"12: Suppe / Mozart / Ullmann / Bach / Bruckner 4";4
730e8e7bf8949ab2df77901626114785;744;"2: Bernstein Candide-Ouv. / Sibelius Violinkonzert / Sibelius Sinfonie 2";1
730e8e7bf8949ab2df77901626114785;743;"1: Rachmaninoff: Klavierkonzert 3 / Sinfonie 2";2
730e8e7bf8949ab2df77901626114785;755;"13: Sibelius Finlandia / Elgar Enigma-V. / Rachmaninoff 2";3
730e8e7bf8949ab2df77901626114785;748;"6: CMvW Freischütz-Ouv. / Grieg Norwegische Tänze / Tschaiko 5";4
76f17941e4f9a87d4191cac910e22856;749;"7: Khachaturian Spartakus Adagio / Rachmaninoff Klavier 3/ Bruckner 4";1
76f17941e4f9a87d4191cac910e22856;743;"1: Rachmaninoff: Klavierkonzert 3 / Sinfonie 2";2
76f17941e4f9a87d4191cac910e22856;748;"6: CMvW Freischütz-Ouv. / Grieg Norwegische Tänze / Tschaiko 5";3
76f17941e4f9a87d4191cac910e22856;747;"5: Mendelssohn Hebriden-Ouv. / Grieg Norwegische Tänze / Price 1";4
76f17941e4f9a87d4191cac910e22856;750;"8: Boulanger Matin de Printemps / Prokofjew Romeo + Julia Auszüge / Berlioz Symphonie fantastique";5
76f17941e4f9a87d4191cac910e22856;744;"2: Bernstein Candide-Ouv. / Sibelius Violinkonzert / Sibelius Sinfonie 2";6
76f17941e4f9a87d4191cac910e22856;751;"9: Brahms Tragische Ouv. / Schumann Ouv. / Rachmaninoff 3";7
76f17941e4f9a87d4191cac910e22856;755;"13: Sibelius Finlandia / Elgar Enigma-V. / Rachmaninoff 2";8
7f7f598fc0651ab6b539abf06c78d12f;750;"8: Boulanger Matin de Printemps / Prokofjew Romeo + Julia Auszüge / Berlioz Symphonie fantastique";1
7f7f598fc0651ab6b539abf06c78d12f;744;"2: Bernstein Candide-Ouv. / Sibelius Violinkonzert / Sibelius Sinfonie 2";2
7f7f598fc0651ab6b539abf06c78d12f;746;"4: Debussy: 4 Stücke / Brahms 1";3
7f7f598fc0651ab6b539abf06c78d12f;747;"5: Mendelssohn Hebriden-Ouv. / Grieg Norwegische Tänze / Price 1";4
7f7f598fc0651ab6b539abf06c78d12f;748;"6: CMvW Freischütz-Ouv. / Grieg Norwegische Tänze / Tschaiko 5";5
7f7f598fc0651ab6b539abf06c78d12f;755;"13: Sibelius Finlandia / Elgar Enigma-V. / Rachmaninoff 2";6
8c3d394915e45965173acc4fcd4b9482;748;"6: CMvW Freischütz-Ouv. / Grieg Norwegische Tänze / Tschaiko 5";1
8c3d394915e45965173acc4fcd4b9482;750;"8: Boulanger Matin de Printemps / Prokofjew Romeo + Julia Auszüge / Berlioz Symphonie fantastique";2
8c3d394915e45965173acc4fcd4b9482;743;"1: Rachmaninoff: Klavierkonzert 3 / Sinfonie 2";3
8c3d394915e45965173acc4fcd4b9482;752;"10: Gliinka R.+L. Ouv. / Dvorak Mittagshexe / Tschaiko 5";4
8c3d394915e45965173acc4fcd4b9482;753;"11: Debussy Prelude / Ravel Klavier / Tschaiko 5";5
8c3d394915e45965173acc4fcd4b9482;751;"9: Brahms Tragische Ouv. / Schumann Ouv. / Rachmaninoff 3";6
8c3d394915e45965173acc4fcd4b9482;746;"4: Debussy: 4 Stücke / Brahms 1";7
8c3d394915e45965173acc4fcd4b9482;749;"7: Khachaturian Spartakus Adagio / Rachmaninoff Klavier 3/ Bruckner 4";8
8c3d394915e45965173acc4fcd4b9482;755;"13: Sibelius Finlandia / Elgar Enigma-V. / Rachmaninoff 2";9
8c3d394915e45965173acc4fcd4b9482;754;"12: Suppe / Mozart / Ullmann / Bach / Bruckner 4";10
8c3d394915e45965173acc4fcd4b9482;745;"3: Nielsen Helios Ouv. / CMvW Klarinetten 1 / Rachmaninoff Sinfonie 2";11
8c3d394915e45965173acc4fcd4b9482;744;"2: Bernstein Candide-Ouv. / Sibelius Violinkonzert / Sibelius Sinfonie 2";12
8c3d394915e45965173acc4fcd4b9482;747;"5: Mendelssohn Hebriden-Ouv. / Grieg Norwegische Tänze / Price 1";13
92653a6c63f7dade533abae11b81234c;750;"8: Boulanger Matin de Printemps / Prokofjew Romeo + Julia Auszüge / Berlioz Symphonie fantastique";1
92653a6c63f7dade533abae11b81234c;752;"10: Gliinka R.+L. Ouv. / Dvorak Mittagshexe / Tschaiko 5";2
92653a6c63f7dade533abae11b81234c;748;"6: CMvW Freischütz-Ouv. / Grieg Norwegische Tänze / Tschaiko 5";3
92653a6c63f7dade533abae11b81234c;755;"13: Sibelius Finlandia / Elgar Enigma-V. / Rachmaninoff 2";4
92653a6c63f7dade533abae11b81234c;747;"5: Mendelssohn Hebriden-Ouv. / Grieg Norwegische Tänze / Price 1";5
92653a6c63f7dade533abae11b81234c;744;"2: Bernstein Candide-Ouv. / Sibelius Violinkonzert / Sibelius Sinfonie 2";6
92653a6c63f7dade533abae11b81234c;749;"7: Khachaturian Spartakus Adagio / Rachmaninoff Klavier 3/ Bruckner 4";7
92653a6c63f7dade533abae11b81234c;754;"12: Suppe / Mozart / Ullmann / Bach / Bruckner 4";8
92653a6c63f7dade533abae11b81234c;743;"1: Rachmaninoff: Klavierkonzert 3 / Sinfonie 2";9
92653a6c63f7dade533abae11b81234c;751;"9: Brahms Tragische Ouv. / Schumann Ouv. / Rachmaninoff 3";10
92653a6c63f7dade533abae11b81234c;745;"3: Nielsen Helios Ouv. / CMvW Klarinetten 1 / Rachmaninoff Sinfonie 2";11
92653a6c63f7dade533abae11b81234c;753;"11: Debussy Prelude / Ravel Klavier / Tschaiko 5";12
93fae6bd1c1c585eda2460bb3417c058;747;"5: Mendelssohn Hebriden-Ouv. / Grieg Norwegische Tänze / Price 1";1
93fae6bd1c1c585eda2460bb3417c058;748;"6: CMvW Freischütz-Ouv. / Grieg Norwegische Tänze / Tschaiko 5";2
93fae6bd1c1c585eda2460bb3417c058;755;"13: Sibelius Finlandia / Elgar Enigma-V. / Rachmaninoff 2";3
93fae6bd1c1c585eda2460bb3417c058;750;"8: Boulanger Matin de Printemps / Prokofjew Romeo + Julia Auszüge / Berlioz Symphonie fantastique";4
93fae6bd1c1c585eda2460bb3417c058;749;"7: Khachaturian Spartakus Adagio / Rachmaninoff Klavier 3/ Bruckner 4";5
93fae6bd1c1c585eda2460bb3417c058;744;"2: Bernstein Candide-Ouv. / Sibelius Violinkonzert / Sibelius Sinfonie 2";6
93fae6bd1c1c585eda2460bb3417c058;746;"4: Debussy: 4 Stücke / Brahms 1";7
93fae6bd1c1c585eda2460bb3417c058;743;"1: Rachmaninoff: Klavierkonzert 3 / Sinfonie 2";8
93fae6bd1c1c585eda2460bb3417c058;745;"3: Nielsen Helios Ouv. / CMvW Klarinetten 1 / Rachmaninoff Sinfonie 2";9
93fae6bd1c1c585eda2460bb3417c058;751;"9: Brahms Tragische Ouv. / Schumann Ouv. / Rachmaninoff 3";10
93fae6bd1c1c585eda2460bb3417c058;752;"10: Gliinka R.+L. Ouv. / Dvorak Mittagshexe / Tschaiko 5";11
93fae6bd1c1c585eda2460bb3417c058;753;"11: Debussy Prelude / Ravel Klavier / Tschaiko 5";12
93fae6bd1c1c585eda2460bb3417c058;754;"12: Suppe / Mozart / Ullmann / Bach / Bruckner 4";13
9b7963ada83d00d62171a6b93bbf02db;747;"5: Mendelssohn Hebriden-Ouv. / Grieg Norwegische Tänze / Price 1";1
9b7963ada83d00d62171a6b93bbf02db;753;"11: Debussy Prelude / Ravel Klavier / Tschaiko 5";2
9b7963ada83d00d62171a6b93bbf02db;748;"6: CMvW Freischütz-Ouv. / Grieg Norwegische Tänze / Tschaiko 5";3
9b7963ada83d00d62171a6b93bbf02db;751;"9: Brahms Tragische Ouv. / Schumann Ouv. / Rachmaninoff 3";4
a494536b46b38bd2a3f2c7b3d3844676;746;"4: Debussy: 4 Stücke / Brahms 1";1
a494536b46b38bd2a3f2c7b3d3844676;751;"9: Brahms Tragische Ouv. / Schumann Ouv. / Rachmaninoff 3";2
a494536b46b38bd2a3f2c7b3d3844676;743;"1: Rachmaninoff: Klavierkonzert 3 / Sinfonie 2";3
a494536b46b38bd2a3f2c7b3d3844676;753;"11: Debussy Prelude / Ravel Klavier / Tschaiko 5";4
a94912138a1802b2a6b55432663a08b2;749;"7: Khachaturian Spartakus Adagio / Rachmaninoff Klavier 3/ Bruckner 4";1
a94912138a1802b2a6b55432663a08b2;748;"6: CMvW Freischütz-Ouv. / Grieg Norwegische Tänze / Tschaiko 5";2
a94912138a1802b2a6b55432663a08b2;747;"5: Mendelssohn Hebriden-Ouv. / Grieg Norwegische Tänze / Price 1";3
adca6ba44da9b0b0afaf284d5b2b47da;752;"10: Gliinka R.+L. Ouv. / Dvorak Mittagshexe / Tschaiko 5";1
adca6ba44da9b0b0afaf284d5b2b47da;749;"7: Khachaturian Spartakus Adagio / Rachmaninoff Klavier 3/ Bruckner 4";2
adca6ba44da9b0b0afaf284d5b2b47da;747;"5: Mendelssohn Hebriden-Ouv. / Grieg Norwegische Tänze / Price 1";3
adca6ba44da9b0b0afaf284d5b2b47da;743;"1: Rachmaninoff: Klavierkonzert 3 / Sinfonie 2";4
b773644e26e550abadbc5b4878cc2b0c;749;"7: Khachaturian Spartakus Adagio / Rachmaninoff Klavier 3/ Bruckner 4";1
b773644e26e550abadbc5b4878cc2b0c;754;"12: Suppe / Mozart / Ullmann / Bach / Bruckner 4";2
b773644e26e550abadbc5b4878cc2b0c;753;"11: Debussy Prelude / Ravel Klavier / Tschaiko 5";3
b773644e26e550abadbc5b4878cc2b0c;748;"6: CMvW Freischütz-Ouv. / Grieg Norwegische Tänze / Tschaiko 5";4
b773644e26e550abadbc5b4878cc2b0c;752;"10: Gliinka R.+L. Ouv. / Dvorak Mittagshexe / Tschaiko 5";5
b773644e26e550abadbc5b4878cc2b0c;744;"2: Bernstein Candide-Ouv. / Sibelius Violinkonzert / Sibelius Sinfonie 2";6
b773644e26e550abadbc5b4878cc2b0c;755;"13: Sibelius Finlandia / Elgar Enigma-V. / Rachmaninoff 2";7
b773644e26e550abadbc5b4878cc2b0c;743;"1: Rachmaninoff: Klavierkonzert 3 / Sinfonie 2";8
b773644e26e550abadbc5b4878cc2b0c;745;"3: Nielsen Helios Ouv. / CMvW Klarinetten 1 / Rachmaninoff Sinfonie 2";9
b773644e26e550abadbc5b4878cc2b0c;750;"8: Boulanger Matin de Printemps / Prokofjew Romeo + Julia Auszüge / Berlioz Symphonie fantastique";10
b773644e26e550abadbc5b4878cc2b0c;747;"5: Mendelssohn Hebriden-Ouv. / Grieg Norwegische Tänze / Price 1";11
b773644e26e550abadbc5b4878cc2b0c;751;"9: Brahms Tragische Ouv. / Schumann Ouv. / Rachmaninoff 3";12
baee7be8af57fed6972b8d325413ae19;750;"8: Boulanger Matin de Printemps / Prokofjew Romeo + Julia Auszüge / Berlioz Symphonie fantastique";1
baee7be8af57fed6972b8d325413ae19;744;"2: Bernstein Candide-Ouv. / Sibelius Violinkonzert / Sibelius Sinfonie 2";2
baee7be8af57fed6972b8d325413ae19;747;"5: Mendelssohn Hebriden-Ouv. / Grieg Norwegische Tänze / Price 1";3
baee7be8af57fed6972b8d325413ae19;749;"7: Khachaturian Spartakus Adagio / Rachmaninoff Klavier 3/ Bruckner 4";4
baee7be8af57fed6972b8d325413ae19;754;"12: Suppe / Mozart / Ullmann / Bach / Bruckner 4";5
baee7be8af57fed6972b8d325413ae19;753;"11: Debussy Prelude / Ravel Klavier / Tschaiko 5";6
baee7be8af57fed6972b8d325413ae19;755;"13: Sibelius Finlandia / Elgar Enigma-V. / Rachmaninoff 2";7
baee7be8af57fed6972b8d325413ae19;746;"4: Debussy: 4 Stücke / Brahms 1";8
baee7be8af57fed6972b8d325413ae19;751;"9: Brahms Tragische Ouv. / Schumann Ouv. / Rachmaninoff 3";9
baee7be8af57fed6972b8d325413ae19;748;"6: CMvW Freischütz-Ouv. / Grieg Norwegische Tänze / Tschaiko 5";10
baee7be8af57fed6972b8d325413ae19;745;"3: Nielsen Helios Ouv. / CMvW Klarinetten 1 / Rachmaninoff Sinfonie 2";11
baee7be8af57fed6972b8d325413ae19;743;"1: Rachmaninoff: Klavierkonzert 3 / Sinfonie 2";12
baee7be8af57fed6972b8d325413ae19;752;"10: Gliinka R.+L. Ouv. / Dvorak Mittagshexe / Tschaiko 5";13
bb52b5177b4e4cd4e44eca3598e315eb;749;"7: Khachaturian Spartakus Adagio / Rachmaninoff Klavier 3/ Bruckner 4";1
bb52b5177b4e4cd4e44eca3598e315eb;753;"11: Debussy Prelude / Ravel Klavier / Tschaiko 5";2
bb52b5177b4e4cd4e44eca3598e315eb;744;"2: Bernstein Candide-Ouv. / Sibelius Violinkonzert / Sibelius Sinfonie 2";3
bb52b5177b4e4cd4e44eca3598e315eb;750;"8: Boulanger Matin de Printemps / Prokofjew Romeo + Julia Auszüge / Berlioz Symphonie fantastique";4
bb52b5177b4e4cd4e44eca3598e315eb;743;"1: Rachmaninoff: Klavierkonzert 3 / Sinfonie 2";5
bb52b5177b4e4cd4e44eca3598e315eb;754;"12: Suppe / Mozart / Ullmann / Bach / Bruckner 4";6
bb52b5177b4e4cd4e44eca3598e315eb;755;"13: Sibelius Finlandia / Elgar Enigma-V. / Rachmaninoff 2";7
bb52b5177b4e4cd4e44eca3598e315eb;745;"3: Nielsen Helios Ouv. / CMvW Klarinetten 1 / Rachmaninoff Sinfonie 2";8
c8af7e1e12726793a178585e080fa67d;750;"8: Boulanger Matin de Printemps / Prokofjew Romeo + Julia Auszüge / Berlioz Symphonie fantastique";1
c8af7e1e12726793a178585e080fa67d;747;"5: Mendelssohn Hebriden-Ouv. / Grieg Norwegische Tänze / Price 1";2
c8af7e1e12726793a178585e080fa67d;743;"1: Rachmaninoff: Klavierkonzert 3 / Sinfonie 2";3
c8af7e1e12726793a178585e080fa67d;744;"2: Bernstein Candide-Ouv. / Sibelius Violinkonzert / Sibelius Sinfonie 2";4
c8af7e1e12726793a178585e080fa67d;748;"6: CMvW Freischütz-Ouv. / Grieg Norwegische Tänze / Tschaiko 5";5
c8af7e1e12726793a178585e080fa67d;755;"13: Sibelius Finlandia / Elgar Enigma-V. / Rachmaninoff 2";6
c8af7e1e12726793a178585e080fa67d;749;"7: Khachaturian Spartakus Adagio / Rachmaninoff Klavier 3/ Bruckner 4";7
c8af7e1e12726793a178585e080fa67d;751;"9: Brahms Tragische Ouv. / Schumann Ouv. / Rachmaninoff 3";8
c8af7e1e12726793a178585e080fa67d;745;"3: Nielsen Helios Ouv. / CMvW Klarinetten 1 / Rachmaninoff Sinfonie 2";9
c8af7e1e12726793a178585e080fa67d;754;"12: Suppe / Mozart / Ullmann / Bach / Bruckner 4";10
c8af7e1e12726793a178585e080fa67d;753;"11: Debussy Prelude / Ravel Klavier / Tschaiko 5";11
c8af7e1e12726793a178585e080fa67d;752;"10: Gliinka R.+L. Ouv. / Dvorak Mittagshexe / Tschaiko 5";12
c8af7e1e12726793a178585e080fa67d;746;"4: Debussy: 4 Stücke / Brahms 1";13
c9a66f03377f6d6be56f5f6aabc838a9;745;"3: Nielsen Helios Ouv. / CMvW Klarinetten 1 / Rachmaninoff Sinfonie 2";1
c9a66f03377f6d6be56f5f6aabc838a9;749;"7: Khachaturian Spartakus Adagio / Rachmaninoff Klavier 3/ Bruckner 4";2
c9a66f03377f6d6be56f5f6aabc838a9;743;"1: Rachmaninoff: Klavierkonzert 3 / Sinfonie 2";3
c9a66f03377f6d6be56f5f6aabc838a9;744;"2: Bernstein Candide-Ouv. / Sibelius Violinkonzert / Sibelius Sinfonie 2";4
c9a66f03377f6d6be56f5f6aabc838a9;748;"6: CMvW Freischütz-Ouv. / Grieg Norwegische Tänze / Tschaiko 5";5
c9a66f03377f6d6be56f5f6aabc838a9;747;"5: Mendelssohn Hebriden-Ouv. / Grieg Norwegische Tänze / Price 1";6
c9a66f03377f6d6be56f5f6aabc838a9;755;"13: Sibelius Finlandia / Elgar Enigma-V. / Rachmaninoff 2";7
c9a66f03377f6d6be56f5f6aabc838a9;750;"8: Boulanger Matin de Printemps / Prokofjew Romeo + Julia Auszüge / Berlioz Symphonie fantastique";8
c9a66f03377f6d6be56f5f6aabc838a9;751;"9: Brahms Tragische Ouv. / Schumann Ouv. / Rachmaninoff 3";9
c9a66f03377f6d6be56f5f6aabc838a9;754;"12: Suppe / Mozart / Ullmann / Bach / Bruckner 4";10
c9a66f03377f6d6be56f5f6aabc838a9;753;"11: Debussy Prelude / Ravel Klavier / Tschaiko 5";11
c9a66f03377f6d6be56f5f6aabc838a9;752;"10: Gliinka R.+L. Ouv. / Dvorak Mittagshexe / Tschaiko 5";12
c9a66f03377f6d6be56f5f6aabc838a9;746;"4: Debussy: 4 Stücke / Brahms 1";13
ca5db5517e158c6a14f14d9afeb38815;749;"7: Khachaturian Spartakus Adagio / Rachmaninoff Klavier 3/ Bruckner 4";1
ca5db5517e158c6a14f14d9afeb38815;750;"8: Boulanger Matin de Printemps / Prokofjew Romeo + Julia Auszüge / Berlioz Symphonie fantastique";2
ca5db5517e158c6a14f14d9afeb38815;743;"1: Rachmaninoff: Klavierkonzert 3 / Sinfonie 2";3
ca5db5517e158c6a14f14d9afeb38815;755;"13: Sibelius Finlandia / Elgar Enigma-V. / Rachmaninoff 2";4
ca5db5517e158c6a14f14d9afeb38815;748;"6: CMvW Freischütz-Ouv. / Grieg Norwegische Tänze / Tschaiko 5";5
ca5db5517e158c6a14f14d9afeb38815;747;"5: Mendelssohn Hebriden-Ouv. / Grieg Norwegische Tänze / Price 1";6
ca5db5517e158c6a14f14d9afeb38815;751;"9: Brahms Tragische Ouv. / Schumann Ouv. / Rachmaninoff 3";7
ca5db5517e158c6a14f14d9afeb38815;752;"10: Gliinka R.+L. Ouv. / Dvorak Mittagshexe / Tschaiko 5";8
ca5db5517e158c6a14f14d9afeb38815;753;"11: Debussy Prelude / Ravel Klavier / Tschaiko 5";9
ca5db5517e158c6a14f14d9afeb38815;744;"2: Bernstein Candide-Ouv. / Sibelius Violinkonzert / Sibelius Sinfonie 2";10
ca5db5517e158c6a14f14d9afeb38815;746;"4: Debussy: 4 Stücke / Brahms 1";11
ca5db5517e158c6a14f14d9afeb38815;745;"3: Nielsen Helios Ouv. / CMvW Klarinetten 1 / Rachmaninoff Sinfonie 2";12
ca5db5517e158c6a14f14d9afeb38815;754;"12: Suppe / Mozart / Ullmann / Bach / Bruckner 4";13
cc27ea37148b18ba353a8d12792fcbfe;744;"2: Bernstein Candide-Ouv. / Sibelius Violinkonzert / Sibelius Sinfonie 2";1
cc27ea37148b18ba353a8d12792fcbfe;743;"1: Rachmaninoff: Klavierkonzert 3 / Sinfonie 2";2
cc27ea37148b18ba353a8d12792fcbfe;746;"4: Debussy: 4 Stücke / Brahms 1";3
cc27ea37148b18ba353a8d12792fcbfe;753;"11: Debussy Prelude / Ravel Klavier / Tschaiko 5";4
dbdf70568762f3ff0e0380fb8f986839;750;"8: Boulanger Matin de Printemps / Prokofjew Romeo + Julia Auszüge / Berlioz Symphonie fantastique";1
dbdf70568762f3ff0e0380fb8f986839;744;"2: Bernstein Candide-Ouv. / Sibelius Violinkonzert / Sibelius Sinfonie 2";2
e4548cfb87e58d07a78609da60a269e6;749;"7: Khachaturian Spartakus Adagio / Rachmaninoff Klavier 3/ Bruckner 4";1
e4548cfb87e58d07a78609da60a269e6;754;"12: Suppe / Mozart / Ullmann / Bach / Bruckner 4";2
e4548cfb87e58d07a78609da60a269e6;743;"1: Rachmaninoff: Klavierkonzert 3 / Sinfonie 2";3
e78d857c7a7796f1cbcdc6720667d363;750;"8: Boulanger Matin de Printemps / Prokofjew Romeo + Julia Auszüge / Berlioz Symphonie fantastique";1
e78d857c7a7796f1cbcdc6720667d363;747;"5: Mendelssohn Hebriden-Ouv. / Grieg Norwegische Tänze / Price 1";2
e78d857c7a7796f1cbcdc6720667d363;751;"9: Brahms Tragische Ouv. / Schumann Ouv. / Rachmaninoff 3";3
e78d857c7a7796f1cbcdc6720667d363;744;"2: Bernstein Candide-Ouv. / Sibelius Violinkonzert / Sibelius Sinfonie 2";4
e78d857c7a7796f1cbcdc6720667d363;749;"7: Khachaturian Spartakus Adagio / Rachmaninoff Klavier 3/ Bruckner 4";5
e78d857c7a7796f1cbcdc6720667d363;754;"12: Suppe / Mozart / Ullmann / Bach / Bruckner 4";6
e78d857c7a7796f1cbcdc6720667d363;746;"4: Debussy: 4 Stücke / Brahms 1";7
e78d857c7a7796f1cbcdc6720667d363;755;"13: Sibelius Finlandia / Elgar Enigma-V. / Rachmaninoff 2";8
e78d857c7a7796f1cbcdc6720667d363;743;"1: Rachmaninoff: Klavierkonzert 3 / Sinfonie 2";9
e78d857c7a7796f1cbcdc6720667d363;745;"3: Nielsen Helios Ouv. / CMvW Klarinetten 1 / Rachmaninoff Sinfonie 2";10
e78d857c7a7796f1cbcdc6720667d363;752;"10: Gliinka R.+L. Ouv. / Dvorak Mittagshexe / Tschaiko 5";11
e78d857c7a7796f1cbcdc6720667d363;748;"6: CMvW Freischütz-Ouv. / Grieg Norwegische Tänze / Tschaiko 5";12
e78d857c7a7796f1cbcdc6720667d363;753;"11: Debussy Prelude / Ravel Klavier / Tschaiko 5";13
e7b1414e54db226962cd1570d4834470;747;"5: Mendelssohn Hebriden-Ouv. / Grieg Norwegische Tänze / Price 1";1
e7b1414e54db226962cd1570d4834470;744;"2: Bernstein Candide-Ouv. / Sibelius Violinkonzert / Sibelius Sinfonie 2";2
e7b1414e54db226962cd1570d4834470;755;"13: Sibelius Finlandia / Elgar Enigma-V. / Rachmaninoff 2";3
e7b1414e54db226962cd1570d4834470;750;"8: Boulanger Matin de Printemps / Prokofjew Romeo + Julia Auszüge / Berlioz Symphonie fantastique";4
e7b1414e54db226962cd1570d4834470;748;"6: CMvW Freischütz-Ouv. / Grieg Norwegische Tänze / Tschaiko 5";5
f02ea9024c5a82395c073942c873647f;755;"13: Sibelius Finlandia / Elgar Enigma-V. / Rachmaninoff 2";1
f02ea9024c5a82395c073942c873647f;749;"7: Khachaturian Spartakus Adagio / Rachmaninoff Klavier 3/ Bruckner 4";2
f02ea9024c5a82395c073942c873647f;744;"2: Bernstein Candide-Ouv. / Sibelius Violinkonzert / Sibelius Sinfonie 2";3
f02ea9024c5a82395c073942c873647f;748;"6: CMvW Freischütz-Ouv. / Grieg Norwegische Tänze / Tschaiko 5";4
f02ea9024c5a82395c073942c873647f;753;"11: Debussy Prelude / Ravel Klavier / Tschaiko 5";5
f02ea9024c5a82395c073942c873647f;752;"10: Gliinka R.+L. Ouv. / Dvorak Mittagshexe / Tschaiko 5";6
f02ea9024c5a82395c073942c873647f;743;"1: Rachmaninoff: Klavierkonzert 3 / Sinfonie 2";7
f02ea9024c5a82395c073942c873647f;751;"9: Brahms Tragische Ouv. / Schumann Ouv. / Rachmaninoff 3";8
f02ea9024c5a82395c073942c873647f;747;"5: Mendelssohn Hebriden-Ouv. / Grieg Norwegische Tänze / Price 1";9
f02ea9024c5a82395c073942c873647f;745;"3: Nielsen Helios Ouv. / CMvW Klarinetten 1 / Rachmaninoff Sinfonie 2";10
f02ea9024c5a82395c073942c873647f;746;"4: Debussy: 4 Stücke / Brahms 1";11
f02ea9024c5a82395c073942c873647f;750;"8: Boulanger Matin de Printemps / Prokofjew Romeo + Julia Auszüge / Berlioz Symphonie fantastique";12
f02ea9024c5a82395c073942c873647f;754;"12: Suppe / Mozart / Ullmann / Bach / Bruckner 4";13
f516cab5e781979e451b6d4f7d454330;744;"2: Bernstein Candide-Ouv. / Sibelius Violinkonzert / Sibelius Sinfonie 2";1
f516cab5e781979e451b6d4f7d454330;753;"11: Debussy Prelude / Ravel Klavier / Tschaiko 5";2
f516cab5e781979e451b6d4f7d454330;755;"13: Sibelius Finlandia / Elgar Enigma-V. / Rachmaninoff 2";3
f516cab5e781979e451b6d4f7d454330;746;"4: Debussy: 4 Stücke / Brahms 1";4
f516cab5e781979e451b6d4f7d454330;752;"10: Gliinka R.+L. Ouv. / Dvorak Mittagshexe / Tschaiko 5";5
f516cab5e781979e451b6d4f7d454330;748;"6: CMvW Freischütz-Ouv. / Grieg Norwegische Tänze / Tschaiko 5";6
f516cab5e781979e451b6d4f7d454330;743;"1: Rachmaninoff: Klavierkonzert 3 / Sinfonie 2";7
f516cab5e781979e451b6d4f7d454330;745;"3: Nielsen Helios Ouv. / CMvW Klarinetten 1 / Rachmaninoff Sinfonie 2";8
f516cab5e781979e451b6d4f7d454330;747;"5: Mendelssohn Hebriden-Ouv. / Grieg Norwegische Tänze / Price 1";9
f516cab5e781979e451b6d4f7d454330;750;"8: Boulanger Matin de Printemps / Prokofjew Romeo + Julia Auszüge / Berlioz Symphonie fantastique";10
f516cab5e781979e451b6d4f7d454330;749;"7: Khachaturian Spartakus Adagio / Rachmaninoff Klavier 3/ Bruckner 4";11
f516cab5e781979e451b6d4f7d454330;751;"9: Brahms Tragische Ouv. / Schumann Ouv. / Rachmaninoff 3";12
f516cab5e781979e451b6d4f7d454330;754;"12: Suppe / Mozart / Ullmann / Bach / Bruckner 4";13
f5224d04be5af9a03db1f5cfe0fb98b8;750;"8: Boulanger Matin de Printemps / Prokofjew Romeo + Julia Auszüge / Berlioz Symphonie fantastique";1
f5224d04be5af9a03db1f5cfe0fb98b8;751;"9: Brahms Tragische Ouv. / Schumann Ouv. / Rachmaninoff 3";2
f5224d04be5af9a03db1f5cfe0fb98b8;749;"7: Khachaturian Spartakus Adagio / Rachmaninoff Klavier 3/ Bruckner 4";3
f5224d04be5af9a03db1f5cfe0fb98b8;746;"4: Debussy: 4 Stücke / Brahms 1";4
f5224d04be5af9a03db1f5cfe0fb98b8;753;"11: Debussy Prelude / Ravel Klavier / Tschaiko 5";5
f5224d04be5af9a03db1f5cfe0fb98b8;752;"10: Gliinka R.+L. Ouv. / Dvorak Mittagshexe / Tschaiko 5";6
f5224d04be5af9a03db1f5cfe0fb98b8;748;"6: CMvW Freischütz-Ouv. / Grieg Norwegische Tänze / Tschaiko 5";7
f5224d04be5af9a03db1f5cfe0fb98b8;747;"5: Mendelssohn Hebriden-Ouv. / Grieg Norwegische Tänze / Price 1";8
f79d28cda2a044f501df67b59d53f3ce;754;"12: Suppe / Mozart / Ullmann / Bach / Bruckner 4";1
f79d28cda2a044f501df67b59d53f3ce;748;"6: CMvW Freischütz-Ouv. / Grieg Norwegische Tänze / Tschaiko 5";2
f79d28cda2a044f501df67b59d53f3ce;744;"2: Bernstein Candide-Ouv. / Sibelius Violinkonzert / Sibelius Sinfonie 2";3
f79d28cda2a044f501df67b59d53f3ce;749;"7: Khachaturian Spartakus Adagio / Rachmaninoff Klavier 3/ Bruckner 4";4
f79d28cda2a044f501df67b59d53f3ce;752;"10: Gliinka R.+L. Ouv. / Dvorak Mittagshexe / Tschaiko 5";5
f79d28cda2a044f501df67b59d53f3ce;753;"11: Debussy Prelude / Ravel Klavier / Tschaiko 5";6
f79d28cda2a044f501df67b59d53f3ce;745;"3: Nielsen Helios Ouv. / CMvW Klarinetten 1 / Rachmaninoff Sinfonie 2";7
f79d28cda2a044f501df67b59d53f3ce;743;"1: Rachmaninoff: Klavierkonzert 3 / Sinfonie 2";8
f79d28cda2a044f501df67b59d53f3ce;751;"9: Brahms Tragische Ouv. / Schumann Ouv. / Rachmaninoff 3";9
f79d28cda2a044f501df67b59d53f3ce;755;"13: Sibelius Finlandia / Elgar Enigma-V. / Rachmaninoff 2";10
f79d28cda2a044f501df67b59d53f3ce;747;"5: Mendelssohn Hebriden-Ouv. / Grieg Norwegische Tänze / Price 1";11
f79d28cda2a044f501df67b59d53f3ce;750;"8: Boulanger Matin de Printemps / Prokofjew Romeo + Julia Auszüge / Berlioz Symphonie fantastique";12
f79d28cda2a044f501df67b59d53f3ce;746;"4: Debussy: 4 Stücke / Brahms 1";13
f8438a2d11858139cb2b3561060ad719;749;"7: Khachaturian Spartakus Adagio / Rachmaninoff Klavier 3/ Bruckner 4";1
f8438a2d11858139cb2b3561060ad719;750;"8: Boulanger Matin de Printemps / Prokofjew Romeo + Julia Auszüge / Berlioz Symphonie fantastique";2
f8438a2d11858139cb2b3561060ad719;752;"10: Gliinka R.+L. Ouv. / Dvorak Mittagshexe / Tschaiko 5";3
f8438a2d11858139cb2b3561060ad719;754;"12: Suppe / Mozart / Ullmann / Bach / Bruckner 4";4
f8438a2d11858139cb2b3561060ad719;748;"6: CMvW Freischütz-Ouv. / Grieg Norwegische Tänze / Tschaiko 5";5
f8438a2d11858139cb2b3561060ad719;755;"13: Sibelius Finlandia / Elgar Enigma-V. / Rachmaninoff 2";6
f8438a2d11858139cb2b3561060ad719;743;"1: Rachmaninoff: Klavierkonzert 3 / Sinfonie 2";7
f8438a2d11858139cb2b3561060ad719;747;"5: Mendelssohn Hebriden-Ouv. / Grieg Norwegische Tänze / Price 1";8
f8438a2d11858139cb2b3561060ad719;746;"4: Debussy: 4 Stücke / Brahms 1";9
f8438a2d11858139cb2b3561060ad719;751;"9: Brahms Tragische Ouv. / Schumann Ouv. / Rachmaninoff 3";10
f8438a2d11858139cb2b3561060ad719;745;"3: Nielsen Helios Ouv. / CMvW Klarinetten 1 / Rachmaninoff Sinfonie 2";11
f8438a2d11858139cb2b3561060ad719;744;"2: Bernstein Candide-Ouv. / Sibelius Violinkonzert / Sibelius Sinfonie 2";12
f8438a2d11858139cb2b3561060ad719;753;"11: Debussy Prelude / Ravel Klavier / Tschaiko 5";13
f907f438bfa78a55074ba71231468f97;754;"12: Suppe / Mozart / Ullmann / Bach / Bruckner 4";1
f907f438bfa78a55074ba71231468f97;749;"7: Khachaturian Spartakus Adagio / Rachmaninoff Klavier 3/ Bruckner 4";2
f907f438bfa78a55074ba71231468f97;755;"13: Sibelius Finlandia / Elgar Enigma-V. / Rachmaninoff 2";3
f907f438bfa78a55074ba71231468f97;752;"10: Gliinka R.+L. Ouv. / Dvorak Mittagshexe / Tschaiko 5";4
fc24b5e004ac1ee0d9e827ad11ae99dd;750;"8: Boulanger Matin de Printemps / Prokofjew Romeo + Julia Auszüge / Berlioz Symphonie fantastique";1
fc24b5e004ac1ee0d9e827ad11ae99dd;753;"11: Debussy Prelude / Ravel Klavier / Tschaiko 5";2
fc24b5e004ac1ee0d9e827ad11ae99dd;751;"9: Brahms Tragische Ouv. / Schumann Ouv. / Rachmaninoff 3";3
fc24b5e004ac1ee0d9e827ad11ae99dd;747;"5: Mendelssohn Hebriden-Ouv. / Grieg Norwegische Tänze / Price 1";4
fc24b5e004ac1ee0d9e827ad11ae99dd;744;"2: Bernstein Candide-Ouv. / Sibelius Violinkonzert / Sibelius Sinfonie 2";5
fc24b5e004ac1ee0d9e827ad11ae99dd;743;"1: Rachmaninoff: Klavierkonzert 3 / Sinfonie 2";6
fc24b5e004ac1ee0d9e827ad11ae99dd;755;"13: Sibelius Finlandia / Elgar Enigma-V. / Rachmaninoff 2";7
fc24b5e004ac1ee0d9e827ad11ae99dd;746;"4: Debussy: 4 Stücke / Brahms 1";8
fc24b5e004ac1ee0d9e827ad11ae99dd;749;"7: Khachaturian Spartakus Adagio / Rachmaninoff Klavier 3/ Bruckner 4";9
fc24b5e004ac1ee0d9e827ad11ae99dd;745;"3: Nielsen Helios Ouv. / CMvW Klarinetten 1 / Rachmaninoff Sinfonie 2";10
fc24b5e004ac1ee0d9e827ad11ae99dd;754;"12: Suppe / Mozart / Ullmann / Bach / Bruckner 4";11
fc24b5e004ac1ee0d9e827ad11ae99dd;752;"10: Gliinka R.+L. Ouv. / Dvorak Mittagshexe / Tschaiko 5";12
fc24b5e004ac1ee0d9e827ad11ae99dd;748;"6: CMvW Freischütz-Ouv. / Grieg Norwegische Tänze / Tschaiko 5";13
fefebd70646db12181bf197b85351e5f;748;"6: CMvW Freischütz-Ouv. / Grieg Norwegische Tänze / Tschaiko 5";1
fefebd70646db12181bf197b85351e5f;752;"10: Gliinka R.+L. Ouv. / Dvorak Mittagshexe / Tschaiko 5";2
fefebd70646db12181bf197b85351e5f;755;"13: Sibelius Finlandia / Elgar Enigma-V. / Rachmaninoff 2";3
fefebd70646db12181bf197b85351e5f;743;"1: Rachmaninoff: Klavierkonzert 3 / Sinfonie 2";4
fefebd70646db12181bf197b85351e5f;744;"2: Bernstein Candide-Ouv. / Sibelius Violinkonzert / Sibelius Sinfonie 2";5
fefebd70646db12181bf197b85351e5f;751;"9: Brahms Tragische Ouv. / Schumann Ouv. / Rachmaninoff 3";6
fefebd70646db12181bf197b85351e5f;745;"3: Nielsen Helios Ouv. / CMvW Klarinetten 1 / Rachmaninoff Sinfonie 2";7
fefebd70646db12181bf197b85351e5f;753;"11: Debussy Prelude / Ravel Klavier / Tschaiko 5";8
fefebd70646db12181bf197b85351e5f;746;"4: Debussy: 4 Stücke / Brahms 1";9
fefebd70646db12181bf197b85351e5f;749;"7: Khachaturian Spartakus Adagio / Rachmaninoff Klavier 3/ Bruckner 4";10
fefebd70646db12181bf197b85351e5f;747;"5: Mendelssohn Hebriden-Ouv. / Grieg Norwegische Tänze / Price 1";11
fefebd70646db12181bf197b85351e5f;754;"12: Suppe / Mozart / Ullmann / Bach / Bruckner 4";12
fefebd70646db12181bf197b85351e5f;750;"8: Boulanger Matin de Printemps / Prokofjew Romeo + Julia Auszüge / Berlioz Symphonie fantastique";13
