hashvoter;optionId;bezeichnung;rank
006e93acc8d2bf355db48ab668dd7aef;726;"3: Freischütz Ouv. / Strauss Tod und Verklärung / Rachmaninoff 2";1
006e93acc8d2bf355db48ab668dd7aef;724;"1: Mahler: Totenfeier + Lied von der Erde";2
006e93acc8d2bf355db48ab668dd7aef;725;"2: Wie schön dat klingt: Boulanger / Rachm. Kl-K 3 / Brahms 4";3
006e93acc8d2bf355db48ab668dd7aef;729;"6: Nielsen Helios Ouv. / CMvW Klarinettenk. / Rachmaninoff 2";4
006e93acc8d2bf355db48ab668dd7aef;727;"4: Freischütz Ouv. / CMvW Klarinettenk. / Bruckner 4";5
006e93acc8d2bf355db48ab668dd7aef;728;"5: T5: de Falla / Rachm. Kl-K 3 / Tschaiko 5";6
006e93acc8d2bf355db48ab668dd7aef;730;"7: Zwo-Eins-Null: Liszt Ungar. Rhaps. 2 / Smetana Vyšehrad / Bruckner 0";7
07832f7eb7d09ef44ff3351bd856e1b9;724;"1: Mahler: Totenfeier + Lied von der Erde";1
07832f7eb7d09ef44ff3351bd856e1b9;726;"3: Freischütz Ouv. / Strauss Tod und Verklärung / Rachmaninoff 2";2
07832f7eb7d09ef44ff3351bd856e1b9;727;"4: Freischütz Ouv. / CMvW Klarinettenk. / Bruckner 4";3
07832f7eb7d09ef44ff3351bd856e1b9;730;"7: Zwo-Eins-Null: Liszt Ungar. Rhaps. 2 / Smetana Vyšehrad / Bruckner 0";4
07832f7eb7d09ef44ff3351bd856e1b9;729;"6: Nielsen Helios Ouv. / CMvW Klarinettenk. / Rachmaninoff 2";5
07832f7eb7d09ef44ff3351bd856e1b9;728;"5: T5: de Falla / Rachm. Kl-K 3 / Tschaiko 5";6
07832f7eb7d09ef44ff3351bd856e1b9;725;"2: Wie schön dat klingt: Boulanger / Rachm. Kl-K 3 / Brahms 4";7
0cb0d29fbf73b999738cc65ce43e9bcd;724;"1: Mahler: Totenfeier + Lied von der Erde";1
0cb0d29fbf73b999738cc65ce43e9bcd;725;"2: Wie schön dat klingt: Boulanger / Rachm. Kl-K 3 / Brahms 4";2
0cb0d29fbf73b999738cc65ce43e9bcd;728;"5: T5: de Falla / Rachm. Kl-K 3 / Tschaiko 5";3
0cb0d29fbf73b999738cc65ce43e9bcd;726;"3: Freischütz Ouv. / Strauss Tod und Verklärung / Rachmaninoff 2";4
0cb0d29fbf73b999738cc65ce43e9bcd;729;"6: Nielsen Helios Ouv. / CMvW Klarinettenk. / Rachmaninoff 2";5
0cb0d29fbf73b999738cc65ce43e9bcd;730;"7: Zwo-Eins-Null: Liszt Ungar. Rhaps. 2 / Smetana Vyšehrad / Bruckner 0";6
0cb0d29fbf73b999738cc65ce43e9bcd;727;"4: Freischütz Ouv. / CMvW Klarinettenk. / Bruckner 4";7
21036ea909f42e8a33c8bf41db469031;725;"2: Wie schön dat klingt: Boulanger / Rachm. Kl-K 3 / Brahms 4";1
21036ea909f42e8a33c8bf41db469031;728;"5: T5: de Falla / Rachm. Kl-K 3 / Tschaiko 5";2
21036ea909f42e8a33c8bf41db469031;727;"4: Freischütz Ouv. / CMvW Klarinettenk. / Bruckner 4";3
21036ea909f42e8a33c8bf41db469031;729;"6: Nielsen Helios Ouv. / CMvW Klarinettenk. / Rachmaninoff 2";4
21036ea909f42e8a33c8bf41db469031;724;"1: Mahler: Totenfeier + Lied von der Erde";5
21036ea909f42e8a33c8bf41db469031;726;"3: Freischütz Ouv. / Strauss Tod und Verklärung / Rachmaninoff 2";6
21036ea909f42e8a33c8bf41db469031;730;"7: Zwo-Eins-Null: Liszt Ungar. Rhaps. 2 / Smetana Vyšehrad / Bruckner 0";7
223aea9e8e867c678c55cc179d8422aa;728;"5: T5: de Falla / Rachm. Kl-K 3 / Tschaiko 5";1
223aea9e8e867c678c55cc179d8422aa;725;"2: Wie schön dat klingt: Boulanger / Rachm. Kl-K 3 / Brahms 4";2
223aea9e8e867c678c55cc179d8422aa;726;"3: Freischütz Ouv. / Strauss Tod und Verklärung / Rachmaninoff 2";3
223aea9e8e867c678c55cc179d8422aa;729;"6: Nielsen Helios Ouv. / CMvW Klarinettenk. / Rachmaninoff 2";4
223aea9e8e867c678c55cc179d8422aa;727;"4: Freischütz Ouv. / CMvW Klarinettenk. / Bruckner 4";5
223aea9e8e867c678c55cc179d8422aa;730;"7: Zwo-Eins-Null: Liszt Ungar. Rhaps. 2 / Smetana Vyšehrad / Bruckner 0";6
223aea9e8e867c678c55cc179d8422aa;724;"1: Mahler: Totenfeier + Lied von der Erde";7
290d4df18ffa3ca7636a8d91fc8a3060;724;"1: Mahler: Totenfeier + Lied von der Erde";1
290d4df18ffa3ca7636a8d91fc8a3060;725;"2: Wie schön dat klingt: Boulanger / Rachm. Kl-K 3 / Brahms 4";2
290d4df18ffa3ca7636a8d91fc8a3060;726;"3: Freischütz Ouv. / Strauss Tod und Verklärung / Rachmaninoff 2";3
290d4df18ffa3ca7636a8d91fc8a3060;728;"5: T5: de Falla / Rachm. Kl-K 3 / Tschaiko 5";4
290d4df18ffa3ca7636a8d91fc8a3060;730;"7: Zwo-Eins-Null: Liszt Ungar. Rhaps. 2 / Smetana Vyšehrad / Bruckner 0";5
290d4df18ffa3ca7636a8d91fc8a3060;727;"4: Freischütz Ouv. / CMvW Klarinettenk. / Bruckner 4";6
290d4df18ffa3ca7636a8d91fc8a3060;729;"6: Nielsen Helios Ouv. / CMvW Klarinettenk. / Rachmaninoff 2";7
2c78731393ab751dfeb7dcfb7c27f082;730;"7: Zwo-Eins-Null: Liszt Ungar. Rhaps. 2 / Smetana Vyšehrad / Bruckner 0";1
2c78731393ab751dfeb7dcfb7c27f082;724;"1: Mahler: Totenfeier + Lied von der Erde";2
2c78731393ab751dfeb7dcfb7c27f082;725;"2: Wie schön dat klingt: Boulanger / Rachm. Kl-K 3 / Brahms 4";3
32db2f030336ac6bc249bcb22bd7436c;725;"2: Wie schön dat klingt: Boulanger / Rachm. Kl-K 3 / Brahms 4";1
32db2f030336ac6bc249bcb22bd7436c;724;"1: Mahler: Totenfeier + Lied von der Erde";2
32db2f030336ac6bc249bcb22bd7436c;727;"4: Freischütz Ouv. / CMvW Klarinettenk. / Bruckner 4";3
32db2f030336ac6bc249bcb22bd7436c;729;"6: Nielsen Helios Ouv. / CMvW Klarinettenk. / Rachmaninoff 2";4
32db2f030336ac6bc249bcb22bd7436c;730;"7: Zwo-Eins-Null: Liszt Ungar. Rhaps. 2 / Smetana Vyšehrad / Bruckner 0";5
32db2f030336ac6bc249bcb22bd7436c;726;"3: Freischütz Ouv. / Strauss Tod und Verklärung / Rachmaninoff 2";6
32db2f030336ac6bc249bcb22bd7436c;728;"5: T5: de Falla / Rachm. Kl-K 3 / Tschaiko 5";7
3460528d12078760f3a53b0911133339;725;"2: Wie schön dat klingt: Boulanger / Rachm. Kl-K 3 / Brahms 4";1
3460528d12078760f3a53b0911133339;728;"5: T5: de Falla / Rachm. Kl-K 3 / Tschaiko 5";2
3460528d12078760f3a53b0911133339;729;"6: Nielsen Helios Ouv. / CMvW Klarinettenk. / Rachmaninoff 2";3
3460528d12078760f3a53b0911133339;726;"3: Freischütz Ouv. / Strauss Tod und Verklärung / Rachmaninoff 2";4
3460528d12078760f3a53b0911133339;724;"1: Mahler: Totenfeier + Lied von der Erde";5
37d653a5ea7e42e9f2ef15c46a45d90b;727;"4: Freischütz Ouv. / CMvW Klarinettenk. / Bruckner 4";1
37d653a5ea7e42e9f2ef15c46a45d90b;726;"3: Freischütz Ouv. / Strauss Tod und Verklärung / Rachmaninoff 2";2
37d653a5ea7e42e9f2ef15c46a45d90b;724;"1: Mahler: Totenfeier + Lied von der Erde";3
3e89688c3e9340a1d47388794d628de0;727;"4: Freischütz Ouv. / CMvW Klarinettenk. / Bruckner 4";1
3e89688c3e9340a1d47388794d628de0;726;"3: Freischütz Ouv. / Strauss Tod und Verklärung / Rachmaninoff 2";2
3e89688c3e9340a1d47388794d628de0;724;"1: Mahler: Totenfeier + Lied von der Erde";3
3e89688c3e9340a1d47388794d628de0;728;"5: T5: de Falla / Rachm. Kl-K 3 / Tschaiko 5";4
3e89688c3e9340a1d47388794d628de0;725;"2: Wie schön dat klingt: Boulanger / Rachm. Kl-K 3 / Brahms 4";5
3e89688c3e9340a1d47388794d628de0;729;"6: Nielsen Helios Ouv. / CMvW Klarinettenk. / Rachmaninoff 2";6
3e89688c3e9340a1d47388794d628de0;730;"7: Zwo-Eins-Null: Liszt Ungar. Rhaps. 2 / Smetana Vyšehrad / Bruckner 0";7
41716e11adbb9cf0861c28ab7c2a02db;727;"4: Freischütz Ouv. / CMvW Klarinettenk. / Bruckner 4";1
41716e11adbb9cf0861c28ab7c2a02db;729;"6: Nielsen Helios Ouv. / CMvW Klarinettenk. / Rachmaninoff 2";2
41716e11adbb9cf0861c28ab7c2a02db;724;"1: Mahler: Totenfeier + Lied von der Erde";3
419844a0aa4ceca53e075ed85000508e;725;"2: Wie schön dat klingt: Boulanger / Rachm. Kl-K 3 / Brahms 4";1
419844a0aa4ceca53e075ed85000508e;730;"7: Zwo-Eins-Null: Liszt Ungar. Rhaps. 2 / Smetana Vyšehrad / Bruckner 0";2
419844a0aa4ceca53e075ed85000508e;728;"5: T5: de Falla / Rachm. Kl-K 3 / Tschaiko 5";3
419844a0aa4ceca53e075ed85000508e;729;"6: Nielsen Helios Ouv. / CMvW Klarinettenk. / Rachmaninoff 2";4
419844a0aa4ceca53e075ed85000508e;727;"4: Freischütz Ouv. / CMvW Klarinettenk. / Bruckner 4";5
419844a0aa4ceca53e075ed85000508e;726;"3: Freischütz Ouv. / Strauss Tod und Verklärung / Rachmaninoff 2";6
419844a0aa4ceca53e075ed85000508e;724;"1: Mahler: Totenfeier + Lied von der Erde";7
4652ab475ec1fe4d80cda0863cf28ea0;724;"1: Mahler: Totenfeier + Lied von der Erde";1
4652ab475ec1fe4d80cda0863cf28ea0;726;"3: Freischütz Ouv. / Strauss Tod und Verklärung / Rachmaninoff 2";2
4652ab475ec1fe4d80cda0863cf28ea0;728;"5: T5: de Falla / Rachm. Kl-K 3 / Tschaiko 5";3
4652ab475ec1fe4d80cda0863cf28ea0;727;"4: Freischütz Ouv. / CMvW Klarinettenk. / Bruckner 4";4
4652ab475ec1fe4d80cda0863cf28ea0;729;"6: Nielsen Helios Ouv. / CMvW Klarinettenk. / Rachmaninoff 2";5
544224aa5af384b18ad4cffb3fba226f;728;"5: T5: de Falla / Rachm. Kl-K 3 / Tschaiko 5";1
544224aa5af384b18ad4cffb3fba226f;727;"4: Freischütz Ouv. / CMvW Klarinettenk. / Bruckner 4";2
544224aa5af384b18ad4cffb3fba226f;729;"6: Nielsen Helios Ouv. / CMvW Klarinettenk. / Rachmaninoff 2";3
544224aa5af384b18ad4cffb3fba226f;726;"3: Freischütz Ouv. / Strauss Tod und Verklärung / Rachmaninoff 2";4
544224aa5af384b18ad4cffb3fba226f;724;"1: Mahler: Totenfeier + Lied von der Erde";5
544224aa5af384b18ad4cffb3fba226f;725;"2: Wie schön dat klingt: Boulanger / Rachm. Kl-K 3 / Brahms 4";6
5c6e542f250caa99c733b978deb0a5de;728;"5: T5: de Falla / Rachm. Kl-K 3 / Tschaiko 5";1
5c6e542f250caa99c733b978deb0a5de;729;"6: Nielsen Helios Ouv. / CMvW Klarinettenk. / Rachmaninoff 2";2
5c6e542f250caa99c733b978deb0a5de;727;"4: Freischütz Ouv. / CMvW Klarinettenk. / Bruckner 4";3
5c6e542f250caa99c733b978deb0a5de;725;"2: Wie schön dat klingt: Boulanger / Rachm. Kl-K 3 / Brahms 4";4
5c6e542f250caa99c733b978deb0a5de;726;"3: Freischütz Ouv. / Strauss Tod und Verklärung / Rachmaninoff 2";5
5c6e542f250caa99c733b978deb0a5de;730;"7: Zwo-Eins-Null: Liszt Ungar. Rhaps. 2 / Smetana Vyšehrad / Bruckner 0";6
5c6e542f250caa99c733b978deb0a5de;724;"1: Mahler: Totenfeier + Lied von der Erde";7
668d4979eeb7e93bbae1c745c4829a61;724;"1: Mahler: Totenfeier + Lied von der Erde";1
668d4979eeb7e93bbae1c745c4829a61;725;"2: Wie schön dat klingt: Boulanger / Rachm. Kl-K 3 / Brahms 4";2
668d4979eeb7e93bbae1c745c4829a61;728;"5: T5: de Falla / Rachm. Kl-K 3 / Tschaiko 5";3
668d4979eeb7e93bbae1c745c4829a61;726;"3: Freischütz Ouv. / Strauss Tod und Verklärung / Rachmaninoff 2";4
68308df064b0dec33bc795182cfa4c42;724;"1: Mahler: Totenfeier + Lied von der Erde";1
68308df064b0dec33bc795182cfa4c42;726;"3: Freischütz Ouv. / Strauss Tod und Verklärung / Rachmaninoff 2";2
68308df064b0dec33bc795182cfa4c42;727;"4: Freischütz Ouv. / CMvW Klarinettenk. / Bruckner 4";3
68308df064b0dec33bc795182cfa4c42;729;"6: Nielsen Helios Ouv. / CMvW Klarinettenk. / Rachmaninoff 2";4
68308df064b0dec33bc795182cfa4c42;730;"7: Zwo-Eins-Null: Liszt Ungar. Rhaps. 2 / Smetana Vyšehrad / Bruckner 0";5
68308df064b0dec33bc795182cfa4c42;725;"2: Wie schön dat klingt: Boulanger / Rachm. Kl-K 3 / Brahms 4";6
68308df064b0dec33bc795182cfa4c42;728;"5: T5: de Falla / Rachm. Kl-K 3 / Tschaiko 5";7
6901ef53eb4da0147fe1c32c01b16843;728;"5: T5: de Falla / Rachm. Kl-K 3 / Tschaiko 5";1
6901ef53eb4da0147fe1c32c01b16843;725;"2: Wie schön dat klingt: Boulanger / Rachm. Kl-K 3 / Brahms 4";2
6901ef53eb4da0147fe1c32c01b16843;729;"6: Nielsen Helios Ouv. / CMvW Klarinettenk. / Rachmaninoff 2";3
6901ef53eb4da0147fe1c32c01b16843;727;"4: Freischütz Ouv. / CMvW Klarinettenk. / Bruckner 4";4
6901ef53eb4da0147fe1c32c01b16843;726;"3: Freischütz Ouv. / Strauss Tod und Verklärung / Rachmaninoff 2";5
6901ef53eb4da0147fe1c32c01b16843;730;"7: Zwo-Eins-Null: Liszt Ungar. Rhaps. 2 / Smetana Vyšehrad / Bruckner 0";6
6901ef53eb4da0147fe1c32c01b16843;724;"1: Mahler: Totenfeier + Lied von der Erde";7
7aa564e7df45e35bb32399b43c6d8ed0;725;"2: Wie schön dat klingt: Boulanger / Rachm. Kl-K 3 / Brahms 4";1
7aa564e7df45e35bb32399b43c6d8ed0;727;"4: Freischütz Ouv. / CMvW Klarinettenk. / Bruckner 4";2
7aa564e7df45e35bb32399b43c6d8ed0;726;"3: Freischütz Ouv. / Strauss Tod und Verklärung / Rachmaninoff 2";3
7aa564e7df45e35bb32399b43c6d8ed0;729;"6: Nielsen Helios Ouv. / CMvW Klarinettenk. / Rachmaninoff 2";4
7aa564e7df45e35bb32399b43c6d8ed0;728;"5: T5: de Falla / Rachm. Kl-K 3 / Tschaiko 5";5
7aa564e7df45e35bb32399b43c6d8ed0;730;"7: Zwo-Eins-Null: Liszt Ungar. Rhaps. 2 / Smetana Vyšehrad / Bruckner 0";6
7aa564e7df45e35bb32399b43c6d8ed0;724;"1: Mahler: Totenfeier + Lied von der Erde";7
7abfeba8d9435012cf655e3aafdf564e;727;"4: Freischütz Ouv. / CMvW Klarinettenk. / Bruckner 4";1
7abfeba8d9435012cf655e3aafdf564e;730;"7: Zwo-Eins-Null: Liszt Ungar. Rhaps. 2 / Smetana Vyšehrad / Bruckner 0";2
7abfeba8d9435012cf655e3aafdf564e;725;"2: Wie schön dat klingt: Boulanger / Rachm. Kl-K 3 / Brahms 4";3
7abfeba8d9435012cf655e3aafdf564e;724;"1: Mahler: Totenfeier + Lied von der Erde";4
7c529f285c888fe5da2fb3b1908214a3;724;"1: Mahler: Totenfeier + Lied von der Erde";1
7c529f285c888fe5da2fb3b1908214a3;725;"2: Wie schön dat klingt: Boulanger / Rachm. Kl-K 3 / Brahms 4";2
7ee35ccf0f4a2230125fee4a041225d3;730;"7: Zwo-Eins-Null: Liszt Ungar. Rhaps. 2 / Smetana Vyšehrad / Bruckner 0";1
7ee35ccf0f4a2230125fee4a041225d3;725;"2: Wie schön dat klingt: Boulanger / Rachm. Kl-K 3 / Brahms 4";2
7ee35ccf0f4a2230125fee4a041225d3;724;"1: Mahler: Totenfeier + Lied von der Erde";3
7ee35ccf0f4a2230125fee4a041225d3;728;"5: T5: de Falla / Rachm. Kl-K 3 / Tschaiko 5";4
7ee35ccf0f4a2230125fee4a041225d3;726;"3: Freischütz Ouv. / Strauss Tod und Verklärung / Rachmaninoff 2";5
7ee35ccf0f4a2230125fee4a041225d3;727;"4: Freischütz Ouv. / CMvW Klarinettenk. / Bruckner 4";6
7ee35ccf0f4a2230125fee4a041225d3;729;"6: Nielsen Helios Ouv. / CMvW Klarinettenk. / Rachmaninoff 2";7
89337be61e36d4ad1571c3df6032ecca;724;"1: Mahler: Totenfeier + Lied von der Erde";1
89337be61e36d4ad1571c3df6032ecca;727;"4: Freischütz Ouv. / CMvW Klarinettenk. / Bruckner 4";2
89337be61e36d4ad1571c3df6032ecca;726;"3: Freischütz Ouv. / Strauss Tod und Verklärung / Rachmaninoff 2";3
89337be61e36d4ad1571c3df6032ecca;728;"5: T5: de Falla / Rachm. Kl-K 3 / Tschaiko 5";4
89337be61e36d4ad1571c3df6032ecca;729;"6: Nielsen Helios Ouv. / CMvW Klarinettenk. / Rachmaninoff 2";5
89337be61e36d4ad1571c3df6032ecca;725;"2: Wie schön dat klingt: Boulanger / Rachm. Kl-K 3 / Brahms 4";6
894c37c7db09f6aca9ba5514a0d4972a;728;"5: T5: de Falla / Rachm. Kl-K 3 / Tschaiko 5";1
894c37c7db09f6aca9ba5514a0d4972a;725;"2: Wie schön dat klingt: Boulanger / Rachm. Kl-K 3 / Brahms 4";2
894c37c7db09f6aca9ba5514a0d4972a;730;"7: Zwo-Eins-Null: Liszt Ungar. Rhaps. 2 / Smetana Vyšehrad / Bruckner 0";3
894c37c7db09f6aca9ba5514a0d4972a;726;"3: Freischütz Ouv. / Strauss Tod und Verklärung / Rachmaninoff 2";4
894c37c7db09f6aca9ba5514a0d4972a;727;"4: Freischütz Ouv. / CMvW Klarinettenk. / Bruckner 4";5
894c37c7db09f6aca9ba5514a0d4972a;729;"6: Nielsen Helios Ouv. / CMvW Klarinettenk. / Rachmaninoff 2";6
894c37c7db09f6aca9ba5514a0d4972a;724;"1: Mahler: Totenfeier + Lied von der Erde";7
8ef1c1b6afce497c6ed4bc024d62e307;724;"1: Mahler: Totenfeier + Lied von der Erde";1
8ef1c1b6afce497c6ed4bc024d62e307;726;"3: Freischütz Ouv. / Strauss Tod und Verklärung / Rachmaninoff 2";2
8ef1c1b6afce497c6ed4bc024d62e307;730;"7: Zwo-Eins-Null: Liszt Ungar. Rhaps. 2 / Smetana Vyšehrad / Bruckner 0";3
911a31191cbb6bda424fae0c12bea3ed;725;"2: Wie schön dat klingt: Boulanger / Rachm. Kl-K 3 / Brahms 4";1
911a31191cbb6bda424fae0c12bea3ed;726;"3: Freischütz Ouv. / Strauss Tod und Verklärung / Rachmaninoff 2";2
911a31191cbb6bda424fae0c12bea3ed;728;"5: T5: de Falla / Rachm. Kl-K 3 / Tschaiko 5";3
911a31191cbb6bda424fae0c12bea3ed;729;"6: Nielsen Helios Ouv. / CMvW Klarinettenk. / Rachmaninoff 2";4
911a31191cbb6bda424fae0c12bea3ed;724;"1: Mahler: Totenfeier + Lied von der Erde";5
911a31191cbb6bda424fae0c12bea3ed;727;"4: Freischütz Ouv. / CMvW Klarinettenk. / Bruckner 4";6
911a31191cbb6bda424fae0c12bea3ed;730;"7: Zwo-Eins-Null: Liszt Ungar. Rhaps. 2 / Smetana Vyšehrad / Bruckner 0";7
933666ef21745e858e63f636ac88812e;727;"4: Freischütz Ouv. / CMvW Klarinettenk. / Bruckner 4";1
933666ef21745e858e63f636ac88812e;726;"3: Freischütz Ouv. / Strauss Tod und Verklärung / Rachmaninoff 2";2
933666ef21745e858e63f636ac88812e;724;"1: Mahler: Totenfeier + Lied von der Erde";3
933666ef21745e858e63f636ac88812e;729;"6: Nielsen Helios Ouv. / CMvW Klarinettenk. / Rachmaninoff 2";4
933666ef21745e858e63f636ac88812e;730;"7: Zwo-Eins-Null: Liszt Ungar. Rhaps. 2 / Smetana Vyšehrad / Bruckner 0";5
933666ef21745e858e63f636ac88812e;728;"5: T5: de Falla / Rachm. Kl-K 3 / Tschaiko 5";6
933666ef21745e858e63f636ac88812e;725;"2: Wie schön dat klingt: Boulanger / Rachm. Kl-K 3 / Brahms 4";7
9864294a32776f0602190a93ee928b11;724;"1: Mahler: Totenfeier + Lied von der Erde";1
9864294a32776f0602190a93ee928b11;727;"4: Freischütz Ouv. / CMvW Klarinettenk. / Bruckner 4";2
9864294a32776f0602190a93ee928b11;728;"5: T5: de Falla / Rachm. Kl-K 3 / Tschaiko 5";3
9864294a32776f0602190a93ee928b11;729;"6: Nielsen Helios Ouv. / CMvW Klarinettenk. / Rachmaninoff 2";4
9864294a32776f0602190a93ee928b11;726;"3: Freischütz Ouv. / Strauss Tod und Verklärung / Rachmaninoff 2";5
a02f66a2974cd2c411e37d70a55810ac;727;"4: Freischütz Ouv. / CMvW Klarinettenk. / Bruckner 4";1
a02f66a2974cd2c411e37d70a55810ac;728;"5: T5: de Falla / Rachm. Kl-K 3 / Tschaiko 5";2
a22419f4c1eb36ef0e72b18db48c720f;724;"1: Mahler: Totenfeier + Lied von der Erde";1
a22419f4c1eb36ef0e72b18db48c720f;728;"5: T5: de Falla / Rachm. Kl-K 3 / Tschaiko 5";2
a22419f4c1eb36ef0e72b18db48c720f;730;"7: Zwo-Eins-Null: Liszt Ungar. Rhaps. 2 / Smetana Vyšehrad / Bruckner 0";3
a22419f4c1eb36ef0e72b18db48c720f;725;"2: Wie schön dat klingt: Boulanger / Rachm. Kl-K 3 / Brahms 4";4
a22419f4c1eb36ef0e72b18db48c720f;726;"3: Freischütz Ouv. / Strauss Tod und Verklärung / Rachmaninoff 2";5
a22419f4c1eb36ef0e72b18db48c720f;729;"6: Nielsen Helios Ouv. / CMvW Klarinettenk. / Rachmaninoff 2";6
a22419f4c1eb36ef0e72b18db48c720f;727;"4: Freischütz Ouv. / CMvW Klarinettenk. / Bruckner 4";7
a5f9213a7c361b7cf265293ae4051370;724;"1: Mahler: Totenfeier + Lied von der Erde";1
a5f9213a7c361b7cf265293ae4051370;730;"7: Zwo-Eins-Null: Liszt Ungar. Rhaps. 2 / Smetana Vyšehrad / Bruckner 0";2
a5f9213a7c361b7cf265293ae4051370;728;"5: T5: de Falla / Rachm. Kl-K 3 / Tschaiko 5";3
a5f9213a7c361b7cf265293ae4051370;725;"2: Wie schön dat klingt: Boulanger / Rachm. Kl-K 3 / Brahms 4";4
a5f9213a7c361b7cf265293ae4051370;726;"3: Freischütz Ouv. / Strauss Tod und Verklärung / Rachmaninoff 2";5
a5f9213a7c361b7cf265293ae4051370;729;"6: Nielsen Helios Ouv. / CMvW Klarinettenk. / Rachmaninoff 2";6
a5f9213a7c361b7cf265293ae4051370;727;"4: Freischütz Ouv. / CMvW Klarinettenk. / Bruckner 4";7
a794c1bbeb8c66982350ae98df7548a3;724;"1: Mahler: Totenfeier + Lied von der Erde";1
ab549f1c5908e5323ac231b60ea8a828;724;"1: Mahler: Totenfeier + Lied von der Erde";1
ab549f1c5908e5323ac231b60ea8a828;730;"7: Zwo-Eins-Null: Liszt Ungar. Rhaps. 2 / Smetana Vyšehrad / Bruckner 0";2
ab549f1c5908e5323ac231b60ea8a828;728;"5: T5: de Falla / Rachm. Kl-K 3 / Tschaiko 5";3
ab549f1c5908e5323ac231b60ea8a828;726;"3: Freischütz Ouv. / Strauss Tod und Verklärung / Rachmaninoff 2";4
ab549f1c5908e5323ac231b60ea8a828;725;"2: Wie schön dat klingt: Boulanger / Rachm. Kl-K 3 / Brahms 4";5
ab549f1c5908e5323ac231b60ea8a828;729;"6: Nielsen Helios Ouv. / CMvW Klarinettenk. / Rachmaninoff 2";6
ab549f1c5908e5323ac231b60ea8a828;727;"4: Freischütz Ouv. / CMvW Klarinettenk. / Bruckner 4";7
b055ea7d7ee718e0adf74d3a1dceb2f9;727;"4: Freischütz Ouv. / CMvW Klarinettenk. / Bruckner 4";1
b055ea7d7ee718e0adf74d3a1dceb2f9;725;"2: Wie schön dat klingt: Boulanger / Rachm. Kl-K 3 / Brahms 4";2
b1950732598dbd1c66c8db8a1a409ac4;729;"6: Nielsen Helios Ouv. / CMvW Klarinettenk. / Rachmaninoff 2";1
b1950732598dbd1c66c8db8a1a409ac4;726;"3: Freischütz Ouv. / Strauss Tod und Verklärung / Rachmaninoff 2";2
b1950732598dbd1c66c8db8a1a409ac4;727;"4: Freischütz Ouv. / CMvW Klarinettenk. / Bruckner 4";3
b1950732598dbd1c66c8db8a1a409ac4;725;"2: Wie schön dat klingt: Boulanger / Rachm. Kl-K 3 / Brahms 4";4
b1950732598dbd1c66c8db8a1a409ac4;724;"1: Mahler: Totenfeier + Lied von der Erde";5
b1950732598dbd1c66c8db8a1a409ac4;728;"5: T5: de Falla / Rachm. Kl-K 3 / Tschaiko 5";6
b1950732598dbd1c66c8db8a1a409ac4;730;"7: Zwo-Eins-Null: Liszt Ungar. Rhaps. 2 / Smetana Vyšehrad / Bruckner 0";7
b6a294e4d155ebca44e6585eab66d089;724;"1: Mahler: Totenfeier + Lied von der Erde";1
b6a294e4d155ebca44e6585eab66d089;726;"3: Freischütz Ouv. / Strauss Tod und Verklärung / Rachmaninoff 2";2
b6a294e4d155ebca44e6585eab66d089;725;"2: Wie schön dat klingt: Boulanger / Rachm. Kl-K 3 / Brahms 4";3
b6a294e4d155ebca44e6585eab66d089;729;"6: Nielsen Helios Ouv. / CMvW Klarinettenk. / Rachmaninoff 2";4
b6a294e4d155ebca44e6585eab66d089;728;"5: T5: de Falla / Rachm. Kl-K 3 / Tschaiko 5";5
b6a294e4d155ebca44e6585eab66d089;727;"4: Freischütz Ouv. / CMvW Klarinettenk. / Bruckner 4";6
b6a294e4d155ebca44e6585eab66d089;730;"7: Zwo-Eins-Null: Liszt Ungar. Rhaps. 2 / Smetana Vyšehrad / Bruckner 0";7
b7a7795edfc6915912fe39a8fe1cafe6;729;"6: Nielsen Helios Ouv. / CMvW Klarinettenk. / Rachmaninoff 2";1
b7a7795edfc6915912fe39a8fe1cafe6;728;"5: T5: de Falla / Rachm. Kl-K 3 / Tschaiko 5";2
b7a7795edfc6915912fe39a8fe1cafe6;724;"1: Mahler: Totenfeier + Lied von der Erde";3
b7a7795edfc6915912fe39a8fe1cafe6;727;"4: Freischütz Ouv. / CMvW Klarinettenk. / Bruckner 4";4
b7a7795edfc6915912fe39a8fe1cafe6;726;"3: Freischütz Ouv. / Strauss Tod und Verklärung / Rachmaninoff 2";5
b7a7795edfc6915912fe39a8fe1cafe6;730;"7: Zwo-Eins-Null: Liszt Ungar. Rhaps. 2 / Smetana Vyšehrad / Bruckner 0";6
b7a7795edfc6915912fe39a8fe1cafe6;725;"2: Wie schön dat klingt: Boulanger / Rachm. Kl-K 3 / Brahms 4";7
bae4ed64dcd71a1b59f3b94fff4f8f93;725;"2: Wie schön dat klingt: Boulanger / Rachm. Kl-K 3 / Brahms 4";1
bae4ed64dcd71a1b59f3b94fff4f8f93;728;"5: T5: de Falla / Rachm. Kl-K 3 / Tschaiko 5";2
bae4ed64dcd71a1b59f3b94fff4f8f93;727;"4: Freischütz Ouv. / CMvW Klarinettenk. / Bruckner 4";3
bae4ed64dcd71a1b59f3b94fff4f8f93;729;"6: Nielsen Helios Ouv. / CMvW Klarinettenk. / Rachmaninoff 2";4
bae4ed64dcd71a1b59f3b94fff4f8f93;730;"7: Zwo-Eins-Null: Liszt Ungar. Rhaps. 2 / Smetana Vyšehrad / Bruckner 0";5
bae4ed64dcd71a1b59f3b94fff4f8f93;726;"3: Freischütz Ouv. / Strauss Tod und Verklärung / Rachmaninoff 2";6
c2b4097fabd3f09efc4c5d726dd69dde;724;"1: Mahler: Totenfeier + Lied von der Erde";1
c2b4097fabd3f09efc4c5d726dd69dde;728;"5: T5: de Falla / Rachm. Kl-K 3 / Tschaiko 5";2
c2b4097fabd3f09efc4c5d726dd69dde;730;"7: Zwo-Eins-Null: Liszt Ungar. Rhaps. 2 / Smetana Vyšehrad / Bruckner 0";3
c2b4097fabd3f09efc4c5d726dd69dde;725;"2: Wie schön dat klingt: Boulanger / Rachm. Kl-K 3 / Brahms 4";4
c2b4097fabd3f09efc4c5d726dd69dde;726;"3: Freischütz Ouv. / Strauss Tod und Verklärung / Rachmaninoff 2";5
c2b4097fabd3f09efc4c5d726dd69dde;729;"6: Nielsen Helios Ouv. / CMvW Klarinettenk. / Rachmaninoff 2";6
c2b4097fabd3f09efc4c5d726dd69dde;727;"4: Freischütz Ouv. / CMvW Klarinettenk. / Bruckner 4";7
c2f3a52bd7b0b1bf17e3f51e97e07898;724;"1: Mahler: Totenfeier + Lied von der Erde";1
c2f3a52bd7b0b1bf17e3f51e97e07898;726;"3: Freischütz Ouv. / Strauss Tod und Verklärung / Rachmaninoff 2";2
c2f3a52bd7b0b1bf17e3f51e97e07898;729;"6: Nielsen Helios Ouv. / CMvW Klarinettenk. / Rachmaninoff 2";3
c325e8b7fa969812cc4343b12894dde1;725;"2: Wie schön dat klingt: Boulanger / Rachm. Kl-K 3 / Brahms 4";1
c325e8b7fa969812cc4343b12894dde1;729;"6: Nielsen Helios Ouv. / CMvW Klarinettenk. / Rachmaninoff 2";2
c325e8b7fa969812cc4343b12894dde1;724;"1: Mahler: Totenfeier + Lied von der Erde";3
c6241475015c65392c507a4a4212a530;728;"5: T5: de Falla / Rachm. Kl-K 3 / Tschaiko 5";1
c6241475015c65392c507a4a4212a530;729;"6: Nielsen Helios Ouv. / CMvW Klarinettenk. / Rachmaninoff 2";2
c6241475015c65392c507a4a4212a530;725;"2: Wie schön dat klingt: Boulanger / Rachm. Kl-K 3 / Brahms 4";3
c6241475015c65392c507a4a4212a530;726;"3: Freischütz Ouv. / Strauss Tod und Verklärung / Rachmaninoff 2";4
c9372f73179808e83bb5dc8a1bd0a55b;725;"2: Wie schön dat klingt: Boulanger / Rachm. Kl-K 3 / Brahms 4";1
c9372f73179808e83bb5dc8a1bd0a55b;730;"7: Zwo-Eins-Null: Liszt Ungar. Rhaps. 2 / Smetana Vyšehrad / Bruckner 0";2
c9372f73179808e83bb5dc8a1bd0a55b;726;"3: Freischütz Ouv. / Strauss Tod und Verklärung / Rachmaninoff 2";3
c9372f73179808e83bb5dc8a1bd0a55b;728;"5: T5: de Falla / Rachm. Kl-K 3 / Tschaiko 5";4
c9372f73179808e83bb5dc8a1bd0a55b;724;"1: Mahler: Totenfeier + Lied von der Erde";5
c9372f73179808e83bb5dc8a1bd0a55b;727;"4: Freischütz Ouv. / CMvW Klarinettenk. / Bruckner 4";6
c9372f73179808e83bb5dc8a1bd0a55b;729;"6: Nielsen Helios Ouv. / CMvW Klarinettenk. / Rachmaninoff 2";7
cd0c6ce6e63a2180a642bbe00d26c042;726;"3: Freischütz Ouv. / Strauss Tod und Verklärung / Rachmaninoff 2";1
cd0c6ce6e63a2180a642bbe00d26c042;727;"4: Freischütz Ouv. / CMvW Klarinettenk. / Bruckner 4";2
cd0c6ce6e63a2180a642bbe00d26c042;724;"1: Mahler: Totenfeier + Lied von der Erde";3
cd0c6ce6e63a2180a642bbe00d26c042;725;"2: Wie schön dat klingt: Boulanger / Rachm. Kl-K 3 / Brahms 4";4
cd0c6ce6e63a2180a642bbe00d26c042;728;"5: T5: de Falla / Rachm. Kl-K 3 / Tschaiko 5";5
d0fefc03c01f055504172b74fb6f564c;727;"4: Freischütz Ouv. / CMvW Klarinettenk. / Bruckner 4";1
d0fefc03c01f055504172b74fb6f564c;724;"1: Mahler: Totenfeier + Lied von der Erde";2
d0fefc03c01f055504172b74fb6f564c;726;"3: Freischütz Ouv. / Strauss Tod und Verklärung / Rachmaninoff 2";3
d0fefc03c01f055504172b74fb6f564c;729;"6: Nielsen Helios Ouv. / CMvW Klarinettenk. / Rachmaninoff 2";4
d0fefc03c01f055504172b74fb6f564c;728;"5: T5: de Falla / Rachm. Kl-K 3 / Tschaiko 5";5
d0fefc03c01f055504172b74fb6f564c;730;"7: Zwo-Eins-Null: Liszt Ungar. Rhaps. 2 / Smetana Vyšehrad / Bruckner 0";6
d0fefc03c01f055504172b74fb6f564c;725;"2: Wie schön dat klingt: Boulanger / Rachm. Kl-K 3 / Brahms 4";7
d4df66c7e7634516e97eb8a9856ecdf7;730;"7: Zwo-Eins-Null: Liszt Ungar. Rhaps. 2 / Smetana Vyšehrad / Bruckner 0";1
d4df66c7e7634516e97eb8a9856ecdf7;726;"3: Freischütz Ouv. / Strauss Tod und Verklärung / Rachmaninoff 2";2
d4df66c7e7634516e97eb8a9856ecdf7;729;"6: Nielsen Helios Ouv. / CMvW Klarinettenk. / Rachmaninoff 2";3
d959ab02b703bb1f247a0aa0be246df0;725;"2: Wie schön dat klingt: Boulanger / Rachm. Kl-K 3 / Brahms 4";1
d959ab02b703bb1f247a0aa0be246df0;727;"4: Freischütz Ouv. / CMvW Klarinettenk. / Bruckner 4";2
d959ab02b703bb1f247a0aa0be246df0;726;"3: Freischütz Ouv. / Strauss Tod und Verklärung / Rachmaninoff 2";3
d959ab02b703bb1f247a0aa0be246df0;729;"6: Nielsen Helios Ouv. / CMvW Klarinettenk. / Rachmaninoff 2";4
d959ab02b703bb1f247a0aa0be246df0;724;"1: Mahler: Totenfeier + Lied von der Erde";5
d959ab02b703bb1f247a0aa0be246df0;728;"5: T5: de Falla / Rachm. Kl-K 3 / Tschaiko 5";6
d959ab02b703bb1f247a0aa0be246df0;730;"7: Zwo-Eins-Null: Liszt Ungar. Rhaps. 2 / Smetana Vyšehrad / Bruckner 0";7
df9bc9f3ba35bd006599262b5f475c8f;725;"2: Wie schön dat klingt: Boulanger / Rachm. Kl-K 3 / Brahms 4";1
df9bc9f3ba35bd006599262b5f475c8f;728;"5: T5: de Falla / Rachm. Kl-K 3 / Tschaiko 5";2
df9bc9f3ba35bd006599262b5f475c8f;730;"7: Zwo-Eins-Null: Liszt Ungar. Rhaps. 2 / Smetana Vyšehrad / Bruckner 0";3
df9bc9f3ba35bd006599262b5f475c8f;727;"4: Freischütz Ouv. / CMvW Klarinettenk. / Bruckner 4";4
df9bc9f3ba35bd006599262b5f475c8f;729;"6: Nielsen Helios Ouv. / CMvW Klarinettenk. / Rachmaninoff 2";5
df9bc9f3ba35bd006599262b5f475c8f;726;"3: Freischütz Ouv. / Strauss Tod und Verklärung / Rachmaninoff 2";6
df9bc9f3ba35bd006599262b5f475c8f;724;"1: Mahler: Totenfeier + Lied von der Erde";7
dfc5f83ff04e400cecae17f5c706acee;725;"2: Wie schön dat klingt: Boulanger / Rachm. Kl-K 3 / Brahms 4";1
dfc5f83ff04e400cecae17f5c706acee;730;"7: Zwo-Eins-Null: Liszt Ungar. Rhaps. 2 / Smetana Vyšehrad / Bruckner 0";2
dfc5f83ff04e400cecae17f5c706acee;727;"4: Freischütz Ouv. / CMvW Klarinettenk. / Bruckner 4";3
dfc5f83ff04e400cecae17f5c706acee;728;"5: T5: de Falla / Rachm. Kl-K 3 / Tschaiko 5";4
dfc5f83ff04e400cecae17f5c706acee;726;"3: Freischütz Ouv. / Strauss Tod und Verklärung / Rachmaninoff 2";5
dfc5f83ff04e400cecae17f5c706acee;729;"6: Nielsen Helios Ouv. / CMvW Klarinettenk. / Rachmaninoff 2";6
dfc5f83ff04e400cecae17f5c706acee;724;"1: Mahler: Totenfeier + Lied von der Erde";7
e33890114d5cdb5bbb24538af212f86f;729;"6: Nielsen Helios Ouv. / CMvW Klarinettenk. / Rachmaninoff 2";1
e33890114d5cdb5bbb24538af212f86f;727;"4: Freischütz Ouv. / CMvW Klarinettenk. / Bruckner 4";2
e33890114d5cdb5bbb24538af212f86f;730;"7: Zwo-Eins-Null: Liszt Ungar. Rhaps. 2 / Smetana Vyšehrad / Bruckner 0";3
e33890114d5cdb5bbb24538af212f86f;726;"3: Freischütz Ouv. / Strauss Tod und Verklärung / Rachmaninoff 2";4
e33890114d5cdb5bbb24538af212f86f;724;"1: Mahler: Totenfeier + Lied von der Erde";5
e33890114d5cdb5bbb24538af212f86f;725;"2: Wie schön dat klingt: Boulanger / Rachm. Kl-K 3 / Brahms 4";6
e33890114d5cdb5bbb24538af212f86f;728;"5: T5: de Falla / Rachm. Kl-K 3 / Tschaiko 5";7
e3a65440b9363c3d8460210979b252f5;728;"5: T5: de Falla / Rachm. Kl-K 3 / Tschaiko 5";1
e3a65440b9363c3d8460210979b252f5;724;"1: Mahler: Totenfeier + Lied von der Erde";2
e3a65440b9363c3d8460210979b252f5;729;"6: Nielsen Helios Ouv. / CMvW Klarinettenk. / Rachmaninoff 2";3
e3a65440b9363c3d8460210979b252f5;727;"4: Freischütz Ouv. / CMvW Klarinettenk. / Bruckner 4";4
e3a65440b9363c3d8460210979b252f5;730;"7: Zwo-Eins-Null: Liszt Ungar. Rhaps. 2 / Smetana Vyšehrad / Bruckner 0";5
e3a65440b9363c3d8460210979b252f5;726;"3: Freischütz Ouv. / Strauss Tod und Verklärung / Rachmaninoff 2";6
e3a65440b9363c3d8460210979b252f5;725;"2: Wie schön dat klingt: Boulanger / Rachm. Kl-K 3 / Brahms 4";7
e9429e16afd47224160e3b4fd4627c3f;725;"2: Wie schön dat klingt: Boulanger / Rachm. Kl-K 3 / Brahms 4";1
e9429e16afd47224160e3b4fd4627c3f;728;"5: T5: de Falla / Rachm. Kl-K 3 / Tschaiko 5";2
e9429e16afd47224160e3b4fd4627c3f;726;"3: Freischütz Ouv. / Strauss Tod und Verklärung / Rachmaninoff 2";3
e9429e16afd47224160e3b4fd4627c3f;724;"1: Mahler: Totenfeier + Lied von der Erde";4
e9429e16afd47224160e3b4fd4627c3f;730;"7: Zwo-Eins-Null: Liszt Ungar. Rhaps. 2 / Smetana Vyšehrad / Bruckner 0";5
e9429e16afd47224160e3b4fd4627c3f;729;"6: Nielsen Helios Ouv. / CMvW Klarinettenk. / Rachmaninoff 2";6
e9429e16afd47224160e3b4fd4627c3f;727;"4: Freischütz Ouv. / CMvW Klarinettenk. / Bruckner 4";7
eb41b13a41ab1af1d5378f179596d072;727;"4: Freischütz Ouv. / CMvW Klarinettenk. / Bruckner 4";1
eb41b13a41ab1af1d5378f179596d072;724;"1: Mahler: Totenfeier + Lied von der Erde";2
eb41b13a41ab1af1d5378f179596d072;726;"3: Freischütz Ouv. / Strauss Tod und Verklärung / Rachmaninoff 2";3
eb41b13a41ab1af1d5378f179596d072;728;"5: T5: de Falla / Rachm. Kl-K 3 / Tschaiko 5";4
eb41b13a41ab1af1d5378f179596d072;729;"6: Nielsen Helios Ouv. / CMvW Klarinettenk. / Rachmaninoff 2";5
edfcf15443a0c43b95addf33ea8d2550;728;"5: T5: de Falla / Rachm. Kl-K 3 / Tschaiko 5";1
edfcf15443a0c43b95addf33ea8d2550;726;"3: Freischütz Ouv. / Strauss Tod und Verklärung / Rachmaninoff 2";2
edfcf15443a0c43b95addf33ea8d2550;725;"2: Wie schön dat klingt: Boulanger / Rachm. Kl-K 3 / Brahms 4";3
edfcf15443a0c43b95addf33ea8d2550;729;"6: Nielsen Helios Ouv. / CMvW Klarinettenk. / Rachmaninoff 2";4
edfcf15443a0c43b95addf33ea8d2550;727;"4: Freischütz Ouv. / CMvW Klarinettenk. / Bruckner 4";5
edfcf15443a0c43b95addf33ea8d2550;730;"7: Zwo-Eins-Null: Liszt Ungar. Rhaps. 2 / Smetana Vyšehrad / Bruckner 0";6
edfcf15443a0c43b95addf33ea8d2550;724;"1: Mahler: Totenfeier + Lied von der Erde";7

