hashvoter;optionId;bezeichnung;rank
0060e60869e579a02a861fc2fd202590;765;"4: Finlandia / Tristan / Williams Sea Symphony";1
0060e60869e579a02a861fc2fd202590;766;"5: Tschiko Sturm / Williams Sea Symphony";2
0060e60869e579a02a861fc2fd202590;769;"8: Debussy Prelude / Ravel Klavier / Tschaiko 4";3
0060e60869e579a02a861fc2fd202590;768;"7: Debussy Prelude / Ravel Klavier / Tschaiko 5";4
0060e60869e579a02a861fc2fd202590;767;"6: Wagner / Brahms / Bruckner / Brahms Requiem";5
0060e60869e579a02a861fc2fd202590;764;"3: Berkner op. 7 / Brahms Requiem";6
0060e60869e579a02a861fc2fd202590;771;"10: Dvorak Slawische Tänze / Brahms Requiem";7
0060e60869e579a02a861fc2fd202590;763;"2: Brahms x 3 / Schumann / Beethoven 9";8
0060e60869e579a02a861fc2fd202590;762;"1: Dvorak Requiem";9
0060e60869e579a02a861fc2fd202590;770;"9: Brahms / Brahms / Beethoven 9";10
0085d3d2dd06d20b8ccc9013e0f137ee;766;"5: Tschiko Sturm / Williams Sea Symphony";1
0085d3d2dd06d20b8ccc9013e0f137ee;765;"4: Finlandia / Tristan / Williams Sea Symphony";2
0085d3d2dd06d20b8ccc9013e0f137ee;768;"7: Debussy Prelude / Ravel Klavier / Tschaiko 5";3
0085d3d2dd06d20b8ccc9013e0f137ee;762;"1: Dvorak Requiem";4
0085d3d2dd06d20b8ccc9013e0f137ee;767;"6: Wagner / Brahms / Bruckner / Brahms Requiem";5
0085d3d2dd06d20b8ccc9013e0f137ee;769;"8: Debussy Prelude / Ravel Klavier / Tschaiko 4";6
0085d3d2dd06d20b8ccc9013e0f137ee;771;"10: Dvorak Slawische Tänze / Brahms Requiem";7
0085d3d2dd06d20b8ccc9013e0f137ee;764;"3: Berkner op. 7 / Brahms Requiem";8
0085d3d2dd06d20b8ccc9013e0f137ee;763;"2: Brahms x 3 / Schumann / Beethoven 9";9
0085d3d2dd06d20b8ccc9013e0f137ee;770;"9: Brahms / Brahms / Beethoven 9";10
04d051ce87fb1f60f3332111276ac216;766;"5: Tschiko Sturm / Williams Sea Symphony";1
04d051ce87fb1f60f3332111276ac216;765;"4: Finlandia / Tristan / Williams Sea Symphony";2
04d051ce87fb1f60f3332111276ac216;762;"1: Dvorak Requiem";3
04d051ce87fb1f60f3332111276ac216;769;"8: Debussy Prelude / Ravel Klavier / Tschaiko 4";4
04d051ce87fb1f60f3332111276ac216;768;"7: Debussy Prelude / Ravel Klavier / Tschaiko 5";5
04d051ce87fb1f60f3332111276ac216;771;"10: Dvorak Slawische Tänze / Brahms Requiem";6
05c2c93f63bce849c47909c8c2f549ab;767;"6: Wagner / Brahms / Bruckner / Brahms Requiem";1
05c2c93f63bce849c47909c8c2f549ab;771;"10: Dvorak Slawische Tänze / Brahms Requiem";2
05c2c93f63bce849c47909c8c2f549ab;763;"2: Brahms x 3 / Schumann / Beethoven 9";3
05c2c93f63bce849c47909c8c2f549ab;768;"7: Debussy Prelude / Ravel Klavier / Tschaiko 5";4
05c2c93f63bce849c47909c8c2f549ab;769;"8: Debussy Prelude / Ravel Klavier / Tschaiko 4";5
05c2c93f63bce849c47909c8c2f549ab;764;"3: Berkner op. 7 / Brahms Requiem";6
05c2c93f63bce849c47909c8c2f549ab;762;"1: Dvorak Requiem";7
05c2c93f63bce849c47909c8c2f549ab;766;"5: Tschiko Sturm / Williams Sea Symphony";8
05c2c93f63bce849c47909c8c2f549ab;765;"4: Finlandia / Tristan / Williams Sea Symphony";9
05c2c93f63bce849c47909c8c2f549ab;770;"9: Brahms / Brahms / Beethoven 9";10
0e2a8f9c906d72c498e148160f676eed;762;"1: Dvorak Requiem";1
0e2a8f9c906d72c498e148160f676eed;768;"7: Debussy Prelude / Ravel Klavier / Tschaiko 5";2
0e2a8f9c906d72c498e148160f676eed;769;"8: Debussy Prelude / Ravel Klavier / Tschaiko 4";3
0e2a8f9c906d72c498e148160f676eed;766;"5: Tschiko Sturm / Williams Sea Symphony";4
0e2a8f9c906d72c498e148160f676eed;765;"4: Finlandia / Tristan / Williams Sea Symphony";5
1b9b87c080012c8007def8599cb467da;762;"1: Dvorak Requiem";1
1b9b87c080012c8007def8599cb467da;771;"10: Dvorak Slawische Tänze / Brahms Requiem";2
1b9b87c080012c8007def8599cb467da;763;"2: Brahms x 3 / Schumann / Beethoven 9";3
1f5bad79c1e64f25f47134333dc1b1d9;768;"7: Debussy Prelude / Ravel Klavier / Tschaiko 5";1
1f5bad79c1e64f25f47134333dc1b1d9;766;"5: Tschiko Sturm / Williams Sea Symphony";2
1f5bad79c1e64f25f47134333dc1b1d9;769;"8: Debussy Prelude / Ravel Klavier / Tschaiko 4";3
1f5bad79c1e64f25f47134333dc1b1d9;762;"1: Dvorak Requiem";4
2167b3ca9bcdc7ab6aadbab3f62bdd3f;767;"6: Wagner / Brahms / Bruckner / Brahms Requiem";1
2167b3ca9bcdc7ab6aadbab3f62bdd3f;771;"10: Dvorak Slawische Tänze / Brahms Requiem";2
2167b3ca9bcdc7ab6aadbab3f62bdd3f;763;"2: Brahms x 3 / Schumann / Beethoven 9";3
2167b3ca9bcdc7ab6aadbab3f62bdd3f;762;"1: Dvorak Requiem";4
2167b3ca9bcdc7ab6aadbab3f62bdd3f;770;"9: Brahms / Brahms / Beethoven 9";5
2167b3ca9bcdc7ab6aadbab3f62bdd3f;765;"4: Finlandia / Tristan / Williams Sea Symphony";6
2167b3ca9bcdc7ab6aadbab3f62bdd3f;766;"5: Tschiko Sturm / Williams Sea Symphony";7
2167b3ca9bcdc7ab6aadbab3f62bdd3f;764;"3: Berkner op. 7 / Brahms Requiem";8
2167b3ca9bcdc7ab6aadbab3f62bdd3f;768;"7: Debussy Prelude / Ravel Klavier / Tschaiko 5";9
2167b3ca9bcdc7ab6aadbab3f62bdd3f;769;"8: Debussy Prelude / Ravel Klavier / Tschaiko 4";10
2677e2640cbf27a8ed5bb49ee6c3fb41;768;"7: Debussy Prelude / Ravel Klavier / Tschaiko 5";1
2677e2640cbf27a8ed5bb49ee6c3fb41;769;"8: Debussy Prelude / Ravel Klavier / Tschaiko 4";2
2924fa065dd9b7508ea767f24a0ae01c;768;"7: Debussy Prelude / Ravel Klavier / Tschaiko 5";1
2924fa065dd9b7508ea767f24a0ae01c;770;"9: Brahms / Brahms / Beethoven 9";2
2924fa065dd9b7508ea767f24a0ae01c;763;"2: Brahms x 3 / Schumann / Beethoven 9";3
2ed130b5477452efa9ffefc734a67172;766;"5: Tschiko Sturm / Williams Sea Symphony";1
2ed130b5477452efa9ffefc734a67172;765;"4: Finlandia / Tristan / Williams Sea Symphony";2
2ed130b5477452efa9ffefc734a67172;763;"2: Brahms x 3 / Schumann / Beethoven 9";3
2ed130b5477452efa9ffefc734a67172;768;"7: Debussy Prelude / Ravel Klavier / Tschaiko 5";4
2ed130b5477452efa9ffefc734a67172;771;"10: Dvorak Slawische Tänze / Brahms Requiem";5
2ed130b5477452efa9ffefc734a67172;767;"6: Wagner / Brahms / Bruckner / Brahms Requiem";6
2ed130b5477452efa9ffefc734a67172;762;"1: Dvorak Requiem";7
2ed130b5477452efa9ffefc734a67172;770;"9: Brahms / Brahms / Beethoven 9";8
2ed130b5477452efa9ffefc734a67172;769;"8: Debussy Prelude / Ravel Klavier / Tschaiko 4";9
2ed130b5477452efa9ffefc734a67172;764;"3: Berkner op. 7 / Brahms Requiem";10
38796088af581e8cbda9db3c17ec7c52;764;"3: Berkner op. 7 / Brahms Requiem";1
398d54495f33ee4935e7fbacfe348183;765;"4: Finlandia / Tristan / Williams Sea Symphony";1
398d54495f33ee4935e7fbacfe348183;768;"7: Debussy Prelude / Ravel Klavier / Tschaiko 5";2
398d54495f33ee4935e7fbacfe348183;769;"8: Debussy Prelude / Ravel Klavier / Tschaiko 4";3
398d54495f33ee4935e7fbacfe348183;762;"1: Dvorak Requiem";4
398d54495f33ee4935e7fbacfe348183;767;"6: Wagner / Brahms / Bruckner / Brahms Requiem";5
398d54495f33ee4935e7fbacfe348183;771;"10: Dvorak Slawische Tänze / Brahms Requiem";6
398d54495f33ee4935e7fbacfe348183;763;"2: Brahms x 3 / Schumann / Beethoven 9";7
398d54495f33ee4935e7fbacfe348183;770;"9: Brahms / Brahms / Beethoven 9";8
398d54495f33ee4935e7fbacfe348183;766;"5: Tschiko Sturm / Williams Sea Symphony";9
398d54495f33ee4935e7fbacfe348183;764;"3: Berkner op. 7 / Brahms Requiem";10
3b05c880e524e9ace86b9a527c271eff;765;"4: Finlandia / Tristan / Williams Sea Symphony";1
3b05c880e524e9ace86b9a527c271eff;766;"5: Tschiko Sturm / Williams Sea Symphony";2
3b05c880e524e9ace86b9a527c271eff;771;"10: Dvorak Slawische Tänze / Brahms Requiem";3
3b05c880e524e9ace86b9a527c271eff;770;"9: Brahms / Brahms / Beethoven 9";4
3b05c880e524e9ace86b9a527c271eff;762;"1: Dvorak Requiem";5
3b62c12f6f51c2b991f4a1020a18b337;770;"9: Brahms / Brahms / Beethoven 9";1
3b62c12f6f51c2b991f4a1020a18b337;763;"2: Brahms x 3 / Schumann / Beethoven 9";2
3b62c12f6f51c2b991f4a1020a18b337;764;"3: Berkner op. 7 / Brahms Requiem";3
3b62c12f6f51c2b991f4a1020a18b337;771;"10: Dvorak Slawische Tänze / Brahms Requiem";4
3b62c12f6f51c2b991f4a1020a18b337;767;"6: Wagner / Brahms / Bruckner / Brahms Requiem";5
3b62c12f6f51c2b991f4a1020a18b337;762;"1: Dvorak Requiem";6
3b62c12f6f51c2b991f4a1020a18b337;765;"4: Finlandia / Tristan / Williams Sea Symphony";7
3b62c12f6f51c2b991f4a1020a18b337;766;"5: Tschiko Sturm / Williams Sea Symphony";8
3b62c12f6f51c2b991f4a1020a18b337;769;"8: Debussy Prelude / Ravel Klavier / Tschaiko 4";9
3b62c12f6f51c2b991f4a1020a18b337;768;"7: Debussy Prelude / Ravel Klavier / Tschaiko 5";10
3c4608aeb88d852b9bda02c95f3bdda5;770;"9: Brahms / Brahms / Beethoven 9";1
3c4608aeb88d852b9bda02c95f3bdda5;763;"2: Brahms x 3 / Schumann / Beethoven 9";2
3c4608aeb88d852b9bda02c95f3bdda5;771;"10: Dvorak Slawische Tänze / Brahms Requiem";3
3c4608aeb88d852b9bda02c95f3bdda5;767;"6: Wagner / Brahms / Bruckner / Brahms Requiem";4
3c4608aeb88d852b9bda02c95f3bdda5;764;"3: Berkner op. 7 / Brahms Requiem";5
40af1282ee08b4603004d7875c4e55c9;770;"9: Brahms / Brahms / Beethoven 9";1
40af1282ee08b4603004d7875c4e55c9;765;"4: Finlandia / Tristan / Williams Sea Symphony";2
40af1282ee08b4603004d7875c4e55c9;763;"2: Brahms x 3 / Schumann / Beethoven 9";3
40af1282ee08b4603004d7875c4e55c9;767;"6: Wagner / Brahms / Bruckner / Brahms Requiem";4
40af1282ee08b4603004d7875c4e55c9;764;"3: Berkner op. 7 / Brahms Requiem";5
41b1526df0f2784a367691db056443ea;770;"9: Brahms / Brahms / Beethoven 9";1
41b1526df0f2784a367691db056443ea;771;"10: Dvorak Slawische Tänze / Brahms Requiem";2
41b1526df0f2784a367691db056443ea;765;"4: Finlandia / Tristan / Williams Sea Symphony";3
41b1526df0f2784a367691db056443ea;762;"1: Dvorak Requiem";4
41b1526df0f2784a367691db056443ea;763;"2: Brahms x 3 / Schumann / Beethoven 9";5
41b1526df0f2784a367691db056443ea;764;"3: Berkner op. 7 / Brahms Requiem";6
41b1526df0f2784a367691db056443ea;767;"6: Wagner / Brahms / Bruckner / Brahms Requiem";7
41b1526df0f2784a367691db056443ea;769;"8: Debussy Prelude / Ravel Klavier / Tschaiko 4";8
41b1526df0f2784a367691db056443ea;768;"7: Debussy Prelude / Ravel Klavier / Tschaiko 5";9
41b1526df0f2784a367691db056443ea;766;"5: Tschiko Sturm / Williams Sea Symphony";10
45a945a2587dd6cc6ef6ada5925e6b1c;771;"10: Dvorak Slawische Tänze / Brahms Requiem";1
45a945a2587dd6cc6ef6ada5925e6b1c;767;"6: Wagner / Brahms / Bruckner / Brahms Requiem";2
45a945a2587dd6cc6ef6ada5925e6b1c;768;"7: Debussy Prelude / Ravel Klavier / Tschaiko 5";3
45a945a2587dd6cc6ef6ada5925e6b1c;763;"2: Brahms x 3 / Schumann / Beethoven 9";4
4681507bf3fe2fb25863eafcc72d5f53;768;"7: Debussy Prelude / Ravel Klavier / Tschaiko 5";1
4681507bf3fe2fb25863eafcc72d5f53;769;"8: Debussy Prelude / Ravel Klavier / Tschaiko 4";2
4681507bf3fe2fb25863eafcc72d5f53;766;"5: Tschiko Sturm / Williams Sea Symphony";3
4681507bf3fe2fb25863eafcc72d5f53;765;"4: Finlandia / Tristan / Williams Sea Symphony";4
4a82776a7f39a3e73c097467f5c17625;768;"7: Debussy Prelude / Ravel Klavier / Tschaiko 5";1
4a82776a7f39a3e73c097467f5c17625;769;"8: Debussy Prelude / Ravel Klavier / Tschaiko 4";2
4a82776a7f39a3e73c097467f5c17625;767;"6: Wagner / Brahms / Bruckner / Brahms Requiem";3
4a82776a7f39a3e73c097467f5c17625;771;"10: Dvorak Slawische Tänze / Brahms Requiem";4
4a82776a7f39a3e73c097467f5c17625;770;"9: Brahms / Brahms / Beethoven 9";5
4a82776a7f39a3e73c097467f5c17625;764;"3: Berkner op. 7 / Brahms Requiem";6
4a82776a7f39a3e73c097467f5c17625;762;"1: Dvorak Requiem";7
4a82776a7f39a3e73c097467f5c17625;763;"2: Brahms x 3 / Schumann / Beethoven 9";8
4a82776a7f39a3e73c097467f5c17625;765;"4: Finlandia / Tristan / Williams Sea Symphony";9
4a82776a7f39a3e73c097467f5c17625;766;"5: Tschiko Sturm / Williams Sea Symphony";10
4c484d34a7cc2528593a1e9d09abfc53;765;"4: Finlandia / Tristan / Williams Sea Symphony";1
4c484d34a7cc2528593a1e9d09abfc53;766;"5: Tschiko Sturm / Williams Sea Symphony";2
4c484d34a7cc2528593a1e9d09abfc53;764;"3: Berkner op. 7 / Brahms Requiem";3
4c484d34a7cc2528593a1e9d09abfc53;771;"10: Dvorak Slawische Tänze / Brahms Requiem";4
4c484d34a7cc2528593a1e9d09abfc53;767;"6: Wagner / Brahms / Bruckner / Brahms Requiem";5
4c484d34a7cc2528593a1e9d09abfc53;762;"1: Dvorak Requiem";6
4c484d34a7cc2528593a1e9d09abfc53;770;"9: Brahms / Brahms / Beethoven 9";7
4c484d34a7cc2528593a1e9d09abfc53;763;"2: Brahms x 3 / Schumann / Beethoven 9";8
4c484d34a7cc2528593a1e9d09abfc53;769;"8: Debussy Prelude / Ravel Klavier / Tschaiko 4";9
4c484d34a7cc2528593a1e9d09abfc53;768;"7: Debussy Prelude / Ravel Klavier / Tschaiko 5";10
53391c0644fb8124a028b7c1ce3b4924;763;"2: Brahms x 3 / Schumann / Beethoven 9";1
53391c0644fb8124a028b7c1ce3b4924;770;"9: Brahms / Brahms / Beethoven 9";2
53391c0644fb8124a028b7c1ce3b4924;768;"7: Debussy Prelude / Ravel Klavier / Tschaiko 5";3
53391c0644fb8124a028b7c1ce3b4924;769;"8: Debussy Prelude / Ravel Klavier / Tschaiko 4";4
53391c0644fb8124a028b7c1ce3b4924;767;"6: Wagner / Brahms / Bruckner / Brahms Requiem";5
53391c0644fb8124a028b7c1ce3b4924;764;"3: Berkner op. 7 / Brahms Requiem";6
53391c0644fb8124a028b7c1ce3b4924;771;"10: Dvorak Slawische Tänze / Brahms Requiem";7
53391c0644fb8124a028b7c1ce3b4924;765;"4: Finlandia / Tristan / Williams Sea Symphony";8
53391c0644fb8124a028b7c1ce3b4924;766;"5: Tschiko Sturm / Williams Sea Symphony";9
53391c0644fb8124a028b7c1ce3b4924;762;"1: Dvorak Requiem";10
5a03c2c03ef20aa6e93c5595fcc5f08d;768;"7: Debussy Prelude / Ravel Klavier / Tschaiko 5";1
5a3d547a4e2f992bc75faf798786d16e;768;"7: Debussy Prelude / Ravel Klavier / Tschaiko 5";1
5f53c1ab70605df51a1614a7fce616c4;768;"7: Debussy Prelude / Ravel Klavier / Tschaiko 5";1
5f53c1ab70605df51a1614a7fce616c4;763;"2: Brahms x 3 / Schumann / Beethoven 9";2
5f53c1ab70605df51a1614a7fce616c4;769;"8: Debussy Prelude / Ravel Klavier / Tschaiko 4";3
65974226e32ddc9eb2e600a722f01236;768;"7: Debussy Prelude / Ravel Klavier / Tschaiko 5";1
65b7189277821bf5d2ce1bf096c46dee;766;"5: Tschiko Sturm / Williams Sea Symphony";1
65b7189277821bf5d2ce1bf096c46dee;765;"4: Finlandia / Tristan / Williams Sea Symphony";2
65b7189277821bf5d2ce1bf096c46dee;768;"7: Debussy Prelude / Ravel Klavier / Tschaiko 5";3
65b7189277821bf5d2ce1bf096c46dee;763;"2: Brahms x 3 / Schumann / Beethoven 9";4
65b7189277821bf5d2ce1bf096c46dee;770;"9: Brahms / Brahms / Beethoven 9";5
6757b64822c673085764b43782e0f289;763;"2: Brahms x 3 / Schumann / Beethoven 9";1
6757b64822c673085764b43782e0f289;770;"9: Brahms / Brahms / Beethoven 9";2
6757b64822c673085764b43782e0f289;771;"10: Dvorak Slawische Tänze / Brahms Requiem";3
6757b64822c673085764b43782e0f289;762;"1: Dvorak Requiem";4
6757b64822c673085764b43782e0f289;764;"3: Berkner op. 7 / Brahms Requiem";5
6757b64822c673085764b43782e0f289;767;"6: Wagner / Brahms / Bruckner / Brahms Requiem";6
6757b64822c673085764b43782e0f289;768;"7: Debussy Prelude / Ravel Klavier / Tschaiko 5";7
6757b64822c673085764b43782e0f289;769;"8: Debussy Prelude / Ravel Klavier / Tschaiko 4";8
6757b64822c673085764b43782e0f289;766;"5: Tschiko Sturm / Williams Sea Symphony";9
6757b64822c673085764b43782e0f289;765;"4: Finlandia / Tristan / Williams Sea Symphony";10
6e3a77bd5715080c6b2c8b41bc964a31;766;"5: Tschiko Sturm / Williams Sea Symphony";1
6e3a77bd5715080c6b2c8b41bc964a31;762;"1: Dvorak Requiem";2
6e3a77bd5715080c6b2c8b41bc964a31;763;"2: Brahms x 3 / Schumann / Beethoven 9";3
7a5e7a55abb8464dedd48a4e00c14f5f;763;"2: Brahms x 3 / Schumann / Beethoven 9";1
7a5e7a55abb8464dedd48a4e00c14f5f;762;"1: Dvorak Requiem";2
7a5e7a55abb8464dedd48a4e00c14f5f;768;"7: Debussy Prelude / Ravel Klavier / Tschaiko 5";3
7a5e7a55abb8464dedd48a4e00c14f5f;769;"8: Debussy Prelude / Ravel Klavier / Tschaiko 4";4
7c6ab606ddfa7c3d9e045cf2b3051278;762;"1: Dvorak Requiem";1
7c6ab606ddfa7c3d9e045cf2b3051278;767;"6: Wagner / Brahms / Bruckner / Brahms Requiem";2
7c6ab606ddfa7c3d9e045cf2b3051278;771;"10: Dvorak Slawische Tänze / Brahms Requiem";3
7c6ab606ddfa7c3d9e045cf2b3051278;763;"2: Brahms x 3 / Schumann / Beethoven 9";4
7c6ab606ddfa7c3d9e045cf2b3051278;764;"3: Berkner op. 7 / Brahms Requiem";5
7c6ab606ddfa7c3d9e045cf2b3051278;770;"9: Brahms / Brahms / Beethoven 9";6
7c6ab606ddfa7c3d9e045cf2b3051278;765;"4: Finlandia / Tristan / Williams Sea Symphony";7
7c6ab606ddfa7c3d9e045cf2b3051278;766;"5: Tschiko Sturm / Williams Sea Symphony";8
8696765d2f56b946a4e5a8e4d5aa34bb;770;"9: Brahms / Brahms / Beethoven 9";1
8696765d2f56b946a4e5a8e4d5aa34bb;763;"2: Brahms x 3 / Schumann / Beethoven 9";2
8696765d2f56b946a4e5a8e4d5aa34bb;768;"7: Debussy Prelude / Ravel Klavier / Tschaiko 5";3
8696765d2f56b946a4e5a8e4d5aa34bb;769;"8: Debussy Prelude / Ravel Klavier / Tschaiko 4";4
8696765d2f56b946a4e5a8e4d5aa34bb;765;"4: Finlandia / Tristan / Williams Sea Symphony";5
8696765d2f56b946a4e5a8e4d5aa34bb;766;"5: Tschiko Sturm / Williams Sea Symphony";6
880983ce460b4699837eb738e95695fb;763;"2: Brahms x 3 / Schumann / Beethoven 9";1
880983ce460b4699837eb738e95695fb;768;"7: Debussy Prelude / Ravel Klavier / Tschaiko 5";2
880983ce460b4699837eb738e95695fb;770;"9: Brahms / Brahms / Beethoven 9";3
880983ce460b4699837eb738e95695fb;771;"10: Dvorak Slawische Tänze / Brahms Requiem";4
881d7ed844c4c7638cb45215f87dd048;768;"7: Debussy Prelude / Ravel Klavier / Tschaiko 5";1
881d7ed844c4c7638cb45215f87dd048;766;"5: Tschiko Sturm / Williams Sea Symphony";2
881d7ed844c4c7638cb45215f87dd048;765;"4: Finlandia / Tristan / Williams Sea Symphony";3
881d7ed844c4c7638cb45215f87dd048;763;"2: Brahms x 3 / Schumann / Beethoven 9";4
881d7ed844c4c7638cb45215f87dd048;770;"9: Brahms / Brahms / Beethoven 9";5
881d7ed844c4c7638cb45215f87dd048;769;"8: Debussy Prelude / Ravel Klavier / Tschaiko 4";6
8ac8470d6f36050413335dd2c1f46814;763;"2: Brahms x 3 / Schumann / Beethoven 9";1
8ac8470d6f36050413335dd2c1f46814;770;"9: Brahms / Brahms / Beethoven 9";2
8ac8470d6f36050413335dd2c1f46814;762;"1: Dvorak Requiem";3
8ac8470d6f36050413335dd2c1f46814;764;"3: Berkner op. 7 / Brahms Requiem";4
8ac8470d6f36050413335dd2c1f46814;767;"6: Wagner / Brahms / Bruckner / Brahms Requiem";5
8ac8470d6f36050413335dd2c1f46814;771;"10: Dvorak Slawische Tänze / Brahms Requiem";6
8ac8470d6f36050413335dd2c1f46814;766;"5: Tschiko Sturm / Williams Sea Symphony";7
8ac8470d6f36050413335dd2c1f46814;765;"4: Finlandia / Tristan / Williams Sea Symphony";8
8ac8470d6f36050413335dd2c1f46814;769;"8: Debussy Prelude / Ravel Klavier / Tschaiko 4";9
8ac8470d6f36050413335dd2c1f46814;768;"7: Debussy Prelude / Ravel Klavier / Tschaiko 5";10
91a04e9d787931a02f0989ef39b57635;762;"1: Dvorak Requiem";1
91a04e9d787931a02f0989ef39b57635;765;"4: Finlandia / Tristan / Williams Sea Symphony";2
91a04e9d787931a02f0989ef39b57635;766;"5: Tschiko Sturm / Williams Sea Symphony";3
91a04e9d787931a02f0989ef39b57635;770;"9: Brahms / Brahms / Beethoven 9";4
91a04e9d787931a02f0989ef39b57635;763;"2: Brahms x 3 / Schumann / Beethoven 9";5
91a04e9d787931a02f0989ef39b57635;771;"10: Dvorak Slawische Tänze / Brahms Requiem";6
91a04e9d787931a02f0989ef39b57635;764;"3: Berkner op. 7 / Brahms Requiem";7
91a04e9d787931a02f0989ef39b57635;767;"6: Wagner / Brahms / Bruckner / Brahms Requiem";8
91a04e9d787931a02f0989ef39b57635;768;"7: Debussy Prelude / Ravel Klavier / Tschaiko 5";9
91a04e9d787931a02f0989ef39b57635;769;"8: Debussy Prelude / Ravel Klavier / Tschaiko 4";10
93a51aa209dfbe6abcd3a2c386937e56;771;"10: Dvorak Slawische Tänze / Brahms Requiem";1
93a51aa209dfbe6abcd3a2c386937e56;763;"2: Brahms x 3 / Schumann / Beethoven 9";2
93a51aa209dfbe6abcd3a2c386937e56;768;"7: Debussy Prelude / Ravel Klavier / Tschaiko 5";3
93a51aa209dfbe6abcd3a2c386937e56;767;"6: Wagner / Brahms / Bruckner / Brahms Requiem";4
95662acfe27e8894116196466bda7a13;768;"7: Debussy Prelude / Ravel Klavier / Tschaiko 5";1
95662acfe27e8894116196466bda7a13;769;"8: Debussy Prelude / Ravel Klavier / Tschaiko 4";2
95662acfe27e8894116196466bda7a13;763;"2: Brahms x 3 / Schumann / Beethoven 9";3
a241e7f42a8a12c6a71367c29eb45e78;768;"7: Debussy Prelude / Ravel Klavier / Tschaiko 5";1
a241e7f42a8a12c6a71367c29eb45e78;769;"8: Debussy Prelude / Ravel Klavier / Tschaiko 4";2
a241e7f42a8a12c6a71367c29eb45e78;765;"4: Finlandia / Tristan / Williams Sea Symphony";3
a241e7f42a8a12c6a71367c29eb45e78;763;"2: Brahms x 3 / Schumann / Beethoven 9";4
a241e7f42a8a12c6a71367c29eb45e78;762;"1: Dvorak Requiem";5
a241e7f42a8a12c6a71367c29eb45e78;770;"9: Brahms / Brahms / Beethoven 9";6
a241e7f42a8a12c6a71367c29eb45e78;766;"5: Tschiko Sturm / Williams Sea Symphony";7
a241e7f42a8a12c6a71367c29eb45e78;767;"6: Wagner / Brahms / Bruckner / Brahms Requiem";8
a241e7f42a8a12c6a71367c29eb45e78;771;"10: Dvorak Slawische Tänze / Brahms Requiem";9
a241e7f42a8a12c6a71367c29eb45e78;764;"3: Berkner op. 7 / Brahms Requiem";10
a4bcb00b7da887732b404f39cab90560;768;"7: Debussy Prelude / Ravel Klavier / Tschaiko 5";1
a4bcb00b7da887732b404f39cab90560;765;"4: Finlandia / Tristan / Williams Sea Symphony";2
a4bcb00b7da887732b404f39cab90560;769;"8: Debussy Prelude / Ravel Klavier / Tschaiko 4";3
a4bcb00b7da887732b404f39cab90560;766;"5: Tschiko Sturm / Williams Sea Symphony";4
a94912138a1802b2a6b55432663a08b2;762;"1: Dvorak Requiem";1
a94912138a1802b2a6b55432663a08b2;771;"10: Dvorak Slawische Tänze / Brahms Requiem";2
a94912138a1802b2a6b55432663a08b2;763;"2: Brahms x 3 / Schumann / Beethoven 9";3
a94912138a1802b2a6b55432663a08b2;765;"4: Finlandia / Tristan / Williams Sea Symphony";4
a94912138a1802b2a6b55432663a08b2;770;"9: Brahms / Brahms / Beethoven 9";5
a94912138a1802b2a6b55432663a08b2;767;"6: Wagner / Brahms / Bruckner / Brahms Requiem";6
a94912138a1802b2a6b55432663a08b2;764;"3: Berkner op. 7 / Brahms Requiem";7
a94912138a1802b2a6b55432663a08b2;766;"5: Tschiko Sturm / Williams Sea Symphony";8
a94912138a1802b2a6b55432663a08b2;768;"7: Debussy Prelude / Ravel Klavier / Tschaiko 5";9
a94912138a1802b2a6b55432663a08b2;769;"8: Debussy Prelude / Ravel Klavier / Tschaiko 4";10
aae2b52b76d6f9059ede1eb88ba84440;765;"4: Finlandia / Tristan / Williams Sea Symphony";1
aae2b52b76d6f9059ede1eb88ba84440;766;"5: Tschiko Sturm / Williams Sea Symphony";2
aae2b52b76d6f9059ede1eb88ba84440;768;"7: Debussy Prelude / Ravel Klavier / Tschaiko 5";3
aae2b52b76d6f9059ede1eb88ba84440;762;"1: Dvorak Requiem";4
aae2b52b76d6f9059ede1eb88ba84440;769;"8: Debussy Prelude / Ravel Klavier / Tschaiko 4";5
aae2b52b76d6f9059ede1eb88ba84440;763;"2: Brahms x 3 / Schumann / Beethoven 9";6
aae2b52b76d6f9059ede1eb88ba84440;770;"9: Brahms / Brahms / Beethoven 9";7
b1690240000d81a69fa065b63713b758;767;"6: Wagner / Brahms / Bruckner / Brahms Requiem";1
b1690240000d81a69fa065b63713b758;765;"4: Finlandia / Tristan / Williams Sea Symphony";2
b1690240000d81a69fa065b63713b758;766;"5: Tschiko Sturm / Williams Sea Symphony";3
b1690240000d81a69fa065b63713b758;762;"1: Dvorak Requiem";4
b1690240000d81a69fa065b63713b758;771;"10: Dvorak Slawische Tänze / Brahms Requiem";5
b1690240000d81a69fa065b63713b758;764;"3: Berkner op. 7 / Brahms Requiem";6
b1690240000d81a69fa065b63713b758;770;"9: Brahms / Brahms / Beethoven 9";7
b1690240000d81a69fa065b63713b758;763;"2: Brahms x 3 / Schumann / Beethoven 9";8
b1690240000d81a69fa065b63713b758;769;"8: Debussy Prelude / Ravel Klavier / Tschaiko 4";9
b1690240000d81a69fa065b63713b758;768;"7: Debussy Prelude / Ravel Klavier / Tschaiko 5";10
b3bb14d4e0819a2ead3cef4741a7670b;768;"7: Debussy Prelude / Ravel Klavier / Tschaiko 5";1
b3bb14d4e0819a2ead3cef4741a7670b;769;"8: Debussy Prelude / Ravel Klavier / Tschaiko 4";2
b3bb14d4e0819a2ead3cef4741a7670b;763;"2: Brahms x 3 / Schumann / Beethoven 9";3
b3bb14d4e0819a2ead3cef4741a7670b;765;"4: Finlandia / Tristan / Williams Sea Symphony";4
b3bb14d4e0819a2ead3cef4741a7670b;766;"5: Tschiko Sturm / Williams Sea Symphony";5
b3bb14d4e0819a2ead3cef4741a7670b;771;"10: Dvorak Slawische Tänze / Brahms Requiem";6
b3bb14d4e0819a2ead3cef4741a7670b;762;"1: Dvorak Requiem";7
b3bb14d4e0819a2ead3cef4741a7670b;770;"9: Brahms / Brahms / Beethoven 9";8
b3bb14d4e0819a2ead3cef4741a7670b;767;"6: Wagner / Brahms / Bruckner / Brahms Requiem";9
b3bb14d4e0819a2ead3cef4741a7670b;764;"3: Berkner op. 7 / Brahms Requiem";10
b5f1451ef752d8175af13fbb544557de;763;"2: Brahms x 3 / Schumann / Beethoven 9";1
b5f1451ef752d8175af13fbb544557de;770;"9: Brahms / Brahms / Beethoven 9";2
b5f1451ef752d8175af13fbb544557de;771;"10: Dvorak Slawische Tänze / Brahms Requiem";3
b5f1451ef752d8175af13fbb544557de;764;"3: Berkner op. 7 / Brahms Requiem";4
b5f1451ef752d8175af13fbb544557de;767;"6: Wagner / Brahms / Bruckner / Brahms Requiem";5
b5f1451ef752d8175af13fbb544557de;762;"1: Dvorak Requiem";6
b5f1451ef752d8175af13fbb544557de;768;"7: Debussy Prelude / Ravel Klavier / Tschaiko 5";7
b5f1451ef752d8175af13fbb544557de;769;"8: Debussy Prelude / Ravel Klavier / Tschaiko 4";8
b5f1451ef752d8175af13fbb544557de;766;"5: Tschiko Sturm / Williams Sea Symphony";9
b5f1451ef752d8175af13fbb544557de;765;"4: Finlandia / Tristan / Williams Sea Symphony";10
ba59018287c1a13f4b2fd977b8a61feb;769;"8: Debussy Prelude / Ravel Klavier / Tschaiko 4";1
ba59018287c1a13f4b2fd977b8a61feb;765;"4: Finlandia / Tristan / Williams Sea Symphony";2
ba59018287c1a13f4b2fd977b8a61feb;766;"5: Tschiko Sturm / Williams Sea Symphony";3
ba59018287c1a13f4b2fd977b8a61feb;768;"7: Debussy Prelude / Ravel Klavier / Tschaiko 5";4
ba59018287c1a13f4b2fd977b8a61feb;767;"6: Wagner / Brahms / Bruckner / Brahms Requiem";5
ba59018287c1a13f4b2fd977b8a61feb;764;"3: Berkner op. 7 / Brahms Requiem";6
ba59018287c1a13f4b2fd977b8a61feb;771;"10: Dvorak Slawische Tänze / Brahms Requiem";7
ba59018287c1a13f4b2fd977b8a61feb;763;"2: Brahms x 3 / Schumann / Beethoven 9";8
ba59018287c1a13f4b2fd977b8a61feb;762;"1: Dvorak Requiem";9
ba59018287c1a13f4b2fd977b8a61feb;770;"9: Brahms / Brahms / Beethoven 9";10
bb4e8cab40ca60c0576bb2cbf57c8e3e;768;"7: Debussy Prelude / Ravel Klavier / Tschaiko 5";1
bb4e8cab40ca60c0576bb2cbf57c8e3e;765;"4: Finlandia / Tristan / Williams Sea Symphony";2
bb4e8cab40ca60c0576bb2cbf57c8e3e;771;"10: Dvorak Slawische Tänze / Brahms Requiem";3
bb4e8cab40ca60c0576bb2cbf57c8e3e;767;"6: Wagner / Brahms / Bruckner / Brahms Requiem";4
bb4e8cab40ca60c0576bb2cbf57c8e3e;762;"1: Dvorak Requiem";5
bb4e8cab40ca60c0576bb2cbf57c8e3e;763;"2: Brahms x 3 / Schumann / Beethoven 9";6
bb4e8cab40ca60c0576bb2cbf57c8e3e;770;"9: Brahms / Brahms / Beethoven 9";7
bb4e8cab40ca60c0576bb2cbf57c8e3e;769;"8: Debussy Prelude / Ravel Klavier / Tschaiko 4";8
bb4e8cab40ca60c0576bb2cbf57c8e3e;766;"5: Tschiko Sturm / Williams Sea Symphony";9
bb4e8cab40ca60c0576bb2cbf57c8e3e;764;"3: Berkner op. 7 / Brahms Requiem";10
bda94827fe6805746d1ce7acb5a3dc92;771;"10: Dvorak Slawische Tänze / Brahms Requiem";1
bda94827fe6805746d1ce7acb5a3dc92;769;"8: Debussy Prelude / Ravel Klavier / Tschaiko 4";2
bda94827fe6805746d1ce7acb5a3dc92;764;"3: Berkner op. 7 / Brahms Requiem";3
bda94827fe6805746d1ce7acb5a3dc92;768;"7: Debussy Prelude / Ravel Klavier / Tschaiko 5";4
bda94827fe6805746d1ce7acb5a3dc92;762;"1: Dvorak Requiem";5
bda94827fe6805746d1ce7acb5a3dc92;767;"6: Wagner / Brahms / Bruckner / Brahms Requiem";6
bda94827fe6805746d1ce7acb5a3dc92;766;"5: Tschiko Sturm / Williams Sea Symphony";7
bda94827fe6805746d1ce7acb5a3dc92;765;"4: Finlandia / Tristan / Williams Sea Symphony";8
be7e43a48272be61cd9226711e7613cc;771;"10: Dvorak Slawische Tänze / Brahms Requiem";1
be7e43a48272be61cd9226711e7613cc;762;"1: Dvorak Requiem";2
be7e43a48272be61cd9226711e7613cc;767;"6: Wagner / Brahms / Bruckner / Brahms Requiem";3
be7e43a48272be61cd9226711e7613cc;763;"2: Brahms x 3 / Schumann / Beethoven 9";4
be7e43a48272be61cd9226711e7613cc;764;"3: Berkner op. 7 / Brahms Requiem";5
be7e43a48272be61cd9226711e7613cc;769;"8: Debussy Prelude / Ravel Klavier / Tschaiko 4";6
be7e43a48272be61cd9226711e7613cc;768;"7: Debussy Prelude / Ravel Klavier / Tschaiko 5";7
c15a13bdc4684f102ad2b3a363d1c3e5;770;"9: Brahms / Brahms / Beethoven 9";1
c15a13bdc4684f102ad2b3a363d1c3e5;763;"2: Brahms x 3 / Schumann / Beethoven 9";2
c15a13bdc4684f102ad2b3a363d1c3e5;771;"10: Dvorak Slawische Tänze / Brahms Requiem";3
c6d4cb451038a952a68d8be80b336951;762;"1: Dvorak Requiem";1
c6d4cb451038a952a68d8be80b336951;767;"6: Wagner / Brahms / Bruckner / Brahms Requiem";2
c6d4cb451038a952a68d8be80b336951;771;"10: Dvorak Slawische Tänze / Brahms Requiem";3
c6d4cb451038a952a68d8be80b336951;765;"4: Finlandia / Tristan / Williams Sea Symphony";4
c6d4cb451038a952a68d8be80b336951;766;"5: Tschiko Sturm / Williams Sea Symphony";5
c6d4cb451038a952a68d8be80b336951;763;"2: Brahms x 3 / Schumann / Beethoven 9";6
c6d4cb451038a952a68d8be80b336951;770;"9: Brahms / Brahms / Beethoven 9";7
c6d4cb451038a952a68d8be80b336951;764;"3: Berkner op. 7 / Brahms Requiem";8
c6d4cb451038a952a68d8be80b336951;769;"8: Debussy Prelude / Ravel Klavier / Tschaiko 4";9
c6d4cb451038a952a68d8be80b336951;768;"7: Debussy Prelude / Ravel Klavier / Tschaiko 5";10
c81dfe0e18636a2092f7a0d9d6757e79;769;"8: Debussy Prelude / Ravel Klavier / Tschaiko 4";1
c81dfe0e18636a2092f7a0d9d6757e79;768;"7: Debussy Prelude / Ravel Klavier / Tschaiko 5";2
c81dfe0e18636a2092f7a0d9d6757e79;771;"10: Dvorak Slawische Tänze / Brahms Requiem";3
c8c4a0bdc31278669d8900582e409181;765;"4: Finlandia / Tristan / Williams Sea Symphony";1
c8c4a0bdc31278669d8900582e409181;766;"5: Tschiko Sturm / Williams Sea Symphony";2
c8c4a0bdc31278669d8900582e409181;771;"10: Dvorak Slawische Tänze / Brahms Requiem";3
c8c4a0bdc31278669d8900582e409181;762;"1: Dvorak Requiem";4
cac881103ca3b5bbee4157c6ee4a5216;768;"7: Debussy Prelude / Ravel Klavier / Tschaiko 5";1
cac881103ca3b5bbee4157c6ee4a5216;763;"2: Brahms x 3 / Schumann / Beethoven 9";2
cac881103ca3b5bbee4157c6ee4a5216;769;"8: Debussy Prelude / Ravel Klavier / Tschaiko 4";3
cf230f409802cdc665859401444ea772;768;"7: Debussy Prelude / Ravel Klavier / Tschaiko 5";1
cf230f409802cdc665859401444ea772;765;"4: Finlandia / Tristan / Williams Sea Symphony";2
cf230f409802cdc665859401444ea772;769;"8: Debussy Prelude / Ravel Klavier / Tschaiko 4";3
cf230f409802cdc665859401444ea772;766;"5: Tschiko Sturm / Williams Sea Symphony";4
cf230f409802cdc665859401444ea772;770;"9: Brahms / Brahms / Beethoven 9";5
d7f8efb0bc9a9a81aa0e0dc7deca1330;766;"5: Tschiko Sturm / Williams Sea Symphony";1
d7f8efb0bc9a9a81aa0e0dc7deca1330;771;"10: Dvorak Slawische Tänze / Brahms Requiem";2
d7f8efb0bc9a9a81aa0e0dc7deca1330;765;"4: Finlandia / Tristan / Williams Sea Symphony";3
d7f8efb0bc9a9a81aa0e0dc7deca1330;768;"7: Debussy Prelude / Ravel Klavier / Tschaiko 5";4
d93d4f61b61ff718c6b0cbfc6a578c1c;763;"2: Brahms x 3 / Schumann / Beethoven 9";1
d93d4f61b61ff718c6b0cbfc6a578c1c;767;"6: Wagner / Brahms / Bruckner / Brahms Requiem";2
d93d4f61b61ff718c6b0cbfc6a578c1c;765;"4: Finlandia / Tristan / Williams Sea Symphony";3
d93d4f61b61ff718c6b0cbfc6a578c1c;771;"10: Dvorak Slawische Tänze / Brahms Requiem";4
d93d4f61b61ff718c6b0cbfc6a578c1c;762;"1: Dvorak Requiem";5
dccf6bc06401f4db7283249b2b089f36;764;"3: Berkner op. 7 / Brahms Requiem";1
dccf6bc06401f4db7283249b2b089f36;771;"10: Dvorak Slawische Tänze / Brahms Requiem";2
dccf6bc06401f4db7283249b2b089f36;765;"4: Finlandia / Tristan / Williams Sea Symphony";3
dccf6bc06401f4db7283249b2b089f36;762;"1: Dvorak Requiem";4
dccf6bc06401f4db7283249b2b089f36;766;"5: Tschiko Sturm / Williams Sea Symphony";5
dccf6bc06401f4db7283249b2b089f36;767;"6: Wagner / Brahms / Bruckner / Brahms Requiem";6
dccf6bc06401f4db7283249b2b089f36;763;"2: Brahms x 3 / Schumann / Beethoven 9";7
dccf6bc06401f4db7283249b2b089f36;770;"9: Brahms / Brahms / Beethoven 9";8
dccf6bc06401f4db7283249b2b089f36;769;"8: Debussy Prelude / Ravel Klavier / Tschaiko 4";9
dd5db9cc18cd09665f6c75ce2c3668ef;770;"9: Brahms / Brahms / Beethoven 9";1
dd5db9cc18cd09665f6c75ce2c3668ef;763;"2: Brahms x 3 / Schumann / Beethoven 9";2
dd5db9cc18cd09665f6c75ce2c3668ef;768;"7: Debussy Prelude / Ravel Klavier / Tschaiko 5";3
dd5db9cc18cd09665f6c75ce2c3668ef;762;"1: Dvorak Requiem";4
dd5db9cc18cd09665f6c75ce2c3668ef;767;"6: Wagner / Brahms / Bruckner / Brahms Requiem";5
ddf034c45b1e92752c76dfc40ed69488;763;"2: Brahms x 3 / Schumann / Beethoven 9";1
ddf034c45b1e92752c76dfc40ed69488;767;"6: Wagner / Brahms / Bruckner / Brahms Requiem";2
ddf034c45b1e92752c76dfc40ed69488;765;"4: Finlandia / Tristan / Williams Sea Symphony";3
ddf034c45b1e92752c76dfc40ed69488;771;"10: Dvorak Slawische Tänze / Brahms Requiem";4
ddf034c45b1e92752c76dfc40ed69488;762;"1: Dvorak Requiem";5
de7780496302aa2c493d1f9a2aa663a9;763;"2: Brahms x 3 / Schumann / Beethoven 9";1
de7780496302aa2c493d1f9a2aa663a9;770;"9: Brahms / Brahms / Beethoven 9";2
de7780496302aa2c493d1f9a2aa663a9;766;"5: Tschiko Sturm / Williams Sea Symphony";3
de7780496302aa2c493d1f9a2aa663a9;769;"8: Debussy Prelude / Ravel Klavier / Tschaiko 4";4
de7780496302aa2c493d1f9a2aa663a9;768;"7: Debussy Prelude / Ravel Klavier / Tschaiko 5";5
de7780496302aa2c493d1f9a2aa663a9;765;"4: Finlandia / Tristan / Williams Sea Symphony";6
df6a68c51747c126ce7a10ef364541d3;766;"5: Tschiko Sturm / Williams Sea Symphony";1
df6a68c51747c126ce7a10ef364541d3;771;"10: Dvorak Slawische Tänze / Brahms Requiem";2
df6a68c51747c126ce7a10ef364541d3;762;"1: Dvorak Requiem";3
df6a68c51747c126ce7a10ef364541d3;765;"4: Finlandia / Tristan / Williams Sea Symphony";4
df6a68c51747c126ce7a10ef364541d3;768;"7: Debussy Prelude / Ravel Klavier / Tschaiko 5";5
df6a68c51747c126ce7a10ef364541d3;767;"6: Wagner / Brahms / Bruckner / Brahms Requiem";6
df6a68c51747c126ce7a10ef364541d3;763;"2: Brahms x 3 / Schumann / Beethoven 9";7
df6a68c51747c126ce7a10ef364541d3;764;"3: Berkner op. 7 / Brahms Requiem";8
df6a68c51747c126ce7a10ef364541d3;769;"8: Debussy Prelude / Ravel Klavier / Tschaiko 4";9
df6a68c51747c126ce7a10ef364541d3;770;"9: Brahms / Brahms / Beethoven 9";10
e328e33aa20469f2b794ecfb497cc718;771;"10: Dvorak Slawische Tänze / Brahms Requiem";1
e328e33aa20469f2b794ecfb497cc718;763;"2: Brahms x 3 / Schumann / Beethoven 9";2
e328e33aa20469f2b794ecfb497cc718;768;"7: Debussy Prelude / Ravel Klavier / Tschaiko 5";3
e328e33aa20469f2b794ecfb497cc718;767;"6: Wagner / Brahms / Bruckner / Brahms Requiem";4
e328e33aa20469f2b794ecfb497cc718;762;"1: Dvorak Requiem";5
e328e33aa20469f2b794ecfb497cc718;769;"8: Debussy Prelude / Ravel Klavier / Tschaiko 4";6
e328e33aa20469f2b794ecfb497cc718;764;"3: Berkner op. 7 / Brahms Requiem";7
e328e33aa20469f2b794ecfb497cc718;770;"9: Brahms / Brahms / Beethoven 9";8
e328e33aa20469f2b794ecfb497cc718;765;"4: Finlandia / Tristan / Williams Sea Symphony";9
e328e33aa20469f2b794ecfb497cc718;766;"5: Tschiko Sturm / Williams Sea Symphony";10
e58b43cb5d0a8377598352c77d3ec5e7;763;"2: Brahms x 3 / Schumann / Beethoven 9";1
e58b43cb5d0a8377598352c77d3ec5e7;766;"5: Tschiko Sturm / Williams Sea Symphony";2
e58b43cb5d0a8377598352c77d3ec5e7;765;"4: Finlandia / Tristan / Williams Sea Symphony";3
e58b43cb5d0a8377598352c77d3ec5e7;767;"6: Wagner / Brahms / Bruckner / Brahms Requiem";4
e58b43cb5d0a8377598352c77d3ec5e7;771;"10: Dvorak Slawische Tänze / Brahms Requiem";5
e58b43cb5d0a8377598352c77d3ec5e7;764;"3: Berkner op. 7 / Brahms Requiem";6
e58b43cb5d0a8377598352c77d3ec5e7;762;"1: Dvorak Requiem";7
e8ca6186128efceb00f74fbc3ea58aab;765;"4: Finlandia / Tristan / Williams Sea Symphony";1
e8ca6186128efceb00f74fbc3ea58aab;766;"5: Tschiko Sturm / Williams Sea Symphony";2
e8ca6186128efceb00f74fbc3ea58aab;771;"10: Dvorak Slawische Tänze / Brahms Requiem";3
e8ca6186128efceb00f74fbc3ea58aab;767;"6: Wagner / Brahms / Bruckner / Brahms Requiem";4
e8ca6186128efceb00f74fbc3ea58aab;764;"3: Berkner op. 7 / Brahms Requiem";5
e8ca6186128efceb00f74fbc3ea58aab;762;"1: Dvorak Requiem";6
e8ca6186128efceb00f74fbc3ea58aab;763;"2: Brahms x 3 / Schumann / Beethoven 9";7
ec66038d2ff6fde881b047d11948d199;768;"7: Debussy Prelude / Ravel Klavier / Tschaiko 5";1
ec66038d2ff6fde881b047d11948d199;769;"8: Debussy Prelude / Ravel Klavier / Tschaiko 4";2
ec66038d2ff6fde881b047d11948d199;763;"2: Brahms x 3 / Schumann / Beethoven 9";3
ec66038d2ff6fde881b047d11948d199;770;"9: Brahms / Brahms / Beethoven 9";4
ec66038d2ff6fde881b047d11948d199;762;"1: Dvorak Requiem";5
eef606d0c773091f903e324255cca832;763;"2: Brahms x 3 / Schumann / Beethoven 9";1
eef606d0c773091f903e324255cca832;762;"1: Dvorak Requiem";2
eef606d0c773091f903e324255cca832;765;"4: Finlandia / Tristan / Williams Sea Symphony";3
f85e81f7d3025c16b3feb8e33a168b9e;765;"4: Finlandia / Tristan / Williams Sea Symphony";1
f85e81f7d3025c16b3feb8e33a168b9e;766;"5: Tschiko Sturm / Williams Sea Symphony";2
f85e81f7d3025c16b3feb8e33a168b9e;771;"10: Dvorak Slawische Tänze / Brahms Requiem";3
f85e81f7d3025c16b3feb8e33a168b9e;770;"9: Brahms / Brahms / Beethoven 9";4
f85e81f7d3025c16b3feb8e33a168b9e;764;"3: Berkner op. 7 / Brahms Requiem";5
f85e81f7d3025c16b3feb8e33a168b9e;762;"1: Dvorak Requiem";6
f85e81f7d3025c16b3feb8e33a168b9e;767;"6: Wagner / Brahms / Bruckner / Brahms Requiem";7
f85e81f7d3025c16b3feb8e33a168b9e;768;"7: Debussy Prelude / Ravel Klavier / Tschaiko 5";8
f85e81f7d3025c16b3feb8e33a168b9e;769;"8: Debussy Prelude / Ravel Klavier / Tschaiko 4";9
f85e81f7d3025c16b3feb8e33a168b9e;763;"2: Brahms x 3 / Schumann / Beethoven 9";10
f95d5c243877900d235d27ccc8ff622a;762;"1: Dvorak Requiem";1
f95d5c243877900d235d27ccc8ff622a;767;"6: Wagner / Brahms / Bruckner / Brahms Requiem";2
f95d5c243877900d235d27ccc8ff622a;771;"10: Dvorak Slawische Tänze / Brahms Requiem";3
f95d5c243877900d235d27ccc8ff622a;764;"3: Berkner op. 7 / Brahms Requiem";4
f95d5c243877900d235d27ccc8ff622a;766;"5: Tschiko Sturm / Williams Sea Symphony";5
f95d5c243877900d235d27ccc8ff622a;765;"4: Finlandia / Tristan / Williams Sea Symphony";6
fb0c6a0b4be7933fce850f540c39dd6d;765;"4: Finlandia / Tristan / Williams Sea Symphony";1
fb0c6a0b4be7933fce850f540c39dd6d;766;"5: Tschiko Sturm / Williams Sea Symphony";2
fb0c6a0b4be7933fce850f540c39dd6d;762;"1: Dvorak Requiem";3
fb0c6a0b4be7933fce850f540c39dd6d;771;"10: Dvorak Slawische Tänze / Brahms Requiem";4
fb0c6a0b4be7933fce850f540c39dd6d;767;"6: Wagner / Brahms / Bruckner / Brahms Requiem";5
fb0c6a0b4be7933fce850f540c39dd6d;764;"3: Berkner op. 7 / Brahms Requiem";6
fb0c6a0b4be7933fce850f540c39dd6d;763;"2: Brahms x 3 / Schumann / Beethoven 9";7
fb0c6a0b4be7933fce850f540c39dd6d;770;"9: Brahms / Brahms / Beethoven 9";8
fb0c6a0b4be7933fce850f540c39dd6d;769;"8: Debussy Prelude / Ravel Klavier / Tschaiko 4";9
fb0c6a0b4be7933fce850f540c39dd6d;768;"7: Debussy Prelude / Ravel Klavier / Tschaiko 5";10
fc7b5a12be5f5dedc9924d69cefc6932;766;"5: Tschiko Sturm / Williams Sea Symphony";1
fc7b5a12be5f5dedc9924d69cefc6932;765;"4: Finlandia / Tristan / Williams Sea Symphony";2
fc7b5a12be5f5dedc9924d69cefc6932;771;"10: Dvorak Slawische Tänze / Brahms Requiem";3
fc7b5a12be5f5dedc9924d69cefc6932;767;"6: Wagner / Brahms / Bruckner / Brahms Requiem";4
fc7b5a12be5f5dedc9924d69cefc6932;768;"7: Debussy Prelude / Ravel Klavier / Tschaiko 5";5
fc7b5a12be5f5dedc9924d69cefc6932;762;"1: Dvorak Requiem";6
fc7b5a12be5f5dedc9924d69cefc6932;764;"3: Berkner op. 7 / Brahms Requiem";7
fc7b5a12be5f5dedc9924d69cefc6932;770;"9: Brahms / Brahms / Beethoven 9";8
fc7b5a12be5f5dedc9924d69cefc6932;769;"8: Debussy Prelude / Ravel Klavier / Tschaiko 4";9
fc7b5a12be5f5dedc9924d69cefc6932;763;"2: Brahms x 3 / Schumann / Beethoven 9";10
ffb13ff775c8c0a73d8a8f308a2d11c7;765;"4: Finlandia / Tristan / Williams Sea Symphony";1
ffb13ff775c8c0a73d8a8f308a2d11c7;766;"5: Tschiko Sturm / Williams Sea Symphony";2
ffb13ff775c8c0a73d8a8f308a2d11c7;770;"9: Brahms / Brahms / Beethoven 9";3
ffb13ff775c8c0a73d8a8f308a2d11c7;771;"10: Dvorak Slawische Tänze / Brahms Requiem";4
ffb13ff775c8c0a73d8a8f308a2d11c7;767;"6: Wagner / Brahms / Bruckner / Brahms Requiem";5
ffb13ff775c8c0a73d8a8f308a2d11c7;762;"1: Dvorak Requiem";6
ffb13ff775c8c0a73d8a8f308a2d11c7;763;"2: Brahms x 3 / Schumann / Beethoven 9";7
ffb13ff775c8c0a73d8a8f308a2d11c7;768;"7: Debussy Prelude / Ravel Klavier / Tschaiko 5";8
ffb13ff775c8c0a73d8a8f308a2d11c7;769;"8: Debussy Prelude / Ravel Klavier / Tschaiko 4";9
